Practica4/simulation/qsim/LOAC_P4.msim.vcd
$comment
	File created using the following command:
		vcd file LOAC_P4.msim.vcd -direction
$end
$date
	Wed Sep 04 10:18:33 2019
$end
$version
	ModelSim Version 10.5b
$end
$timescale
	1ps
$end

$scope module loac_p4_vhd_vec_tst $end
$var wire 1 ! A $end
$var wire 1 " B $end
$var wire 1 # C $end
$var wire 1 $ CLK $end
$var wire 1 % Output [3] $end
$var wire 1 & Output [2] $end
$var wire 1 ' Output [1] $end
$var wire 1 ( Output [0] $end
$var wire 1 ) RESET $end

$scope module i1 $end
$var wire 1 * gnd $end
$var wire 1 + vcc $end
$var wire 1 , unknown $end
$var wire 1 - devoe $end
$var wire 1 . devclrn $end
$var wire 1 / devpor $end
$var wire 1 0 ww_devoe $end
$var wire 1 1 ww_devclrn $end
$var wire 1 2 ww_devpor $end
$var wire 1 3 ww_Output [3] $end
$var wire 1 4 ww_Output [2] $end
$var wire 1 5 ww_Output [1] $end
$var wire 1 6 ww_Output [0] $end
$var wire 1 7 ww_A $end
$var wire 1 8 ww_B $end
$var wire 1 9 ww_C $end
$var wire 1 : ww_CLK $end
$var wire 1 ; ww_RESET $end
$var wire 1 < \~QUARTUS_CREATED_ADC1~_CHSEL_bus\ [4] $end
$var wire 1 = \~QUARTUS_CREATED_ADC1~_CHSEL_bus\ [3] $end
$var wire 1 > \~QUARTUS_CREATED_ADC1~_CHSEL_bus\ [2] $end
$var wire 1 ? \~QUARTUS_CREATED_ADC1~_CHSEL_bus\ [1] $end
$var wire 1 @ \~QUARTUS_CREATED_ADC1~_CHSEL_bus\ [0] $end
$var wire 1 A \~QUARTUS_CREATED_ADC2~_CHSEL_bus\ [4] $end
$var wire 1 B \~QUARTUS_CREATED_ADC2~_CHSEL_bus\ [3] $end
$var wire 1 C \~QUARTUS_CREATED_ADC2~_CHSEL_bus\ [2] $end
$var wire 1 D \~QUARTUS_CREATED_ADC2~_CHSEL_bus\ [1] $end
$var wire 1 E \~QUARTUS_CREATED_ADC2~_CHSEL_bus\ [0] $end
$var wire 1 F \RESET~inputclkctrl_INCLK_bus\ [3] $end
$var wire 1 G \RESET~inputclkctrl_INCLK_bus\ [2] $end
$var wire 1 H \RESET~inputclkctrl_INCLK_bus\ [1] $end
$var wire 1 I \RESET~inputclkctrl_INCLK_bus\ [0] $end
$var wire 1 J \CLK~inputclkctrl_INCLK_bus\ [3] $end
$var wire 1 K \CLK~inputclkctrl_INCLK_bus\ [2] $end
$var wire 1 L \CLK~inputclkctrl_INCLK_bus\ [1] $end
$var wire 1 M \CLK~inputclkctrl_INCLK_bus\ [0] $end
$var wire 1 N \~QUARTUS_CREATED_GND~I_combout\ $end
$var wire 1 O \~QUARTUS_CREATED_UNVM~~busy\ $end
$var wire 1 P \~QUARTUS_CREATED_ADC1~~eoc\ $end
$var wire 1 Q \~QUARTUS_CREATED_ADC2~~eoc\ $end
$var wire 1 R \Output[3]~output_o\ $end
$var wire 1 S \Output[2]~output_o\ $end
$var wire 1 T \Output[1]~output_o\ $end
$var wire 1 U \Output[0]~output_o\ $end
$var wire 1 V \CLK~input_o\ $end
$var wire 1 W \CLK~inputclkctrl_outclk\ $end
$var wire 1 X \A~input_o\ $end
$var wire 1 Y \C~input_o\ $end
$var wire 1 Z \inst5|Output[0]~8_combout\ $end
$var wire 1 [ \RESET~input_o\ $end
$var wire 1 \ \RESET~inputclkctrl_outclk\ $end
$var wire 1 ] \B~input_o\ $end
$var wire 1 ^ \inst5|Output[1]~6_combout\ $end
$var wire 1 _ \inst5|Output[1]~7_combout\ $end
$var wire 1 ` \inst5|Output[2]~3_combout\ $end
$var wire 1 a \inst5|Output[2]~9_combout\ $end
$var wire 1 b \inst|Mux12~0_combout\ $end
$var wire 1 c \inst|Mux13~0_combout\ $end
$var wire 1 d \inst|Mux14~0_combout\ $end
$var wire 1 e \inst7|Output[0]~9_combout\ $end
$var wire 1 f \inst7|Output[0]~10_combout\ $end
$var wire 1 g \inst3|internal_value\ [2] $end
$var wire 1 h \inst3|internal_value\ [1] $end
$var wire 1 i \inst3|internal_value\ [0] $end
$var wire 1 j \inst|ALT_INV_Mux13~0_combout\ $end
$upscope $end
$upscope $end
$enddefinitions $end
#0
$dumpvars
0!
0"
0#
0$
1)
0*
1+
x,
1-
1.
1/
10
11
12
07
08
09
0:
1;
0N
zO
zP
zQ
1R
1S
0T
0U
0V
0W
0X
0Y
1Z
1[
1\
0]
0^
1_
0`
0a
1b
0c
0d
0e
0f
1j
13
14
05
06
0g
0h
0i
1J
1K
1L
0M
1F
1G
1H
1I
0<
0=
0>
0?
0@
0A
0B
0C
0D
0E
1%
1&
0'
0(
$end
#5000
1$
1:
1V
1M
1W
1i
1h
0Z
1^
0b
1c
1e
0j
0R
1f
0S
03
1U
04
0%
16
0&
1(
#10000
0$
0:
0V
0M
0W
#15000
1$
1:
1V
1M
1W
0i
1Z
0_
1d
1T
15
1'
#20000
0$
0:
0V
0M
0W
#25000
1$
1:
1V
1M
1W
1i
0h
0Z
0^
1_
0d
0e
0T
0f
05
0U
0'
06
0(
#30000
0$
0:
0V
0M
0W
#35000
1$
1:
1V
1M
1W
0i
1h
1Z
1^
1d
1e
1T
1f
0_
15
1U
1'
16
1(
#40000
0$
0:
0V
0M
0W
#45000
1$
1:
1V
1M
1W
1i
0h
0Z
0^
1_
0d
0e
0T
0f
05
0U
0'
06
0(
#50000
0$
0:
0V
0M
0W
#55000
1$
1:
1V
1M
1W
0i
1h
1Z
1^
1d
1e
1T
1f
0_
15
1U
1'
16
1(
#60000
0$
0:
0V
0M
0W
#65000
1$
1:
1V
1M
1W
1i
0h
0Z
0^
1_
0d
0e
0T
0f
05
0U
0'
06
0(
#70000
0$
0:
0V
0M
0W
#75000
1$
1:
1V
1M
1W
0i
1h
1Z
1^
1d
1e
1T
1f
0_
15
1U
1'
16
1(
#80000
0$
0:
0V
0M
0W
#85000
1$
1:
1V
1M
1W
1i
0h
0Z
0^
1_
0d
0e
0T
0f
05
0U
0'
06
0(
#90000
0$
0:
0V
0M
0W
#95000
1$
1:
1V
1M
1W
0i
1h
1Z
1^
1d
1e
1T
1f
0_
15
1U
1'
16
1(
#100000
0$
0:
0V
0M
0W
#105000
1$
1:
1V
1M
1W
1i
0h
0Z
0^
1_
0d
0e
0T
0f
05
0U
0'
06
0(
#110000
0$
0:
0V
0M
0W
#115000
1$
1:
1V
1M
1W
0i
1h
1Z
1^
1d
1e
1T
1f
0_
15
1U
1'
16
1(
#120000
0$
0:
0V
0M
0W
#125000
1$
1:
1V
1M
1W
1i
0h
0Z
0^
1_
0d
0e
0T
0f
05
0U
0'
06
0(
#130000
0$
0:
0V
0M
0W
#135000
1$
1:
1V
1M
1W
0i
1h
1Z
1^
1d
1e
1T
1f
0_
15
1U
1'
16
1(
#140000
0$
0:
0V
0M
0W
#145000
1$
1:
1V
1M
1W
1i
0h
0Z
0^
1_
0d
0e
0T
0f
05
0U
0'
06
0(
#150000
0$
0:
0V
0M
0W
#155000
1$
1:
1V
1M
1W
0i
1h
1Z
1^
1d
1e
1T
1f
0_
15
1U
1'
16
1(
#160000
0$
0:
0V
0M
0W
#165000
1$
1:
1V
1M
1W
1i
0h
0Z
0^
1_
0d
0e
0T
0f
05
0U
0'
06
0(
#170000
0$
0:
0V
0M
0W
#175000
1$
1:
1V
1M
1W
0i
1h
1Z
1^
1d
1e
1T
1f
0_
15
1U
1'
16
1(
#180000
0$
0:
0V
0M
0W
#185000
1$
1:
1V
1M
1W
1i
0h
0Z
0^
1_
0d
0e
0T
0f
05
0U
0'
06
0(
#190000
0$
0:
0V
0M
0W
#195000
1$
1:
1V
1M
1W
0i
1h
1Z
1^
1d
1e
1T
1f
0_
15
1U
1'
16
1(
#200000
0$
0:
0V
0M
0W
#205000
1$
1:
1V
1M
1W
1i
0h
0Z
0^
1_
0d
0e
0T
0f
05
0U
0'
06
0(
#210000
0$
0:
0V
0M
0W
#215000
1$
1:
1V
1M
1W
0i
1h
1Z
1^
1d
1e
1T
1f
0_
15
1U
1'
16
1(
#220000
0$
0:
0V
0M
0W
#225000
1$
1:
1V
1M
1W
1i
0h
0Z
0^
1_
0d
0e
0T
0f
05
0U
0'
06
0(
#230000
0$
0:
0V
0M
0W
#235000
1$
1:
1V
1M
1W
0i
1h
1Z
1^
1d
1e
1T
1f
0_
15
1U
1'
16
1(
#240000
0$
0:
0V
0M
0W
#245000
1$
1:
1V
1M
1W
1i
0h
0Z
0^
1_
0d
0e
0T
0f
05
0U
0'
06
0(
#250000
0$
0:
0V
0M
0W
#255000
1$
1:
1V
1M
1W
0i
1h
1Z
1^
1d
1e
1T
1f
0_
15
1U
1'
16
1(
#260000
0$
0:
0V
0M
0W
#265000
1$
1:
1V
1M
1W
1i
0h
0Z
0^
1_
0d
0e
0T
0f
05
0U
0'
06
0(
#270000
0$
0:
0V
0M
0W
#275000
1$
1:
1V
1M
1W
0i
1h
1Z
1^
1d
1e
1T
1f
0_
15
1U
1'
16
1(
#280000
0$
0:
0V
0M
0W
#285000
1$
1:
1V
1M
1W
1i
0h
0Z
0^
1_
0d
0e
0T
0f
05
0U
0'
06
0(
#290000
0$
0:
0V
0M
0W
#295000
1$
1:
1V
1M
1W
0i
1h
1Z
1^
1d
1e
1T
1f
0_
15
1U
1'
16
1(
#300000
0$
0:
0V
0M
0W
#305000
1$
1:
1V
1M
1W
1i
0h
0Z
0^
1_
0d
0e
0T
0f
05
0U
0'
06
0(
#310000
0$
0:
0V
0M
0W
#315000
1$
1:
1V
1M
1W
0i
1h
1Z
1^
1d
1e
1T
1f
0_
15
1U
1'
16
1(
#320000
0$
0:
0V
0M
0W
#325000
1$
1:
1V
1M
1W
1i
0h
0Z
0^
1_
0d
0e
0T
0f
05
0U
0'
06
0(
#330000
0$
0:
0V
0M
0W
#335000
1$
1:
1V
1M
1W
0i
1h
1Z
1^
1d
1e
1T
1f
0_
15
1U
1'
16
1(
#340000
0$
0:
0V
0M
0W
#345000
1$
1:
1V
1M
1W
1i
0h
0Z
0^
1_
0d
0e
0T
0f
05
0U
0'
06
0(
#350000
0$
0:
0V
0M
0W
#355000
1$
1:
1V
1M
1W
0i
1h
1Z
1^
1d
1e
1T
1f
0_
15
1U
1'
16
1(
#360000
0$
0:
0V
0M
0W
#365000
1$
1:
1V
1M
1W
1i
0h
0Z
0^
1_
0d
0e
0T
0f
05
0U
0'
06
0(
#370000
0$
0:
0V
0M
0W
#375000
1$
1:
1V
1M
1W
0i
1h
1Z
1^
1d
1e
1T
1f
0_
15
1U
1'
16
1(
#380000
0$
0:
0V
0M
0W
#385000
1$
1:
1V
1M
1W
1i
0h
0Z
0^
1_
0d
0e
0T
0f
05
0U
0'
06
0(
#390000
0$
0:
0V
0M
0W
#395000
1$
1:
1V
1M
1W
0i
1h
1Z
1^
1d
1e
1T
1f
0_
15
1U
1'
16
1(
#400000
0$
0:
0V
0M
0W
#405000
1$
1:
1V
1M
1W
1i
0h
0Z
0^
1_
0d
0e
0T
0f
05
0U
0'
06
0(
#410000
0$
0:
0V
0M
0W
#415000
1$
1:
1V
1M
1W
0i
1h
1Z
1^
1d
1e
1T
1f
0_
15
1U
1'
16
1(
#420000
0$
0:
0V
0M
0W
#425000
1$
1:
1V
1M
1W
1i
0h
0Z
0^
1_
0d
0e
0T
0f
05
0U
0'
06
0(
#430000
0$
0:
0V
0M
0W
#435000
1$
1:
1V
1M
1W
0i
1h
1Z
1^
1d
1e
1T
1f
0_
15
1U
1'
16
1(
#440000
0$
0:
0V
0M
0W
#445000
1$
1:
1V
1M
1W
1i
0h
0Z
0^
1_
0d
0e
0T
0f
05
0U
0'
06
0(
#450000
0$
0:
0V
0M
0W
#455000
1$
1:
1V
1M
1W
0i
1h
1Z
1^
1d
1e
1T
1f
0_
15
1U
1'
16
1(
#460000
0$
0:
0V
0M
0W
#465000
1$
1:
1V
1M
1W
1i
0h
0Z
0^
1_
0d
0e
0T
0f
05
0U
0'
06
0(
#470000
0$
0:
0V
0M
0W
#475000
1$
1:
1V
1M
1W
0i
1h
1Z
1^
1d
1e
1T
1f
0_
15
1U
1'
16
1(
#480000
0$
0:
0V
0M
0W
#485000
1$
1:
1V
1M
1W
1i
0h
0Z
0^
1_
0d
0e
0T
0f
05
0U
0'
06
0(
#490000
0$
0:
0V
0M
0W
#495000
1$
1:
1V
1M
1W
0i
1h
1Z
1^
1d
1e
1T
1f
0_
15
1U
1'
16
1(
#500000
0$
0:
0V
0M
0W
#505000
1$
1:
1V
1M
1W
1i
0h
0Z
0^
1_
0d
0e
0T
0f
05
0U
0'
06
0(
#510000
0$
0:
0V
0M
0W
#515000
1$
1:
1V
1M
1W
0i
1h
1Z
1^
1d
1e
1T
1f
0_
15
1U
1'
16
1(
#520000
0$
0:
0V
0M
0W
#525000
1$
1:
1V
1M
1W
1i
0h
0Z
0^
1_
0d
0e
0T
0f
05
0U
0'
06
0(
#530000
0$
0:
0V
0M
0W
#535000
1$
1:
1V
1M
1W
0i
1h
1Z
1^
1d
1e
1T
1f
0_
15
1U
1'
16
1(
#540000
0$
0:
0V
0M
0W
#545000
1$
1:
1V
1M
1W
1i
0h
0Z
0^
1_
0d
0e
0T
0f
05
0U
0'
06
0(
#550000
0$
0:
0V
0M
0W
#555000
1$
1:
1V
1M
1W
0i
1h
1Z
1^
1d
1e
1T
1f
0_
15
1U
1'
16
1(
#560000
0$
0:
0V
0M
0W
#565000
1$
1:
1V
1M
1W
1i
0h
0Z
0^
1_
0d
0e
0T
0f
05
0U
0'
06
0(
#570000
0$
0:
0V
0M
0W
#575000
1$
1:
1V
1M
1W
0i
1h
1Z
1^
1d
1e
1T
1f
0_
15
1U
1'
16
1(
#580000
0$
0:
0V
0M
0W
#585000
1$
1:
1V
1M
1W
1i
0h
0Z
0^
1_
0d
0e
0T
0f
05
0U
0'
06
0(
#590000
0$
0:
0V
0M
0W
#595000
1$
1:
1V
1M
1W
0i
1h
1Z
1^
1d
1e
1T
1f
0_
15
1U
1'
16
1(
#600000
0$
0:
0V
0M
0W
#605000
1$
1:
1V
1M
1W
1i
0h
0Z
0^
1_
0d
0e
0T
0f
05
0U
0'
06
0(
#610000
0$
0:
0V
0M
0W
#615000
1$
1:
1V
1M
1W
0i
1h
1Z
1^
1d
1e
1T
1f
0_
15
1U
1'
16
1(
#620000
0$
0:
0V
0M
0W
#625000
1$
1:
1V
1M
1W
1i
0h
0Z
0^
1_
0d
0e
0T
0f
05
0U
0'
06
0(
#630000
0$
0:
0V
0M
0W
#635000
1$
1:
1V
1M
1W
0i
1h
1Z
1^
1d
1e
1T
1f
0_
15
1U
1'
16
1(
#640000
0$
0:
0V
0M
0W
#645000
1$
1:
1V
1M
1W
1i
0h
0Z
0^
1_
0d
0e
0T
0f
05
0U
0'
06
0(
#650000
0$
0:
0V
0M
0W
#655000
1$
1:
1V
1M
1W
0i
1h
1Z
1^
1d
1e
1T
1f
0_
15
1U
1'
16
1(
#660000
0$
0:
0V
0M
0W
#665000
1$
1:
1V
1M
1W
1i
0h
0Z
0^
1_
0d
0e
0T
0f
05
0U
0'
06
0(
#670000
0$
0:
0V
0M
0W
#675000
1$
1:
1V
1M
1W
0i
1h
1Z
1^
1d
1e
1T
1f
0_
15
1U
1'
16
1(
#680000
0$
0:
0V
0M
0W
#685000
1$
1:
1V
1M
1W
1i
0h
0Z
0^
1_
0d
0e
0T
0f
05
0U
0'
06
0(
#690000
0$
0:
0V
0M
0W
#695000
1$
1:
1V
1M
1W
0i
1h
1Z
1^
1d
1e
1T
1f
0_
15
1U
1'
16
1(
#700000
0$
0:
0V
0M
0W
#705000
1$
1:
1V
1M
1W
1i
0h
0Z
0^
1_
0d
0e
0T
0f
05
0U
0'
06
0(
#710000
0$
0:
0V
0M
0W
#715000
1$
1:
1V
1M
1W
0i
1h
1Z
1^
1d
1e
1T
1f
0_
15
1U
1'
16
1(
#720000
0$
0:
0V
0M
0W
#725000
1$
1:
1V
1M
1W
1i
0h
0Z
0^
1_
0d
0e
0T
0f
05
0U
0'
06
0(
#730000
0$
0:
0V
0M
0W
#735000
1$
1:
1V
1M
1W
0i
1h
1Z
1^
1d
1e
1T
1f
0_
15
1U
1'
16
1(
#740000
0$
0:
0V
0M
0W
#745000
1$
1:
1V
1M
1W
1i
0h
0Z
0^
1_
0d
0e
0T
0f
05
0U
0'
06
0(
#750000
0$
0:
0V
0M
0W
#755000
1$
1:
1V
1M
1W
0i
1h
1Z
1^
1d
1e
1T
1f
0_
15
1U
1'
16
1(
#760000
0$
0:
0V
0M
0W
#765000
1$
1:
1V
1M
1W
1i
0h
0Z
0^
1_
0d
0e
0T
0f
05
0U
0'
06
0(
#770000
0$
0:
0V
0M
0W
#775000
1$
1:
1V
1M
1W
0i
1h
1Z
1^
1d
1e
1T
1f
0_
15
1U
1'
16
1(
#780000
0$
0:
0V
0M
0W
#785000
1$
1:
1V
1M
1W
1i
0h
0Z
0^
1_
0d
0e
0T
0f
05
0U
0'
06
0(
#790000
0$
0:
0V
0M
0W
#795000
1$
1:
1V
1M
1W
0i
1h
1Z
1^
1d
1e
1T
1f
0_
15
1U
1'
16
1(
#800000
0$
0:
0V
0M
0W
#805000
1$
1:
1V
1M
1W
1i
0h
0Z
0^
1_
0d
0e
0T
0f
05
0U
0'
06
0(
#810000
0$
0:
0V
0M
0W
#815000
1$
1:
1V
1M
1W
0i
1h
1Z
1^
1d
1e
1T
1f
0_
15
1U
1'
16
1(
#820000
0$
0:
0V
0M
0W
#825000
1$
1:
1V
1M
1W
1i
0h
0Z
0^
1_
0d
0e
0T
0f
05
0U
0'
06
0(
#830000
0$
0:
0V
0M
0W
#835000
1$
1:
1V
1M
1W
0i
1h
1Z
1^
1d
1e
1T
1f
0_
15
1U
1'
16
1(
#840000
0$
0:
0V
0M
0W
#845000
1$
1:
1V
1M
1W
1i
0h
0Z
0^
1_
0d
0e
0T
0f
05
0U
0'
06
0(
#850000
0$
0:
0V
0M
0W
#855000
1$
1:
1V
1M
1W
0i
1h
1Z
1^
1d
1e
1T
1f
0_
15
1U
1'
16
1(
#860000
0$
0:
0V
0M
0W
#865000
1$
1:
1V
1M
1W
1i
0h
0Z
0^
1_
0d
0e
0T
0f
05
0U
0'
06
0(
#870000
0$
0:
0V
0M
0W
#875000
1$
1:
1V
1M
1W
0i
1h
1Z
1^
1d
1e
1T
1f
0_
15
1U
1'
16
1(
#880000
0$
0:
0V
0M
0W
#885000
1$
1:
1V
1M
1W
1i
0h
0Z
0^
1_
0d
0e
0T
0f
05
0U
0'
06
0(
#890000
0$
0:
0V
0M
0W
#895000
1$
1:
1V
1M
1W
0i
1h
1Z
1^
1d
1e
1T
1f
0_
15
1U
1'
16
1(
#900000
0$
0:
0V
0M
0W
#905000
1$
1:
1V
1M
1W
1i
0h
0Z
0^
1_
0d
0e
0T
0f
05
0U
0'
06
0(
#910000
0$
0:
0V
0M
0W
#915000
1$
1:
1V
1M
1W
0i
1h
1Z
1^
1d
1e
1T
1f
0_
15
1U
1'
16
1(
#920000
0$
0:
0V
0M
0W
#925000
1$
1:
1V
1M
1W
1i
0h
0Z
0^
1_
0d
0e
0T
0f
05
0U
0'
06
0(
#930000
0$
0:
0V
0M
0W
#935000
1$
1:
1V
1M
1W
0i
1h
1Z
1^
1d
1e
1T
1f
0_
15
1U
1'
16
1(
#940000
0$
0:
0V
0M
0W
#945000
1$
1:
1V
1M
1W
1i
0h
0Z
0^
1_
0d
0e
0T
0f
05
0U
0'
06
0(
#950000
0$
0:
0V
0M
0W
#955000
1$
1:
1V
1M
1W
0i
1h
1Z
1^
1d
1e
1T
1f
0_
15
1U
1'
16
1(
#960000
0$
0:
0V
0M
0W
#965000
1$
1:
1V
1M
1W
1i
0h
0Z
0^
1_
0d
0e
0T
0f
05
0U
0'
06
0(
#970000
0$
0:
0V
0M
0W
#975000
1$
1:
1V
1M
1W
0i
1h
1Z
1^
1d
1e
1T
1f
0_
15
1U
1'
16
1(
#980000
0$
0:
0V
0M
0W
#985000
1$
1:
1V
1M
1W
1i
0h
0Z
0^
1_
0d
0e
0T
0f
05
0U
0'
06
0(
#990000
0$
0:
0V
0M
0W
#995000
1$
1:
1V
1M
1W
0i
1h
1Z
1^
1d
1e
1T
1f
0_
15
1U
1'
16
1(
