Practica4/simulation/qsim/LOAC_P4.msim.vcd
$comment
	File created using the following command:
		vcd file LOAC_P4.msim.vcd -direction
$end
$date
	Sun Sep 08 23:56:00 2019
$end
$version
	ModelSim Version 10.5b
$end
$timescale
	1ps
$end

$scope module loac_p4_vhd_vec_tst $end
$var wire 1 ! A $end
$var wire 1 " B $end
$var wire 1 # BOTON $end
$var wire 1 $ C $end
$var wire 1 % CLK $end
$var wire 1 & Output [3] $end
$var wire 1 ' Output [2] $end
$var wire 1 ( Output [1] $end
$var wire 1 ) Output [0] $end
$var wire 1 * RESET $end
$var wire 1 + salida [6] $end
$var wire 1 , salida [5] $end
$var wire 1 - salida [4] $end
$var wire 1 . salida [3] $end
$var wire 1 / salida [2] $end
$var wire 1 0 salida [1] $end
$var wire 1 1 salida [0] $end
$var wire 1 2 Switch $end

$scope module i1 $end
$var wire 1 3 gnd $end
$var wire 1 4 vcc $end
$var wire 1 5 unknown $end
$var wire 1 6 devoe $end
$var wire 1 7 devclrn $end
$var wire 1 8 devpor $end
$var wire 1 9 ww_devoe $end
$var wire 1 : ww_devclrn $end
$var wire 1 ; ww_devpor $end
$var wire 1 < ww_Output [3] $end
$var wire 1 = ww_Output [2] $end
$var wire 1 > ww_Output [1] $end
$var wire 1 ? ww_Output [0] $end
$var wire 1 @ ww_A $end
$var wire 1 A ww_B $end
$var wire 1 B ww_C $end
$var wire 1 C ww_BOTON $end
$var wire 1 D ww_CLK $end
$var wire 1 E ww_RESET $end
$var wire 1 F ww_salida [6] $end
$var wire 1 G ww_salida [5] $end
$var wire 1 H ww_salida [4] $end
$var wire 1 I ww_salida [3] $end
$var wire 1 J ww_salida [2] $end
$var wire 1 K ww_salida [1] $end
$var wire 1 L ww_salida [0] $end
$var wire 1 M ww_Switch $end
$var wire 1 N \~QUARTUS_CREATED_ADC1~_CHSEL_bus\ [4] $end
$var wire 1 O \~QUARTUS_CREATED_ADC1~_CHSEL_bus\ [3] $end
$var wire 1 P \~QUARTUS_CREATED_ADC1~_CHSEL_bus\ [2] $end
$var wire 1 Q \~QUARTUS_CREATED_ADC1~_CHSEL_bus\ [1] $end
$var wire 1 R \~QUARTUS_CREATED_ADC1~_CHSEL_bus\ [0] $end
$var wire 1 S \~QUARTUS_CREATED_ADC2~_CHSEL_bus\ [4] $end
$var wire 1 T \~QUARTUS_CREATED_ADC2~_CHSEL_bus\ [3] $end
$var wire 1 U \~QUARTUS_CREATED_ADC2~_CHSEL_bus\ [2] $end
$var wire 1 V \~QUARTUS_CREATED_ADC2~_CHSEL_bus\ [1] $end
$var wire 1 W \~QUARTUS_CREATED_ADC2~_CHSEL_bus\ [0] $end
$var wire 1 X \inst9|RELOJ~clkctrl_INCLK_bus\ [3] $end
$var wire 1 Y \inst9|RELOJ~clkctrl_INCLK_bus\ [2] $end
$var wire 1 Z \inst9|RELOJ~clkctrl_INCLK_bus\ [1] $end
$var wire 1 [ \inst9|RELOJ~clkctrl_INCLK_bus\ [0] $end
$var wire 1 \ \CLK~inputclkctrl_INCLK_bus\ [3] $end
$var wire 1 ] \CLK~inputclkctrl_INCLK_bus\ [2] $end
$var wire 1 ^ \CLK~inputclkctrl_INCLK_bus\ [1] $end
$var wire 1 _ \CLK~inputclkctrl_INCLK_bus\ [0] $end
$var wire 1 ` \~QUARTUS_CREATED_GND~I_combout\ $end
$var wire 1 a \~QUARTUS_CREATED_UNVM~~busy\ $end
$var wire 1 b \~QUARTUS_CREATED_ADC1~~eoc\ $end
$var wire 1 c \~QUARTUS_CREATED_ADC2~~eoc\ $end
$var wire 1 d \Output[3]~output_o\ $end
$var wire 1 e \Output[2]~output_o\ $end
$var wire 1 f \Output[1]~output_o\ $end
$var wire 1 g \Output[0]~output_o\ $end
$var wire 1 h \salida[6]~output_o\ $end
$var wire 1 i \salida[5]~output_o\ $end
$var wire 1 j \salida[4]~output_o\ $end
$var wire 1 k \salida[3]~output_o\ $end
$var wire 1 l \salida[2]~output_o\ $end
$var wire 1 m \salida[1]~output_o\ $end
$var wire 1 n \salida[0]~output_o\ $end
$var wire 1 o \CLK~input_o\ $end
$var wire 1 p \CLK~inputclkctrl_outclk\ $end
$var wire 1 q \BOTON~input_o\ $end
$var wire 1 r \inst9|ESIGUIENTE~feeder_combout\ $end
$var wire 1 s \inst9|ESIGUIENTE~q\ $end
$var wire 1 t \inst9|RELOJ~0_combout\ $end
$var wire 1 u \inst9|RELOJ~q\ $end
$var wire 1 v \inst9|RELOJ~clkctrl_outclk\ $end
$var wire 1 w \C~input_o\ $end
$var wire 1 x \B~input_o\ $end
$var wire 1 y \inst6|Output~1_combout\ $end
$var wire 1 z \inst5|Output[0]~1_combout\ $end
$var wire 1 { \RESET~input_o\ $end
$var wire 1 | \inst|Mux12~1_combout\ $end
$var wire 1 } \A~input_o\ $end
$var wire 1 ~ \inst6|Output~0_combout\ $end
$var wire 1 !! \inst5|Output[1]~0_combout\ $end
$var wire 1 "! \inst5|Output[1]~2_combout\ $end
$var wire 1 #! \inst5|Output[2]~3_combout\ $end
$var wire 1 $! \inst5|Output[2]~4_combout\ $end
$var wire 1 %! \inst|Mux12~0_combout\ $end
$var wire 1 &! \inst|Mux13~0_combout\ $end
$var wire 1 '! \inst|Mux14~0_combout\ $end
$var wire 1 (! \inst6|Output~2_combout\ $end
$var wire 1 )! \inst7|Output[0]~0_combout\ $end
$var wire 1 *! \Switch~input_o\ $end
$var wire 1 +! \inst10|salida[6]~0_combout\ $end
$var wire 1 ,! \inst10|salida[5]~1_combout\ $end
$var wire 1 -! \inst10|salida[4]~2_combout\ $end
$var wire 1 .! \inst3|internal_value\ [2] $end
$var wire 1 /! \inst3|internal_value\ [1] $end
$var wire 1 0! \inst3|internal_value\ [0] $end
$var wire 1 1! \inst|ALT_INV_Mux13~0_combout\ $end
$upscope $end
$upscope $end
$enddefinitions $end
#0
$dumpvars
0!
0"
x#
0$
0%
1*
x2
03
14
x5
16
17
18
19
1:
1;
0@
0A
0B
xC
0D
1E
xM
0`
za
zb
zc
1d
1e
0f
0g
0h
xi
xj
1k
1l
0m
0n
0o
0p
xq
xr
0s
0t
0u
0v
0w
0x
0y
1z
1{
1|
0}
0~
0!!
1"!
0#!
0$!
1%!
0&!
0'!
0(!
0)!
x*!
0+!
x,!
x-!
11!
1<
1=
0>
0?
0F
xG
xH
1I
1J
0K
0L
0.!
0/!
00!
1\
1]
1^
0_
1X
1Y
1Z
0[
0N
0O
0P
0Q
0R
0S
0T
0U
0V
0W
1&
1'
0(
0)
0+
x,
x-
1.
1/
00
01
$end
#5000
1%
1D
1o
1_
1p
xs
xt
#10000
0%
0D
0o
0_
0p
#15000
1%
1D
1o
1_
1p
xu
x[
xv
#20000
0%
0D
0o
0_
0p
#25000
1%
1D
1o
1_
1p
#30000
0%
0D
0o
0_
0p
#35000
1%
1D
1o
1_
1p
#40000
0%
0D
0o
0_
0p
#45000
1%
1D
1o
1_
1p
#50000
0%
0D
0o
0_
0p
#55000
1%
1D
1o
1_
1p
#60000
0%
0D
0o
0_
0p
#65000
1%
1D
1o
1_
1p
#70000
0%
0D
0o
0_
0p
#75000
1%
1D
1o
1_
1p
#80000
0%
0D
0o
0_
0p
#85000
1%
1D
1o
1_
1p
#90000
0%
0D
0o
0_
0p
#95000
1%
1D
1o
1_
1p
#100000
0%
0D
0o
0_
0p
#105000
1%
1D
1o
1_
1p
#110000
0%
0D
0o
0_
0p
#115000
1%
1D
1o
1_
1p
#120000
0%
0D
0o
0_
0p
#125000
1%
1D
1o
1_
1p
#130000
0%
0D
0o
0_
0p
#135000
1%
1D
1o
1_
1p
#140000
0%
0D
0o
0_
0p
#145000
1%
1D
1o
1_
1p
#150000
0%
0D
0o
0_
0p
#155000
1%
1D
1o
1_
1p
#160000
0%
0D
0o
0_
0p
#165000
1%
1D
1o
1_
1p
#170000
0%
0D
0o
0_
0p
#175000
1%
1D
1o
1_
1p
#180000
0%
0D
0o
0_
0p
#185000
1%
1D
1o
1_
1p
#190000
0%
0D
0o
0_
0p
#195000
1%
1D
1o
1_
1p
#200000
0%
0D
0o
0_
0p
#205000
1%
1D
1o
1_
1p
#210000
0%
0D
0o
0_
0p
#215000
1%
1D
1o
1_
1p
#220000
0%
0D
0o
0_
0p
#225000
1%
1D
1o
1_
1p
#230000
0%
0D
0o
0_
0p
#235000
1%
1D
1o
1_
1p
#240000
0%
0D
0o
0_
0p
#245000
1%
1D
1o
1_
1p
#250000
0%
0D
0o
0_
0p
#255000
1%
1D
1o
1_
1p
#260000
0%
0D
0o
0_
0p
#265000
1%
1D
1o
1_
1p
#270000
0%
0D
0o
0_
0p
#275000
1%
1D
1o
1_
1p
#280000
0%
0D
0o
0_
0p
#285000
1%
1D
1o
1_
1p
#290000
0%
0D
0o
0_
0p
#295000
1%
1D
1o
1_
1p
#300000
0%
0D
0o
0_
0p
#305000
1%
1D
1o
1_
1p
#310000
0%
0D
0o
0_
0p
#315000
1%
1D
1o
1_
1p
#320000
0%
0D
0o
0_
0p
#325000
1%
1D
1o
1_
1p
#330000
0%
0D
0o
0_
0p
#335000
1%
1D
1o
1_
1p
#340000
0%
0D
0o
0_
0p
#345000
1%
1D
1o
1_
1p
#350000
0%
0D
0o
0_
0p
#355000
1%
1D
1o
1_
1p
#360000
0%
0D
0o
0_
0p
#365000
1%
1D
1o
1_
1p
#370000
0%
0D
0o
0_
0p
#375000
1%
1D
1o
1_
1p
#380000
0%
0D
0o
0_
0p
#385000
1%
1D
1o
1_
1p
#390000
0%
0D
0o
0_
0p
#395000
1%
1D
1o
1_
1p
#400000
0%
0D
0o
0_
0p
#405000
1%
1D
1o
1_
1p
#410000
0%
0D
0o
0_
0p
#415000
1%
1D
1o
1_
1p
#420000
0%
0D
0o
0_
0p
#425000
1%
1D
1o
1_
1p
#430000
0%
0D
0o
0_
0p
#435000
1%
1D
1o
1_
1p
#440000
0%
0D
0o
0_
0p
#445000
1%
1D
1o
1_
1p
#450000
0%
0D
0o
0_
0p
#455000
1%
1D
1o
1_
1p
#460000
0%
0D
0o
0_
0p
#465000
1%
1D
1o
1_
1p
#470000
0%
0D
0o
0_
0p
#475000
1%
1D
1o
1_
1p
#480000
0%
0D
0o
0_
0p
#485000
1%
1D
1o
1_
1p
#490000
0%
0D
0o
0_
0p
#495000
1%
1D
1o
1_
1p
#500000
0%
0D
0o
0_
0p
#505000
1%
1D
1o
1_
1p
#510000
0%
0D
0o
0_
0p
#515000
1%
1D
1o
1_
1p
#520000
0%
0D
0o
0_
0p
#525000
1%
1D
1o
1_
1p
#530000
0%
0D
0o
0_
0p
#535000
1%
1D
1o
1_
1p
#540000
0%
0D
0o
0_
0p
#545000
1%
1D
1o
1_
1p
#550000
0%
0D
0o
0_
0p
#555000
1%
1D
1o
1_
1p
#560000
0%
0D
0o
0_
0p
#565000
1%
1D
1o
1_
1p
#570000
0%
0D
0o
0_
0p
#575000
1%
1D
1o
1_
1p
#580000
0%
0D
0o
0_
0p
#585000
1%
1D
1o
1_
1p
#590000
0%
0D
0o
0_
0p
#595000
1%
1D
1o
1_
1p
#600000
0%
0D
0o
0_
0p
#605000
1%
1D
1o
1_
1p
#610000
0%
0D
0o
0_
0p
#615000
1%
1D
1o
1_
1p
#620000
0%
0D
0o
0_
0p
#625000
1%
1D
1o
1_
1p
#630000
0%
0D
0o
0_
0p
#635000
1%
1D
1o
1_
1p
#640000
0%
0D
0o
0_
0p
#645000
1%
1D
1o
1_
1p
#650000
0%
0D
0o
0_
0p
#655000
1%
1D
1o
1_
1p
#660000
0%
0D
0o
0_
0p
#665000
1%
1D
1o
1_
1p
#670000
0%
0D
0o
0_
0p
#675000
1%
1D
1o
1_
1p
#680000
0%
0D
0o
0_
0p
#685000
1%
1D
1o
1_
1p
#690000
0%
0D
0o
0_
0p
#695000
1%
1D
1o
1_
1p
#700000
0%
0D
0o
0_
0p
#705000
1%
1D
1o
1_
1p
#710000
0%
0D
0o
0_
0p
#715000
1%
1D
1o
1_
1p
#720000
0%
0D
0o
0_
0p
#725000
1%
1D
1o
1_
1p
#730000
0%
0D
0o
0_
0p
#735000
1%
1D
1o
1_
1p
#740000
0%
0D
0o
0_
0p
#745000
1%
1D
1o
1_
1p
#750000
0%
0D
0o
0_
0p
#755000
1%
1D
1o
1_
1p
#760000
0%
0D
0o
0_
0p
#765000
1%
1D
1o
1_
1p
#770000
0%
0D
0o
0_
0p
#775000
1%
1D
1o
1_
1p
#780000
0%
0D
0o
0_
0p
#785000
1%
1D
1o
1_
1p
#790000
0%
0D
0o
0_
0p
#795000
1%
1D
1o
1_
1p
#800000
0%
0D
0o
0_
0p
#805000
1%
1D
1o
1_
1p
#810000
0%
0D
0o
0_
0p
#815000
1%
1D
1o
1_
1p
#820000
0%
0D
0o
0_
0p
#825000
1%
1D
1o
1_
1p
#830000
0%
0D
0o
0_
0p
#835000
1%
1D
1o
1_
1p
#840000
0%
0D
0o
0_
0p
#845000
1%
1D
1o
1_
1p
#850000
0%
0D
0o
0_
0p
#855000
1%
1D
1o
1_
1p
#860000
0%
0D
0o
0_
0p
#865000
1%
1D
1o
1_
1p
#870000
0%
0D
0o
0_
0p
#875000
1%
1D
1o
1_
1p
#880000
0%
0D
0o
0_
0p
#885000
1%
1D
1o
1_
1p
#890000
0%
0D
0o
0_
0p
#895000
1%
1D
1o
1_
1p
#900000
0%
0D
0o
0_
0p
#905000
1%
1D
1o
1_
1p
#910000
0%
0D
0o
0_
0p
#915000
1%
1D
1o
1_
1p
#920000
0%
0D
0o
0_
0p
#925000
1%
1D
1o
1_
1p
#930000
0%
0D
0o
0_
0p
#935000
1%
1D
1o
1_
1p
#940000
0%
0D
0o
0_
0p
#945000
1%
1D
1o
1_
1p
#950000
0%
0D
0o
0_
0p
#955000
1%
1D
1o
1_
1p
#960000
0%
0D
0o
0_
0p
#965000
1%
1D
1o
1_
1p
#970000
0%
0D
0o
0_
0p
#975000
1%
1D
1o
1_
1p
#980000
0%
0D
0o
0_
0p
#985000
1%
1D
1o
1_
1p
#990000
0%
0D
0o
0_
0p
#995000
1%
1D
1o
1_
1p
