Practica4Sim/simulation/qsim/prac4.msim.vcd
$comment
	File created using the following command:
		vcd file prac4.msim.vcd -direction
$end
$date
	Wed Sep 11 09:46:18 2019
$end
$version
	ModelSim Version 10.5b
$end
$timescale
	1ps
$end

$scope module prac4_vhd_vec_tst $end
$var wire 1 ! A $end
$var wire 1 " B $end
$var wire 1 # C $end
$var wire 1 $ CLK $end
$var wire 1 % currentState [2] $end
$var wire 1 & currentState [1] $end
$var wire 1 ' currentState [0] $end
$var wire 1 ( nextState [2] $end
$var wire 1 ) nextState [1] $end
$var wire 1 * nextState [0] $end
$var wire 1 + Output [3] $end
$var wire 1 , Output [2] $end
$var wire 1 - Output [1] $end
$var wire 1 . Output [0] $end
$var wire 1 / RESET $end

$scope module i1 $end
$var wire 1 0 gnd $end
$var wire 1 1 vcc $end
$var wire 1 2 unknown $end
$var wire 1 3 devoe $end
$var wire 1 4 devclrn $end
$var wire 1 5 devpor $end
$var wire 1 6 ww_devoe $end
$var wire 1 7 ww_devclrn $end
$var wire 1 8 ww_devpor $end
$var wire 1 9 ww_currentState [2] $end
$var wire 1 : ww_currentState [1] $end
$var wire 1 ; ww_currentState [0] $end
$var wire 1 < ww_CLK $end
$var wire 1 = ww_RESET $end
$var wire 1 > ww_A $end
$var wire 1 ? ww_B $end
$var wire 1 @ ww_C $end
$var wire 1 A ww_nextState [2] $end
$var wire 1 B ww_nextState [1] $end
$var wire 1 C ww_nextState [0] $end
$var wire 1 D ww_Output [3] $end
$var wire 1 E ww_Output [2] $end
$var wire 1 F ww_Output [1] $end
$var wire 1 G ww_Output [0] $end
$var wire 1 H \~QUARTUS_CREATED_ADC1~_CHSEL_bus\ [4] $end
$var wire 1 I \~QUARTUS_CREATED_ADC1~_CHSEL_bus\ [3] $end
$var wire 1 J \~QUARTUS_CREATED_ADC1~_CHSEL_bus\ [2] $end
$var wire 1 K \~QUARTUS_CREATED_ADC1~_CHSEL_bus\ [1] $end
$var wire 1 L \~QUARTUS_CREATED_ADC1~_CHSEL_bus\ [0] $end
$var wire 1 M \~QUARTUS_CREATED_ADC2~_CHSEL_bus\ [4] $end
$var wire 1 N \~QUARTUS_CREATED_ADC2~_CHSEL_bus\ [3] $end
$var wire 1 O \~QUARTUS_CREATED_ADC2~_CHSEL_bus\ [2] $end
$var wire 1 P \~QUARTUS_CREATED_ADC2~_CHSEL_bus\ [1] $end
$var wire 1 Q \~QUARTUS_CREATED_ADC2~_CHSEL_bus\ [0] $end
$var wire 1 R \RESET~inputclkctrl_INCLK_bus\ [3] $end
$var wire 1 S \RESET~inputclkctrl_INCLK_bus\ [2] $end
$var wire 1 T \RESET~inputclkctrl_INCLK_bus\ [1] $end
$var wire 1 U \RESET~inputclkctrl_INCLK_bus\ [0] $end
$var wire 1 V \CLK~inputclkctrl_INCLK_bus\ [3] $end
$var wire 1 W \CLK~inputclkctrl_INCLK_bus\ [2] $end
$var wire 1 X \CLK~inputclkctrl_INCLK_bus\ [1] $end
$var wire 1 Y \CLK~inputclkctrl_INCLK_bus\ [0] $end
$var wire 1 Z \~QUARTUS_CREATED_GND~I_combout\ $end
$var wire 1 [ \~QUARTUS_CREATED_UNVM~~busy\ $end
$var wire 1 \ \~QUARTUS_CREATED_ADC1~~eoc\ $end
$var wire 1 ] \~QUARTUS_CREATED_ADC2~~eoc\ $end
$var wire 1 ^ \currentState[2]~output_o\ $end
$var wire 1 _ \currentState[1]~output_o\ $end
$var wire 1 ` \currentState[0]~output_o\ $end
$var wire 1 a \nextState[2]~output_o\ $end
$var wire 1 b \nextState[1]~output_o\ $end
$var wire 1 c \nextState[0]~output_o\ $end
$var wire 1 d \Output[3]~output_o\ $end
$var wire 1 e \Output[2]~output_o\ $end
$var wire 1 f \Output[1]~output_o\ $end
$var wire 1 g \Output[0]~output_o\ $end
$var wire 1 h \CLK~input_o\ $end
$var wire 1 i \CLK~inputclkctrl_outclk\ $end
$var wire 1 j \C~input_o\ $end
$var wire 1 k \inst5|Output[0]~8_combout\ $end
$var wire 1 l \RESET~input_o\ $end
$var wire 1 m \RESET~inputclkctrl_outclk\ $end
$var wire 1 n \A~input_o\ $end
$var wire 1 o \B~input_o\ $end
$var wire 1 p \inst5|Output[1]~6_combout\ $end
$var wire 1 q \inst5|Output[1]~7_combout\ $end
$var wire 1 r \ins|internal_value[1]~0_combout\ $end
$var wire 1 s \inst5|Output[2]~3_combout\ $end
$var wire 1 t \inst5|Output[2]~9_combout\ $end
$var wire 1 u \inst1|Mux7~0_combout\ $end
$var wire 1 v \inst1|Mux0~0_combout\ $end
$var wire 1 w \inst1|Mux14~0_combout\ $end
$var wire 1 x \inst6|Output[0]~9_combout\ $end
$var wire 1 y \inst6|Output[0]~10_combout\ $end
$var wire 1 z \ins|internal_value\ [2] $end
$var wire 1 { \ins|internal_value\ [1] $end
$var wire 1 | \ins|internal_value\ [0] $end
$var wire 1 } \inst6|ALT_INV_Output[0]~10_combout\ $end
$var wire 1 ~ \inst1|ALT_INV_Mux0~0_combout\ $end
$var wire 1 !! \inst5|ALT_INV_Output[1]~7_combout\ $end
$upscope $end
$upscope $end
$enddefinitions $end
#0
$dumpvars
0!
0"
0#
0$
1/
00
11
x2
13
14
15
16
17
18
0<
1=
0>
0?
0@
0Z
z[
z\
z]
0^
0_
0`
0a
1b
1c
1d
1e
0f
0g
0h
0i
0j
1k
1l
1m
0n
0o
0p
0q
1r
0s
0t
1u
0v
0w
1x
1y
0}
1~
1!!
09
0:
0;
0A
1B
1C
1D
1E
0F
0G
0z
0{
0|
1V
1W
1X
0Y
1R
1S
1T
1U
0H
0I
0J
0K
0L
0M
0N
0O
0P
0Q
0%
0&
0'
0(
1)
1*
1+
1,
0-
0.
$end
#5000
1$
1<
1h
1Y
1i
1|
1{
1_
1`
0k
1p
0u
1v
0x
0~
1:
1;
0d
0c
0y
1'
1&
0e
1}
0D
0C
0E
0+
0*
1g
0,
1G
1.
#10000
0$
0<
0h
0Y
0i
#15000
1$
1<
1h
1Y
1i
0|
0`
1k
1q
1w
0!!
0;
1f
1c
0r
0'
0b
1F
1C
0B
1-
1*
0)
#20000
0$
0<
0h
0Y
0i
#25000
1$
1<
1h
1Y
1i
1|
0{
0_
1`
0k
0p
0q
0w
1x
1!!
0:
1;
0f
0c
1y
1r
1'
0&
1b
0}
0F
0C
1B
0-
0*
0g
1)
0G
0.
#30000
0$
0<
0h
0Y
0i
#35000
1$
1<
1h
1Y
1i
0|
1{
1_
0`
1k
1p
1w
0x
1:
0;
1f
1c
0y
1q
0'
1&
0!!
1}
1F
1C
0r
1-
1*
1g
0b
1G
0B
1.
0)
#40000
0$
0<
0h
0Y
0i
#45000
1$
1<
1h
1Y
1i
1|
0{
0_
1`
0k
0p
0q
0w
1x
1!!
0:
1;
0f
0c
1y
1r
1'
0&
1b
0}
0F
0C
1B
0-
0*
0g
1)
0G
0.
#50000
0$
0<
0h
0Y
0i
#55000
1$
1<
1h
1Y
1i
0|
1{
1_
0`
1k
1p
1w
0x
1:
0;
1f
1c
0y
1q
0'
1&
0!!
1}
1F
1C
0r
1-
1*
1g
0b
1G
0B
1.
0)
#60000
0$
0<
0h
0Y
0i
#65000
1$
1<
1h
1Y
1i
1|
0{
0_
1`
0k
0p
0q
0w
1x
1!!
0:
1;
0f
0c
1y
1r
1'
0&
1b
0}
0F
0C
1B
0-
0*
0g
1)
0G
0.
#70000
0$
0<
0h
0Y
0i
#75000
1$
1<
1h
1Y
1i
0|
1{
1_
0`
1k
1p
1w
0x
1:
0;
1f
1c
0y
1q
0'
1&
0!!
1}
1F
1C
0r
1-
1*
1g
0b
1G
0B
1.
0)
#80000
0$
0<
0h
0Y
0i
#85000
1$
1<
1h
1Y
1i
1|
0{
0_
1`
0k
0p
0q
0w
1x
1!!
0:
1;
0f
0c
1y
1r
1'
0&
1b
0}
0F
0C
1B
0-
0*
0g
1)
0G
0.
#90000
0$
0<
0h
0Y
0i
#95000
1$
1<
1h
1Y
1i
0|
1{
1_
0`
1k
1p
1w
0x
1:
0;
1f
1c
0y
1q
0'
1&
0!!
1}
1F
1C
0r
1-
1*
1g
0b
1G
0B
1.
0)
#100000
0$
0<
0h
0Y
0i
#105000
1$
1<
1h
1Y
1i
1|
0{
0_
1`
0k
0p
0q
0w
1x
1!!
0:
1;
0f
0c
1y
1r
1'
0&
1b
0}
0F
0C
1B
0-
0*
0g
1)
0G
0.
#110000
0$
0<
0h
0Y
0i
#115000
1$
1<
1h
1Y
1i
0|
1{
1_
0`
1k
1p
1w
0x
1:
0;
1f
1c
0y
1q
0'
1&
0!!
1}
1F
1C
0r
1-
1*
1g
0b
1G
0B
1.
0)
#120000
0$
0<
0h
0Y
0i
#125000
1$
1<
1h
1Y
1i
1|
0{
0_
1`
0k
0p
0q
0w
1x
1!!
0:
1;
0f
0c
1y
1r
1'
0&
1b
0}
0F
0C
1B
0-
0*
0g
1)
0G
0.
#130000
0$
0<
0h
0Y
0i
#135000
1$
1<
1h
1Y
1i
0|
1{
1_
0`
1k
1p
1w
0x
1:
0;
1f
1c
0y
1q
0'
1&
0!!
1}
1F
1C
0r
1-
1*
1g
0b
1G
0B
1.
0)
#140000
0$
0<
0h
0Y
0i
#145000
1$
1<
1h
1Y
1i
1|
0{
0_
1`
0k
0p
0q
0w
1x
1!!
0:
1;
0f
0c
1y
1r
1'
0&
1b
0}
0F
0C
1B
0-
0*
0g
1)
0G
0.
#150000
0$
0<
0h
0Y
0i
#155000
1$
1<
1h
1Y
1i
0|
1{
1_
0`
1k
1p
1w
0x
1:
0;
1f
1c
0y
1q
0'
1&
0!!
1}
1F
1C
0r
1-
1*
1g
0b
1G
0B
1.
0)
#160000
0$
0<
0h
0Y
0i
#165000
1$
1<
1h
1Y
1i
1|
0{
0_
1`
0k
0p
0q
0w
1x
1!!
0:
1;
0f
0c
1y
1r
1'
0&
1b
0}
0F
0C
1B
0-
0*
0g
1)
0G
0.
#170000
0$
0<
0h
0Y
0i
#175000
1$
1<
1h
1Y
1i
0|
1{
1_
0`
1k
1p
1w
0x
1:
0;
1f
1c
0y
1q
0'
1&
0!!
1}
1F
1C
0r
1-
1*
1g
0b
1G
0B
1.
0)
#180000
0$
0<
0h
0Y
0i
#185000
1$
1<
1h
1Y
1i
1|
0{
0_
1`
0k
0p
0q
0w
1x
1!!
0:
1;
0f
0c
1y
1r
1'
0&
1b
0}
0F
0C
1B
0-
0*
0g
1)
0G
0.
#190000
0$
0<
0h
0Y
0i
#195000
1$
1<
1h
1Y
1i
0|
1{
1_
0`
1k
1p
1w
0x
1:
0;
1f
1c
0y
1q
0'
1&
0!!
1}
1F
1C
0r
1-
1*
1g
0b
1G
0B
1.
0)
#200000
0$
0<
0h
0Y
0i
#205000
1$
1<
1h
1Y
1i
1|
0{
0_
1`
0k
0p
0q
0w
1x
1!!
0:
1;
0f
0c
1y
1r
1'
0&
1b
0}
0F
0C
1B
0-
0*
0g
1)
0G
0.
#210000
0$
0<
0h
0Y
0i
#215000
1$
1<
1h
1Y
1i
0|
1{
1_
0`
1k
1p
1w
0x
1:
0;
1f
1c
0y
1q
0'
1&
0!!
1}
1F
1C
0r
1-
1*
1g
0b
1G
0B
1.
0)
#220000
0$
0<
0h
0Y
0i
#225000
1$
1<
1h
1Y
1i
1|
0{
0_
1`
0k
0p
0q
0w
1x
1!!
0:
1;
0f
0c
1y
1r
1'
0&
1b
0}
0F
0C
1B
0-
0*
0g
1)
0G
0.
#230000
0$
0<
0h
0Y
0i
#235000
1$
1<
1h
1Y
1i
0|
1{
1_
0`
1k
1p
1w
0x
1:
0;
1f
1c
0y
1q
0'
1&
0!!
1}
1F
1C
0r
1-
1*
1g
0b
1G
0B
1.
0)
#240000
0$
0<
0h
0Y
0i
#245000
1$
1<
1h
1Y
1i
1|
0{
0_
1`
0k
0p
0q
0w
1x
1!!
0:
1;
0f
0c
1y
1r
1'
0&
1b
0}
0F
0C
1B
0-
0*
0g
1)
0G
0.
#250000
0$
0<
0h
0Y
0i
#255000
1$
1<
1h
1Y
1i
0|
1{
1_
0`
1k
1p
1w
0x
1:
0;
1f
1c
0y
1q
0'
1&
0!!
1}
1F
1C
0r
1-
1*
1g
0b
1G
0B
1.
0)
#260000
0$
0<
0h
0Y
0i
#265000
1$
1<
1h
1Y
1i
1|
0{
0_
1`
0k
0p
0q
0w
1x
1!!
0:
1;
0f
0c
1y
1r
1'
0&
1b
0}
0F
0C
1B
0-
0*
0g
1)
0G
0.
#270000
0$
0<
0h
0Y
0i
#275000
1$
1<
1h
1Y
1i
0|
1{
1_
0`
1k
1p
1w
0x
1:
0;
1f
1c
0y
1q
0'
1&
0!!
1}
1F
1C
0r
1-
1*
1g
0b
1G
0B
1.
0)
#280000
0$
0<
0h
0Y
0i
#285000
1$
1<
1h
1Y
1i
1|
0{
0_
1`
0k
0p
0q
0w
1x
1!!
0:
1;
0f
0c
1y
1r
1'
0&
1b
0}
0F
0C
1B
0-
0*
0g
1)
0G
0.
#290000
0$
0<
0h
0Y
0i
#295000
1$
1<
1h
1Y
1i
0|
1{
1_
0`
1k
1p
1w
0x
1:
0;
1f
1c
0y
1q
0'
1&
0!!
1}
1F
1C
0r
1-
1*
1g
0b
1G
0B
1.
0)
#300000
0$
0<
0h
0Y
0i
#305000
1$
1<
1h
1Y
1i
1|
0{
0_
1`
0k
0p
0q
0w
1x
1!!
0:
1;
0f
0c
1y
1r
1'
0&
1b
0}
0F
0C
1B
0-
0*
0g
1)
0G
0.
#310000
0$
0<
0h
0Y
0i
#315000
1$
1<
1h
1Y
1i
0|
1{
1_
0`
1k
1p
1w
0x
1:
0;
1f
1c
0y
1q
0'
1&
0!!
1}
1F
1C
0r
1-
1*
1g
0b
1G
0B
1.
0)
#320000
0$
0<
0h
0Y
0i
#325000
1$
1<
1h
1Y
1i
1|
0{
0_
1`
0k
0p
0q
0w
1x
1!!
0:
1;
0f
0c
1y
1r
1'
0&
1b
0}
0F
0C
1B
0-
0*
0g
1)
0G
0.
#330000
0$
0<
0h
0Y
0i
#335000
1$
1<
1h
1Y
1i
0|
1{
1_
0`
1k
1p
1w
0x
1:
0;
1f
1c
0y
1q
0'
1&
0!!
1}
1F
1C
0r
1-
1*
1g
0b
1G
0B
1.
0)
#340000
0$
0<
0h
0Y
0i
#345000
1$
1<
1h
1Y
1i
1|
0{
0_
1`
0k
0p
0q
0w
1x
1!!
0:
1;
0f
0c
1y
1r
1'
0&
1b
0}
0F
0C
1B
0-
0*
0g
1)
0G
0.
#350000
0$
0<
0h
0Y
0i
#355000
1$
1<
1h
1Y
1i
0|
1{
1_
0`
1k
1p
1w
0x
1:
0;
1f
1c
0y
1q
0'
1&
0!!
1}
1F
1C
0r
1-
1*
1g
0b
1G
0B
1.
0)
#360000
0$
0<
0h
0Y
0i
#365000
1$
1<
1h
1Y
1i
1|
0{
0_
1`
0k
0p
0q
0w
1x
1!!
0:
1;
0f
0c
1y
1r
1'
0&
1b
0}
0F
0C
1B
0-
0*
0g
1)
0G
0.
#370000
0$
0<
0h
0Y
0i
#375000
1$
1<
1h
1Y
1i
0|
1{
1_
0`
1k
1p
1w
0x
1:
0;
1f
1c
0y
1q
0'
1&
0!!
1}
1F
1C
0r
1-
1*
1g
0b
1G
0B
1.
0)
#380000
0$
0<
0h
0Y
0i
#385000
1$
1<
1h
1Y
1i
1|
0{
0_
1`
0k
0p
0q
0w
1x
1!!
0:
1;
0f
0c
1y
1r
1'
0&
1b
0}
0F
0C
1B
0-
0*
0g
1)
0G
0.
#390000
0$
0<
0h
0Y
0i
#395000
1$
1<
1h
1Y
1i
0|
1{
1_
0`
1k
1p
1w
0x
1:
0;
1f
1c
0y
1q
0'
1&
0!!
1}
1F
1C
0r
1-
1*
1g
0b
1G
0B
1.
0)
#400000
0$
0<
0h
0Y
0i
#405000
1$
1<
1h
1Y
1i
1|
0{
0_
1`
0k
0p
0q
0w
1x
1!!
0:
1;
0f
0c
1y
1r
1'
0&
1b
0}
0F
0C
1B
0-
0*
0g
1)
0G
0.
#410000
0$
0<
0h
0Y
0i
#415000
1$
1<
1h
1Y
1i
0|
1{
1_
0`
1k
1p
1w
0x
1:
0;
1f
1c
0y
1q
0'
1&
0!!
1}
1F
1C
0r
1-
1*
1g
0b
1G
0B
1.
0)
#420000
0$
0<
0h
0Y
0i
#425000
1$
1<
1h
1Y
1i
1|
0{
0_
1`
0k
0p
0q
0w
1x
1!!
0:
1;
0f
0c
1y
1r
1'
0&
1b
0}
0F
0C
1B
0-
0*
0g
1)
0G
0.
#430000
0$
0<
0h
0Y
0i
#435000
1$
1<
1h
1Y
1i
0|
1{
1_
0`
1k
1p
1w
0x
1:
0;
1f
1c
0y
1q
0'
1&
0!!
1}
1F
1C
0r
1-
1*
1g
0b
1G
0B
1.
0)
#440000
0$
0<
0h
0Y
0i
#445000
1$
1<
1h
1Y
1i
1|
0{
0_
1`
0k
0p
0q
0w
1x
1!!
0:
1;
0f
0c
1y
1r
1'
0&
1b
0}
0F
0C
1B
0-
0*
0g
1)
0G
0.
#450000
0$
0<
0h
0Y
0i
#455000
1$
1<
1h
1Y
1i
0|
1{
1_
0`
1k
1p
1w
0x
1:
0;
1f
1c
0y
1q
0'
1&
0!!
1}
1F
1C
0r
1-
1*
1g
0b
1G
0B
1.
0)
#460000
0$
0<
0h
0Y
0i
#465000
1$
1<
1h
1Y
1i
1|
0{
0_
1`
0k
0p
0q
0w
1x
1!!
0:
1;
0f
0c
1y
1r
1'
0&
1b
0}
0F
0C
1B
0-
0*
0g
1)
0G
0.
#470000
0$
0<
0h
0Y
0i
#475000
1$
1<
1h
1Y
1i
0|
1{
1_
0`
1k
1p
1w
0x
1:
0;
1f
1c
0y
1q
0'
1&
0!!
1}
1F
1C
0r
1-
1*
1g
0b
1G
0B
1.
0)
#480000
0$
0<
0h
0Y
0i
#485000
1$
1<
1h
1Y
1i
1|
0{
0_
1`
0k
0p
0q
0w
1x
1!!
0:
1;
0f
0c
1y
1r
1'
0&
1b
0}
0F
0C
1B
0-
0*
0g
1)
0G
0.
#490000
0$
0<
0h
0Y
0i
#495000
1$
1<
1h
1Y
1i
0|
1{
1_
0`
1k
1p
1w
0x
1:
0;
1f
1c
0y
1q
0'
1&
0!!
1}
1F
1C
0r
1-
1*
1g
0b
1G
0B
1.
0)
#500000
0$
0<
0h
0Y
0i
#505000
1$
1<
1h
1Y
1i
1|
0{
0_
1`
0k
0p
0q
0w
1x
1!!
0:
1;
0f
0c
1y
1r
1'
0&
1b
0}
0F
0C
1B
0-
0*
0g
1)
0G
0.
#510000
0$
0<
0h
0Y
0i
#515000
1$
1<
1h
1Y
1i
0|
1{
1_
0`
1k
1p
1w
0x
1:
0;
1f
1c
0y
1q
0'
1&
0!!
1}
1F
1C
0r
1-
1*
1g
0b
1G
0B
1.
0)
#520000
0$
0<
0h
0Y
0i
#525000
1$
1<
1h
1Y
1i
1|
0{
0_
1`
0k
0p
0q
0w
1x
1!!
0:
1;
0f
0c
1y
1r
1'
0&
1b
0}
0F
0C
1B
0-
0*
0g
1)
0G
0.
#530000
0$
0<
0h
0Y
0i
#535000
1$
1<
1h
1Y
1i
0|
1{
1_
0`
1k
1p
1w
0x
1:
0;
1f
1c
0y
1q
0'
1&
0!!
1}
1F
1C
0r
1-
1*
1g
0b
1G
0B
1.
0)
#540000
0$
0<
0h
0Y
0i
#545000
1$
1<
1h
1Y
1i
1|
0{
0_
1`
0k
0p
0q
0w
1x
1!!
0:
1;
0f
0c
1y
1r
1'
0&
1b
0}
0F
0C
1B
0-
0*
0g
1)
0G
0.
#550000
0$
0<
0h
0Y
0i
#555000
1$
1<
1h
1Y
1i
0|
1{
1_
0`
1k
1p
1w
0x
1:
0;
1f
1c
0y
1q
0'
1&
0!!
1}
1F
1C
0r
1-
1*
1g
0b
1G
0B
1.
0)
#560000
0$
0<
0h
0Y
0i
#565000
1$
1<
1h
1Y
1i
1|
0{
0_
1`
0k
0p
0q
0w
1x
1!!
0:
1;
0f
0c
1y
1r
1'
0&
1b
0}
0F
0C
1B
0-
0*
0g
1)
0G
0.
#570000
0$
0<
0h
0Y
0i
#575000
1$
1<
1h
1Y
1i
0|
1{
1_
0`
1k
1p
1w
0x
1:
0;
1f
1c
0y
1q
0'
1&
0!!
1}
1F
1C
0r
1-
1*
1g
0b
1G
0B
1.
0)
#580000
0$
0<
0h
0Y
0i
#585000
1$
1<
1h
1Y
1i
1|
0{
0_
1`
0k
0p
0q
0w
1x
1!!
0:
1;
0f
0c
1y
1r
1'
0&
1b
0}
0F
0C
1B
0-
0*
0g
1)
0G
0.
#590000
0$
0<
0h
0Y
0i
#595000
1$
1<
1h
1Y
1i
0|
1{
1_
0`
1k
1p
1w
0x
1:
0;
1f
1c
0y
1q
0'
1&
0!!
1}
1F
1C
0r
1-
1*
1g
0b
1G
0B
1.
0)
#600000
0$
0<
0h
0Y
0i
#605000
1$
1<
1h
1Y
1i
1|
0{
0_
1`
0k
0p
0q
0w
1x
1!!
0:
1;
0f
0c
1y
1r
1'
0&
1b
0}
0F
0C
1B
0-
0*
0g
1)
0G
0.
#610000
0$
0<
0h
0Y
0i
#615000
1$
1<
1h
1Y
1i
0|
1{
1_
0`
1k
1p
1w
0x
1:
0;
1f
1c
0y
1q
0'
1&
0!!
1}
1F
1C
0r
1-
1*
1g
0b
1G
0B
1.
0)
#620000
0$
0<
0h
0Y
0i
#625000
1$
1<
1h
1Y
1i
1|
0{
0_
1`
0k
0p
0q
0w
1x
1!!
0:
1;
0f
0c
1y
1r
1'
0&
1b
0}
0F
0C
1B
0-
0*
0g
1)
0G
0.
#630000
0$
0<
0h
0Y
0i
#635000
1$
1<
1h
1Y
1i
0|
1{
1_
0`
1k
1p
1w
0x
1:
0;
1f
1c
0y
1q
0'
1&
0!!
1}
1F
1C
0r
1-
1*
1g
0b
1G
0B
1.
0)
#640000
0$
0<
0h
0Y
0i
#645000
1$
1<
1h
1Y
1i
1|
0{
0_
1`
0k
0p
0q
0w
1x
1!!
0:
1;
0f
0c
1y
1r
1'
0&
1b
0}
0F
0C
1B
0-
0*
0g
1)
0G
0.
#650000
0$
0<
0h
0Y
0i
#655000
1$
1<
1h
1Y
1i
0|
1{
1_
0`
1k
1p
1w
0x
1:
0;
1f
1c
0y
1q
0'
1&
0!!
1}
1F
1C
0r
1-
1*
1g
0b
1G
0B
1.
0)
#660000
0$
0<
0h
0Y
0i
#665000
1$
1<
1h
1Y
1i
1|
0{
0_
1`
0k
0p
0q
0w
1x
1!!
0:
1;
0f
0c
1y
1r
1'
0&
1b
0}
0F
0C
1B
0-
0*
0g
1)
0G
0.
#670000
0$
0<
0h
0Y
0i
#675000
1$
1<
1h
1Y
1i
0|
1{
1_
0`
1k
1p
1w
0x
1:
0;
1f
1c
0y
1q
0'
1&
0!!
1}
1F
1C
0r
1-
1*
1g
0b
1G
0B
1.
0)
#680000
0$
0<
0h
0Y
0i
#685000
1$
1<
1h
1Y
1i
1|
0{
0_
1`
0k
0p
0q
0w
1x
1!!
0:
1;
0f
0c
1y
1r
1'
0&
1b
0}
0F
0C
1B
0-
0*
0g
1)
0G
0.
#690000
0$
0<
0h
0Y
0i
#695000
1$
1<
1h
1Y
1i
0|
1{
1_
0`
1k
1p
1w
0x
1:
0;
1f
1c
0y
1q
0'
1&
0!!
1}
1F
1C
0r
1-
1*
1g
0b
1G
0B
1.
0)
#700000
0$
0<
0h
0Y
0i
#705000
1$
1<
1h
1Y
1i
1|
0{
0_
1`
0k
0p
0q
0w
1x
1!!
0:
1;
0f
0c
1y
1r
1'
0&
1b
0}
0F
0C
1B
0-
0*
0g
1)
0G
0.
#710000
0$
0<
0h
0Y
0i
#715000
1$
1<
1h
1Y
1i
0|
1{
1_
0`
1k
1p
1w
0x
1:
0;
1f
1c
0y
1q
0'
1&
0!!
1}
1F
1C
0r
1-
1*
1g
0b
1G
0B
1.
0)
#720000
0$
0<
0h
0Y
0i
#725000
1$
1<
1h
1Y
1i
1|
0{
0_
1`
0k
0p
0q
0w
1x
1!!
0:
1;
0f
0c
1y
1r
1'
0&
1b
0}
0F
0C
1B
0-
0*
0g
1)
0G
0.
#730000
0$
0<
0h
0Y
0i
#735000
1$
1<
1h
1Y
1i
0|
1{
1_
0`
1k
1p
1w
0x
1:
0;
1f
1c
0y
1q
0'
1&
0!!
1}
1F
1C
0r
1-
1*
1g
0b
1G
0B
1.
0)
#740000
0$
0<
0h
0Y
0i
#745000
1$
1<
1h
1Y
1i
1|
0{
0_
1`
0k
0p
0q
0w
1x
1!!
0:
1;
0f
0c
1y
1r
1'
0&
1b
0}
0F
0C
1B
0-
0*
0g
1)
0G
0.
#750000
0$
0<
0h
0Y
0i
#755000
1$
1<
1h
1Y
1i
0|
1{
1_
0`
1k
1p
1w
0x
1:
0;
1f
1c
0y
1q
0'
1&
0!!
1}
1F
1C
0r
1-
1*
1g
0b
1G
0B
1.
0)
#760000
0$
0<
0h
0Y
0i
#765000
1$
1<
1h
1Y
1i
1|
0{
0_
1`
0k
0p
0q
0w
1x
1!!
0:
1;
0f
0c
1y
1r
1'
0&
1b
0}
0F
0C
1B
0-
0*
0g
1)
0G
0.
#770000
0$
0<
0h
0Y
0i
#775000
1$
1<
1h
1Y
1i
0|
1{
1_
0`
1k
1p
1w
0x
1:
0;
1f
1c
0y
1q
0'
1&
0!!
1}
1F
1C
0r
1-
1*
1g
0b
1G
0B
1.
0)
#780000
0$
0<
0h
0Y
0i
#785000
1$
1<
1h
1Y
1i
1|
0{
0_
1`
0k
0p
0q
0w
1x
1!!
0:
1;
0f
0c
1y
1r
1'
0&
1b
0}
0F
0C
1B
0-
0*
0g
1)
0G
0.
#790000
0$
0<
0h
0Y
0i
#795000
1$
1<
1h
1Y
1i
0|
1{
1_
0`
1k
1p
1w
0x
1:
0;
1f
1c
0y
1q
0'
1&
0!!
1}
1F
1C
0r
1-
1*
1g
0b
1G
0B
1.
0)
#800000
0$
0<
0h
0Y
0i
#805000
1$
1<
1h
1Y
1i
1|
0{
0_
1`
0k
0p
0q
0w
1x
1!!
0:
1;
0f
0c
1y
1r
1'
0&
1b
0}
0F
0C
1B
0-
0*
0g
1)
0G
0.
#810000
0$
0<
0h
0Y
0i
#815000
1$
1<
1h
1Y
1i
0|
1{
1_
0`
1k
1p
1w
0x
1:
0;
1f
1c
0y
1q
0'
1&
0!!
1}
1F
1C
0r
1-
1*
1g
0b
1G
0B
1.
0)
#820000
0$
0<
0h
0Y
0i
#825000
1$
1<
1h
1Y
1i
1|
0{
0_
1`
0k
0p
0q
0w
1x
1!!
0:
1;
0f
0c
1y
1r
1'
0&
1b
0}
0F
0C
1B
0-
0*
0g
1)
0G
0.
#830000
0$
0<
0h
0Y
0i
#835000
1$
1<
1h
1Y
1i
0|
1{
1_
0`
1k
1p
1w
0x
1:
0;
1f
1c
0y
1q
0'
1&
0!!
1}
1F
1C
0r
1-
1*
1g
0b
1G
0B
1.
0)
#840000
0$
0<
0h
0Y
0i
#845000
1$
1<
1h
1Y
1i
1|
0{
0_
1`
0k
0p
0q
0w
1x
1!!
0:
1;
0f
0c
1y
1r
1'
0&
1b
0}
0F
0C
1B
0-
0*
0g
1)
0G
0.
#850000
0$
0<
0h
0Y
0i
#855000
1$
1<
1h
1Y
1i
0|
1{
1_
0`
1k
1p
1w
0x
1:
0;
1f
1c
0y
1q
0'
1&
0!!
1}
1F
1C
0r
1-
1*
1g
0b
1G
0B
1.
0)
#860000
0$
0<
0h
0Y
0i
#865000
1$
1<
1h
1Y
1i
1|
0{
0_
1`
0k
0p
0q
0w
1x
1!!
0:
1;
0f
0c
1y
1r
1'
0&
1b
0}
0F
0C
1B
0-
0*
0g
1)
0G
0.
#870000
0$
0<
0h
0Y
0i
#875000
1$
1<
1h
1Y
1i
0|
1{
1_
0`
1k
1p
1w
0x
1:
0;
1f
1c
0y
1q
0'
1&
0!!
1}
1F
1C
0r
1-
1*
1g
0b
1G
0B
1.
0)
#880000
0$
0<
0h
0Y
0i
#885000
1$
1<
1h
1Y
1i
1|
0{
0_
1`
0k
0p
0q
0w
1x
1!!
0:
1;
0f
0c
1y
1r
1'
0&
1b
0}
0F
0C
1B
0-
0*
0g
1)
0G
0.
#890000
0$
0<
0h
0Y
0i
#895000
1$
1<
1h
1Y
1i
0|
1{
1_
0`
1k
1p
1w
0x
1:
0;
1f
1c
0y
1q
0'
1&
0!!
1}
1F
1C
0r
1-
1*
1g
0b
1G
0B
1.
0)
#900000
0$
0<
0h
0Y
0i
#905000
1$
1<
1h
1Y
1i
1|
0{
0_
1`
0k
0p
0q
0w
1x
1!!
0:
1;
0f
0c
1y
1r
1'
0&
1b
0}
0F
0C
1B
0-
0*
0g
1)
0G
0.
#910000
0$
0<
0h
0Y
0i
#915000
1$
1<
1h
1Y
1i
0|
1{
1_
0`
1k
1p
1w
0x
1:
0;
1f
1c
0y
1q
0'
1&
0!!
1}
1F
1C
0r
1-
1*
1g
0b
1G
0B
1.
0)
#920000
0$
0<
0h
0Y
0i
#925000
1$
1<
1h
1Y
1i
1|
0{
0_
1`
0k
0p
0q
0w
1x
1!!
0:
1;
0f
0c
1y
1r
1'
0&
1b
0}
0F
0C
1B
0-
0*
0g
1)
0G
0.
#930000
0$
0<
0h
0Y
0i
#935000
1$
1<
1h
1Y
1i
0|
1{
1_
0`
1k
1p
1w
0x
1:
0;
1f
1c
0y
1q
0'
1&
0!!
1}
1F
1C
0r
1-
1*
1g
0b
1G
0B
1.
0)
#940000
0$
0<
0h
0Y
0i
#945000
1$
1<
1h
1Y
1i
1|
0{
0_
1`
0k
0p
0q
0w
1x
1!!
0:
1;
0f
0c
1y
1r
1'
0&
1b
0}
0F
0C
1B
0-
0*
0g
1)
0G
0.
