Practica2/practica2_ff/simulation/qsim/practica2_ff.msim.vcd
$comment
	File created using the following command:
		vcd file practica2_ff.msim.vcd -direction
$end
$date
	Wed Aug 21 09:38:06 2019
$end
$version
	ModelSim Version 10.5b
$end
$timescale
	1ps
$end

$scope module practica2_ff_vlg_vec_tst $end
$var reg 1 ! CLK $end
$var reg 1 " E $end
$var wire 1 # S $end

$scope module i1 $end
$var wire 1 $ gnd $end
$var wire 1 % vcc $end
$var wire 1 & unknown $end
$var tri1 1 ' devclrn $end
$var tri1 1 ( devpor $end
$var tri1 1 ) devoe $end
$var wire 1 * ~QUARTUS_CREATED_GND~I_combout $end
$var wire 1 + ~QUARTUS_CREATED_UNVM~~busy $end
$var wire 1 , ~QUARTUS_CREATED_ADC1~~eoc $end
$var wire 1 - S~output_o $end
$var wire 1 . CLK~input_o $end
$var wire 1 / CLK~inputclkctrl_outclk $end
$var wire 1 0 E~input_o $end
$var wire 1 1 inst12~0_combout $end
$var wire 1 2 inst1~q $end
$var wire 1 3 inst11~0_combout $end
$var wire 1 4 inst~q $end
$var wire 1 5 inst8~combout $end
$var wire 1 6 inst2~q $end
$upscope $end
$upscope $end
$enddefinitions $end
#0
$dumpvars
0!
0"
0#
0$
1%
x&
1'
1(
1)
0*
z+
z,
0-
0.
0/
00
01
02
03
04
05
06
$end
#5000
1!
1.
1/
#10000
0!
0.
0/
#15000
1!
1.
1/
#20000
0!
0.
0/
#25000
1!
1.
1/
#30000
0!
0.
0/
#35000
1!
1.
1/
#40000
1"
0!
0.
10
0/
11
#45000
1!
1.
1/
12
13
01
#50000
0"
0!
0.
00
0/
03
#55000
1!
1.
1/
02
#60000
1"
0!
0.
10
0/
11
#65000
1!
1.
1/
12
13
01
#70000
0"
0!
0.
00
0/
03
#75000
1!
1.
1/
02
#80000
1"
0!
0.
10
0/
11
#85000
1!
1.
1/
12
13
01
#90000
0!
0.
0/
#95000
1!
1.
1/
14
02
11
#100000
0!
0.
0/
#105000
1!
1.
1/
12
15
#110000
0"
0!
0.
00
0/
03
01
#115000
1!
1.
1/
04
02
16
1-
1#
05
#120000
0!
0.
0/
#125000
1!
1.
1/
06
0-
0#
#130000
0!
0.
0/
#135000
1!
1.
1/
#140000
1"
0!
0.
10
0/
11
#145000
1!
1.
1/
12
13
01
#150000
0!
0.
0/
#155000
1!
1.
1/
14
02
11
#160000
0!
0.
0/
#165000
1!
1.
1/
12
15
#170000
0!
0.
0/
#175000
1!
1.
1/
16
1-
1#
#180000
0!
0.
0/
#185000
1!
1.
1/
#190000
0"
0!
0.
00
0/
03
01
#195000
1!
1.
1/
04
02
05
#200000
0!
0.
0/
#205000
1!
1.
1/
06
0-
0#
#210000
1"
0!
0.
10
0/
11
#215000
1!
1.
1/
12
13
01
#220000
0"
0!
0.
00
0/
03
#225000
1!
1.
1/
02
#230000
1"
0!
0.
10
0/
11
#235000
1!
1.
1/
12
13
01
#240000
0!
0.
0/
#245000
1!
1.
1/
14
02
11
#250000
0"
0!
0.
00
0/
03
01
#255000
1!
1.
1/
04
#260000
1"
0!
0.
10
0/
11
#265000
1!
1.
1/
12
13
01
#270000
0"
0!
0.
00
0/
03
#275000
1!
1.
1/
02
#280000
0!
0.
0/
#285000
1!
1.
1/
#290000
1"
0!
0.
10
0/
11
#295000
1!
1.
1/
12
13
01
#300000
0"
0!
0.
00
0/
03
#305000
1!
1.
1/
02
#310000
0!
0.
0/
#315000
1!
1.
1/
#320000
0!
0.
0/
#325000
1!
1.
1/
#330000
1"
0!
0.
10
0/
11
#335000
1!
1.
1/
12
13
01
#340000
0"
0!
0.
00
0/
03
#345000
1!
1.
1/
02
#350000
0!
0.
0/
#355000
1!
1.
1/
#360000
1"
0!
0.
10
0/
11
#365000
1!
1.
1/
12
13
01
#370000
0!
0.
0/
#375000
1!
1.
1/
14
02
11
#380000
0"
0!
0.
00
0/
03
01
#385000
1!
1.
1/
04
#390000
1"
0!
0.
10
0/
11
#395000
1!
1.
1/
12
13
01
#400000
0"
0!
0.
00
0/
03
#405000
1!
1.
1/
02
#410000
1"
0!
0.
10
0/
11
#415000
1!
1.
1/
12
13
01
#420000
0"
0!
0.
00
0/
03
#425000
1!
1.
1/
02
#430000
0!
0.
0/
#435000
1!
1.
1/
#440000
0!
0.
0/
#445000
1!
1.
1/
#450000
1"
0!
0.
10
0/
11
#455000
1!
1.
1/
12
13
01
#460000
0"
0!
0.
00
0/
03
#465000
1!
1.
1/
02
#470000
0!
0.
0/
#475000
1!
1.
1/
#480000
0!
0.
0/
#485000
1!
1.
1/
#490000
1"
0!
0.
10
0/
11
#495000
1!
1.
1/
12
13
01
#500000
0!
0.
0/
#505000
1!
1.
1/
14
02
11
#510000
0"
0!
0.
00
0/
03
01
#515000
1!
1.
1/
04
#520000
0!
0.
0/
#525000
1!
1.
1/
#530000
0!
0.
0/
#535000
1!
1.
1/
#540000
1"
0!
0.
10
0/
11
#545000
1!
1.
1/
12
13
01
#550000
0"
0!
0.
00
0/
03
#555000
1!
1.
1/
02
#560000
0!
0.
0/
#565000
1!
1.
1/
#570000
0!
0.
0/
#575000
1!
1.
1/
#580000
0!
0.
0/
#585000
1!
1.
1/
#590000
1"
0!
0.
10
0/
11
#595000
1!
1.
1/
12
13
01
#600000
0"
0!
0.
00
0/
03
#605000
1!
1.
1/
02
#610000
1"
0!
0.
10
0/
11
#615000
1!
1.
1/
12
13
01
#620000
0"
0!
0.
00
0/
03
#625000
1!
1.
1/
02
#630000
1"
0!
0.
10
0/
11
#635000
1!
1.
1/
12
13
01
#640000
0"
0!
0.
00
0/
03
#645000
1!
1.
1/
02
#650000
1"
0!
0.
10
0/
11
#655000
1!
1.
1/
12
13
01
#660000
0!
0.
0/
#665000
1!
1.
1/
14
02
11
#670000
0"
0!
0.
00
0/
03
01
#675000
1!
1.
1/
04
#680000
1"
0!
0.
10
0/
11
#685000
1!
1.
1/
12
13
01
#690000
0!
0.
0/
#695000
1!
1.
1/
14
02
11
#700000
0!
0.
0/
#705000
1!
1.
1/
12
15
#710000
0"
0!
0.
00
0/
03
01
#715000
1!
1.
1/
04
02
16
1-
1#
05
#720000
0!
0.
0/
#725000
1!
1.
1/
06
0-
0#
#730000
1"
0!
0.
10
0/
11
#735000
1!
1.
1/
12
13
01
#740000
0"
0!
0.
00
0/
03
#745000
1!
1.
1/
02
#750000
1"
0!
0.
10
0/
11
#755000
1!
1.
1/
12
13
01
#760000
0"
0!
0.
00
0/
03
#765000
1!
1.
1/
02
#770000
0!
0.
0/
#775000
1!
1.
1/
#780000
1"
0!
0.
10
0/
11
#785000
1!
1.
1/
12
13
01
#790000
0!
0.
0/
#795000
1!
1.
1/
14
02
11
#800000
0!
0.
0/
#805000
1!
1.
1/
12
15
#810000
0"
0!
0.
00
0/
03
01
#815000
1!
1.
1/
04
02
16
1-
1#
05
#820000
0!
0.
0/
#825000
1!
1.
1/
06
0-
0#
#830000
0!
0.
0/
#835000
1!
1.
1/
#840000
0!
0.
0/
#845000
1!
1.
1/
#850000
0!
0.
0/
#855000
1!
1.
1/
#860000
0!
0.
0/
#865000
1!
1.
1/
#870000
0!
0.
0/
#875000
1!
1.
1/
#880000
1"
0!
0.
10
0/
11
#885000
1!
1.
1/
12
13
01
#890000
0"
0!
0.
00
0/
03
#895000
1!
1.
1/
02
#900000
0!
0.
0/
#905000
1!
1.
1/
#910000
1"
0!
0.
10
0/
11
#915000
1!
1.
1/
12
13
01
#920000
0!
0.
0/
#925000
1!
1.
1/
14
02
11
#930000
0!
0.
0/
#935000
1!
1.
1/
12
15
#940000
0"
0!
0.
00
0/
03
01
#945000
1!
1.
1/
04
02
16
1-
1#
05
#950000
1"
0!
0.
10
0/
11
#955000
1!
1.
1/
12
06
0-
0#
13
01
#960000
0!
0.
0/
#965000
1!
1.
1/
14
02
11
#970000
0"
0!
0.
00
0/
03
01
#975000
1!
1.
1/
04
#980000
0!
0.
0/
#985000
1!
1.
1/
#990000
0!
0.
0/
#995000
1!
1.
1/
