Practica2/prac2vhdl/simulation/qsim/practica2_vhdl.msim.vcd
$comment
	File created using the following command:
		vcd file practica2_vhdl.msim.vcd -direction
$end
$date
	Wed Aug 21 09:34:17 2019
$end
$version
	ModelSim Version 10.5b
$end
$timescale
	1ps
$end

$scope module practica2_vhdl_vhd_vec_tst $end
$var wire 1 ! E $end
$var wire 1 " RELOJ $end
$var wire 1 # S $end

$scope module i1 $end
$var wire 1 $ gnd $end
$var wire 1 % vcc $end
$var wire 1 & unknown $end
$var wire 1 ' devoe $end
$var wire 1 ( devclrn $end
$var wire 1 ) devpor $end
$var wire 1 * ww_devoe $end
$var wire 1 + ww_devclrn $end
$var wire 1 , ww_devpor $end
$var wire 1 - ww_RELOJ $end
$var wire 1 . ww_E $end
$var wire 1 / ww_S $end
$var wire 1 0 \~QUARTUS_CREATED_ADC1~_CHSEL_bus\ [4] $end
$var wire 1 1 \~QUARTUS_CREATED_ADC1~_CHSEL_bus\ [3] $end
$var wire 1 2 \~QUARTUS_CREATED_ADC1~_CHSEL_bus\ [2] $end
$var wire 1 3 \~QUARTUS_CREATED_ADC1~_CHSEL_bus\ [1] $end
$var wire 1 4 \~QUARTUS_CREATED_ADC1~_CHSEL_bus\ [0] $end
$var wire 1 5 \RELOJ~inputclkctrl_INCLK_bus\ [3] $end
$var wire 1 6 \RELOJ~inputclkctrl_INCLK_bus\ [2] $end
$var wire 1 7 \RELOJ~inputclkctrl_INCLK_bus\ [1] $end
$var wire 1 8 \RELOJ~inputclkctrl_INCLK_bus\ [0] $end
$var wire 1 9 \~QUARTUS_CREATED_GND~I_combout\ $end
$var wire 1 : \~QUARTUS_CREATED_UNVM~~busy\ $end
$var wire 1 ; \~QUARTUS_CREATED_ADC1~~eoc\ $end
$var wire 1 < \S~output_o\ $end
$var wire 1 = \RELOJ~input_o\ $end
$var wire 1 > \RELOJ~inputclkctrl_outclk\ $end
$var wire 1 ? \E~input_o\ $end
$var wire 1 @ \Mux2~0_combout\ $end
$var wire 1 A \Mux1~0_combout\ $end
$var wire 1 B \Mux0~0_combout\ $end
$var wire 1 C \S~reg0_q\ $end
$var wire 1 D esiguiente [1] $end
$var wire 1 E esiguiente [0] $end
$upscope $end
$upscope $end
$enddefinitions $end
#0
$dumpvars
1!
0"
0#
0$
1%
x&
1'
1(
1)
1*
1+
1,
0-
1.
0/
09
z:
z;
0<
0=
0>
1?
1@
0A
0B
0C
0D
0E
15
16
17
08
00
01
02
03
04
$end
#5000
1"
1-
1=
18
1>
1E
0@
1A
#10000
0"
0-
0=
08
0>
#15000
1"
1-
1=
18
1>
0E
1D
1@
#20000
0"
0!
0-
0.
0?
0=
08
0@
0A
0>
#25000
1"
1-
1=
18
1>
0D
#30000
0"
1!
0-
1.
1?
0=
08
1@
0>
#35000
1"
1-
1=
18
1>
1E
0@
1A
#40000
0"
0-
0=
08
0>
#45000
1"
1-
1=
18
1>
0E
1D
1@
#50000
0"
0-
0=
08
0>
#55000
1"
1-
1=
18
1>
1E
1B
#60000
0"
0-
0=
08
0>
#65000
1"
1-
1=
18
1>
1C
1<
1/
1#
#70000
0"
0-
0=
08
0>
#75000
1"
1-
1=
18
1>
#80000
0"
0!
0-
0.
0?
0=
08
0@
0A
0>
#85000
1"
1-
1=
18
1>
0E
0D
0B
#90000
0"
1!
0-
1.
1?
0=
08
1@
0>
#95000
1"
1-
1=
18
1>
1E
0C
0<
0@
1A
0/
0#
#100000
0"
0!
0-
0.
0?
0=
08
0A
0>
#105000
1"
1-
1=
18
1>
0E
#110000
0"
0-
0=
08
0>
#115000
1"
1-
1=
18
1>
#120000
0"
0-
0=
08
0>
#125000
1"
1-
1=
18
1>
#130000
0"
1!
0-
1.
1?
0=
08
1@
0>
#135000
1"
1-
1=
18
1>
1E
0@
1A
#140000
0"
0-
0=
08
0>
#145000
1"
1-
1=
18
1>
0E
1D
1@
#150000
0"
0!
0-
0.
0?
0=
08
0@
0A
0>
#155000
1"
1-
1=
18
1>
0D
#160000
0"
1!
0-
1.
1?
0=
08
1@
0>
#165000
1"
1-
1=
18
1>
1E
0@
1A
#170000
0"
0!
0-
0.
0?
0=
08
0A
0>
#175000
1"
1-
1=
18
1>
0E
#180000
0"
1!
0-
1.
1?
0=
08
1@
0>
#185000
1"
1-
1=
18
1>
1E
0@
1A
#190000
0"
0!
0-
0.
0?
0=
08
0A
0>
#195000
1"
1-
1=
18
1>
0E
#200000
0"
0-
0=
08
0>
#205000
1"
1-
1=
18
1>
#210000
0"
1!
0-
1.
1?
0=
08
1@
0>
#215000
1"
1-
1=
18
1>
1E
0@
1A
#220000
0"
0-
0=
08
0>
#225000
1"
1-
1=
18
1>
0E
1D
1@
#230000
0"
0!
0-
0.
0?
0=
08
0@
0A
0>
#235000
1"
1-
1=
18
1>
0D
#240000
0"
0-
0=
08
0>
#245000
1"
1-
1=
18
1>
#250000
0"
0-
0=
08
0>
#255000
1"
1-
1=
18
1>
#260000
0"
1!
0-
1.
1?
0=
08
1@
0>
#265000
1"
1-
1=
18
1>
1E
0@
1A
#270000
0"
0-
0=
08
0>
#275000
1"
1-
1=
18
1>
0E
1D
1@
#280000
0"
0-
0=
08
0>
#285000
1"
1-
1=
18
1>
1E
1B
#290000
0"
0!
0-
0.
0?
0=
08
0@
0A
0>
#295000
1"
1-
1=
18
1>
0E
0D
1C
1<
0B
1/
1#
#300000
0"
0-
0=
08
0>
#305000
1"
1-
1=
18
1>
0C
0<
0/
0#
#310000
0"
0-
0=
08
0>
#315000
1"
1-
1=
18
1>
#320000
0"
0-
0=
08
0>
#325000
1"
1-
1=
18
1>
#330000
0"
1!
0-
1.
1?
0=
08
1@
0>
#335000
1"
1-
1=
18
1>
1E
0@
1A
#340000
0"
0!
0-
0.
0?
0=
08
0A
0>
#345000
1"
1-
1=
18
1>
0E
#350000
0"
1!
0-
1.
1?
0=
08
1@
0>
#355000
1"
1-
1=
18
1>
1E
0@
1A
#360000
0"
0-
0=
08
0>
#365000
1"
1-
1=
18
1>
0E
1D
1@
#370000
0"
0-
0=
08
0>
#375000
1"
1-
1=
18
1>
1E
1B
#380000
0"
0!
0-
0.
0?
0=
08
0@
0A
0>
#385000
1"
1-
1=
18
1>
0E
0D
1C
1<
0B
1/
1#
#390000
0"
1!
0-
1.
1?
0=
08
1@
0>
#395000
1"
1-
1=
18
1>
1E
0C
0<
0@
1A
0/
0#
#400000
0"
0-
0=
08
0>
#405000
1"
1-
1=
18
1>
0E
1D
1@
#410000
0"
0-
0=
08
0>
#415000
1"
1-
1=
18
1>
1E
1B
#420000
0"
0!
0-
0.
0?
0=
08
0@
0A
0>
#425000
1"
1-
1=
18
1>
0E
0D
1C
1<
0B
1/
1#
#430000
0"
1!
0-
1.
1?
0=
08
1@
0>
#435000
1"
1-
1=
18
1>
1E
0C
0<
0@
1A
0/
0#
#440000
0"
0!
0-
0.
0?
0=
08
0A
0>
#445000
1"
1-
1=
18
1>
0E
#450000
0"
1!
0-
1.
1?
0=
08
1@
0>
#455000
1"
1-
1=
18
1>
1E
0@
1A
#460000
0"
0!
0-
0.
0?
0=
08
0A
0>
#465000
1"
1-
1=
18
1>
0E
#470000
0"
1!
0-
1.
1?
0=
08
1@
0>
#475000
1"
1-
1=
18
1>
1E
0@
1A
#480000
0"
0!
0-
0.
0?
0=
08
0A
0>
#485000
1"
1-
1=
18
1>
0E
#490000
0"
0-
0=
08
0>
#495000
1"
1-
1=
18
1>
#500000
0"
0-
0=
08
0>
#505000
1"
1-
1=
18
1>
#510000
0"
0-
0=
08
0>
#515000
1"
1-
1=
18
1>
#520000
0"
0-
0=
08
0>
#525000
1"
1-
1=
18
1>
#530000
0"
1!
0-
1.
1?
0=
08
1@
0>
#535000
1"
1-
1=
18
1>
1E
0@
1A
#540000
0"
0-
0=
08
0>
#545000
1"
1-
1=
18
1>
0E
1D
1@
#550000
0"
0-
0=
08
0>
#555000
1"
1-
1=
18
1>
1E
1B
#560000
0"
0!
0-
0.
0?
0=
08
0@
0A
0>
#565000
1"
1-
1=
18
1>
0E
0D
1C
1<
0B
1/
1#
#570000
0"
1!
0-
1.
1?
0=
08
1@
0>
#575000
1"
1-
1=
18
1>
1E
0C
0<
0@
1A
0/
0#
#580000
0"
0-
0=
08
0>
#585000
1"
1-
1=
18
1>
0E
1D
1@
#590000
0"
0-
0=
08
0>
#595000
1"
1-
1=
18
1>
1E
1B
#600000
0"
0!
0-
0.
0?
0=
08
0@
0A
0>
#605000
1"
1-
1=
18
1>
0E
0D
1C
1<
0B
1/
1#
#610000
0"
0-
0=
08
0>
#615000
1"
1-
1=
18
1>
0C
0<
0/
0#
#620000
0"
1!
0-
1.
1?
0=
08
1@
0>
#625000
1"
1-
1=
18
1>
1E
0@
1A
#630000
0"
0!
0-
0.
0?
0=
08
0A
0>
#635000
1"
1-
1=
18
1>
0E
#640000
0"
1!
0-
1.
1?
0=
08
1@
0>
#645000
1"
1-
1=
18
1>
1E
0@
1A
#650000
0"
0!
0-
0.
0?
0=
08
0A
0>
#655000
1"
1-
1=
18
1>
0E
#660000
0"
1!
0-
1.
1?
0=
08
1@
0>
#665000
1"
1-
1=
18
1>
1E
0@
1A
#670000
0"
0-
0=
08
0>
#675000
1"
1-
1=
18
1>
0E
1D
1@
#680000
0"
0!
0-
0.
0?
0=
08
0@
0A
0>
#685000
1"
1-
1=
18
1>
0D
#690000
0"
1!
0-
1.
1?
0=
08
1@
0>
#695000
1"
1-
1=
18
1>
1E
0@
1A
#700000
0"
0!
0-
0.
0?
0=
08
0A
0>
#705000
1"
1-
1=
18
1>
0E
#710000
0"
0-
0=
08
0>
#715000
1"
1-
1=
18
1>
#720000
0"
0-
0=
08
0>
#725000
1"
1-
1=
18
1>
#730000
0"
1!
0-
1.
1?
0=
08
1@
0>
#735000
1"
1-
1=
18
1>
1E
0@
1A
#740000
0"
0-
0=
08
0>
#745000
1"
1-
1=
18
1>
0E
1D
1@
#750000
0"
0-
0=
08
0>
#755000
1"
1-
1=
18
1>
1E
1B
#760000
0"
0-
0=
08
0>
#765000
1"
1-
1=
18
1>
1C
1<
1/
1#
#770000
0"
0!
0-
0.
0?
0=
08
0@
0A
0>
#775000
1"
1-
1=
18
1>
0E
0D
0B
#780000
0"
0-
0=
08
0>
#785000
1"
1-
1=
18
1>
0C
0<
0/
0#
#790000
0"
1!
0-
1.
1?
0=
08
1@
0>
#795000
1"
1-
1=
18
1>
1E
0@
1A
#800000
0"
0-
0=
08
0>
#805000
1"
1-
1=
18
1>
0E
1D
1@
#810000
0"
0-
0=
08
0>
#815000
1"
1-
1=
18
1>
1E
1B
#820000
0"
0-
0=
08
0>
#825000
1"
1-
1=
18
1>
1C
1<
1/
1#
#830000
0"
0!
0-
0.
0?
0=
08
0@
0A
0>
#835000
1"
1-
1=
18
1>
0E
0D
0B
#840000
0"
0-
0=
08
0>
#845000
1"
1-
1=
18
1>
0C
0<
0/
0#
#850000
0"
0-
0=
08
0>
#855000
1"
1-
1=
18
1>
#860000
0"
0-
0=
08
0>
#865000
1"
1-
1=
18
1>
#870000
0"
1!
0-
1.
1?
0=
08
1@
0>
#875000
1"
1-
1=
18
1>
1E
0@
1A
#880000
0"
0!
0-
0.
0?
0=
08
0A
0>
#885000
1"
1-
1=
18
1>
0E
#890000
0"
0-
0=
08
0>
#895000
1"
1-
1=
18
1>
#900000
0"
1!
0-
1.
1?
0=
08
1@
0>
#905000
1"
1-
1=
18
1>
1E
0@
1A
#910000
0"
0!
0-
0.
0?
0=
08
0A
0>
#915000
1"
1-
1=
18
1>
0E
#920000
0"
1!
0-
1.
1?
0=
08
1@
0>
#925000
1"
1-
1=
18
1>
1E
0@
1A
#930000
0"
0!
0-
0.
0?
0=
08
0A
0>
#935000
1"
1-
1=
18
1>
0E
#940000
0"
0-
0=
08
0>
#945000
1"
1-
1=
18
1>
#950000
0"
1!
0-
1.
1?
0=
08
1@
0>
#955000
1"
1-
1=
18
1>
1E
0@
1A
#960000
0"
0!
0-
0.
0?
0=
08
0A
0>
#965000
1"
1-
1=
18
1>
0E
#970000
0"
1!
0-
1.
1?
0=
08
1@
0>
#975000
1"
1-
1=
18
1>
1E
0@
1A
#980000
0"
0-
0=
08
0>
#985000
1"
1-
1=
18
1>
0E
1D
1@
#990000
0"
0!
0-
0.
0?
0=
08
0@
0A
0>
#995000
1"
1-
1=
18
1>
0D
