Practica5/simulation/qsim/LOAC_P5.msim.vcd
$comment
	File created using the following command:
		vcd file LOAC_P5.msim.vcd -direction
$end
$date
	Wed Sep 18 09:15:42 2019
$end
$version
	ModelSim Version 10.5b
$end
$timescale
	1ps
$end

$scope module loac_p5_vhd_vec_tst $end
$var wire 1 ! A $end
$var wire 1 " B $end
$var wire 1 # C $end
$var wire 1 $ currentState [2] $end
$var wire 1 % currentState [1] $end
$var wire 1 & currentState [0] $end
$var wire 1 ' nexttSate [2] $end
$var wire 1 ( nexttSate [1] $end
$var wire 1 ) nexttSate [0] $end
$var wire 1 * RELOJ $end
$var wire 1 + RESET $end
$var wire 1 , salida [3] $end
$var wire 1 - salida [2] $end
$var wire 1 . salida [1] $end
$var wire 1 / salida [0] $end

$scope module i1 $end
$var wire 1 0 gnd $end
$var wire 1 1 vcc $end
$var wire 1 2 unknown $end
$var wire 1 3 devoe $end
$var wire 1 4 devclrn $end
$var wire 1 5 devpor $end
$var wire 1 6 ww_devoe $end
$var wire 1 7 ww_devclrn $end
$var wire 1 8 ww_devpor $end
$var wire 1 9 ww_currentState [2] $end
$var wire 1 : ww_currentState [1] $end
$var wire 1 ; ww_currentState [0] $end
$var wire 1 < ww_RELOJ $end
$var wire 1 = ww_RESET $end
$var wire 1 > ww_A $end
$var wire 1 ? ww_B $end
$var wire 1 @ ww_C $end
$var wire 1 A ww_nexttSate [2] $end
$var wire 1 B ww_nexttSate [1] $end
$var wire 1 C ww_nexttSate [0] $end
$var wire 1 D ww_salida [3] $end
$var wire 1 E ww_salida [2] $end
$var wire 1 F ww_salida [1] $end
$var wire 1 G ww_salida [0] $end
$var wire 1 H \~QUARTUS_CREATED_ADC1~_CHSEL_bus\ [4] $end
$var wire 1 I \~QUARTUS_CREATED_ADC1~_CHSEL_bus\ [3] $end
$var wire 1 J \~QUARTUS_CREATED_ADC1~_CHSEL_bus\ [2] $end
$var wire 1 K \~QUARTUS_CREATED_ADC1~_CHSEL_bus\ [1] $end
$var wire 1 L \~QUARTUS_CREATED_ADC1~_CHSEL_bus\ [0] $end
$var wire 1 M \~QUARTUS_CREATED_ADC2~_CHSEL_bus\ [4] $end
$var wire 1 N \~QUARTUS_CREATED_ADC2~_CHSEL_bus\ [3] $end
$var wire 1 O \~QUARTUS_CREATED_ADC2~_CHSEL_bus\ [2] $end
$var wire 1 P \~QUARTUS_CREATED_ADC2~_CHSEL_bus\ [1] $end
$var wire 1 Q \~QUARTUS_CREATED_ADC2~_CHSEL_bus\ [0] $end
$var wire 1 R \RESET~inputclkctrl_INCLK_bus\ [3] $end
$var wire 1 S \RESET~inputclkctrl_INCLK_bus\ [2] $end
$var wire 1 T \RESET~inputclkctrl_INCLK_bus\ [1] $end
$var wire 1 U \RESET~inputclkctrl_INCLK_bus\ [0] $end
$var wire 1 V \RELOJ~inputclkctrl_INCLK_bus\ [3] $end
$var wire 1 W \RELOJ~inputclkctrl_INCLK_bus\ [2] $end
$var wire 1 X \RELOJ~inputclkctrl_INCLK_bus\ [1] $end
$var wire 1 Y \RELOJ~inputclkctrl_INCLK_bus\ [0] $end
$var wire 1 Z \~QUARTUS_CREATED_GND~I_combout\ $end
$var wire 1 [ \~QUARTUS_CREATED_UNVM~~busy\ $end
$var wire 1 \ \~QUARTUS_CREATED_ADC1~~eoc\ $end
$var wire 1 ] \~QUARTUS_CREATED_ADC2~~eoc\ $end
$var wire 1 ^ \currentState[2]~output_o\ $end
$var wire 1 _ \currentState[1]~output_o\ $end
$var wire 1 ` \currentState[0]~output_o\ $end
$var wire 1 a \nexttSate[2]~output_o\ $end
$var wire 1 b \nexttSate[1]~output_o\ $end
$var wire 1 c \nexttSate[0]~output_o\ $end
$var wire 1 d \salida[3]~output_o\ $end
$var wire 1 e \salida[2]~output_o\ $end
$var wire 1 f \salida[1]~output_o\ $end
$var wire 1 g \salida[0]~output_o\ $end
$var wire 1 h \RELOJ~input_o\ $end
$var wire 1 i \RELOJ~inputclkctrl_outclk\ $end
$var wire 1 j \inst4|comb~6_combout\ $end
$var wire 1 k \inst4|comb~7_combout\ $end
$var wire 1 l \C~input_o\ $end
$var wire 1 m \inst4|comb~3_combout\ $end
$var wire 1 n \inst4|comb~2_combout\ $end
$var wire 1 o \inst4|Equal0~1_combout\ $end
$var wire 1 p \inst4|datos[13]~1_combout\ $end
$var wire 1 q \A~input_o\ $end
$var wire 1 r \inst3|salida~0_combout\ $end
$var wire 1 s \B~input_o\ $end
$var wire 1 t \inst3|salida~1_combout\ $end
$var wire 1 u \inst6~combout\ $end
$var wire 1 v \inst9|salida[0]~4_combout\ $end
$var wire 1 w \RESET~input_o\ $end
$var wire 1 x \RESET~inputclkctrl_outclk\ $end
$var wire 1 y \inst4|comb~5_combout\ $end
$var wire 1 z \inst4|comb~4_combout\ $end
$var wire 1 { \inst9|salida[1]~3_combout\ $end
$var wire 1 | \inst1|valor_interno[1]~feeder_combout\ $end
$var wire 1 } \inst4|Equal0~0_combout\ $end
$var wire 1 ~ \inst4|comb~1_combout\ $end
$var wire 1 !! \inst9|salida[2]~0_combout\ $end
$var wire 1 "! \inst4|datos[10]~0_combout\ $end
$var wire 1 #! \inst4|comb~0_combout\ $end
$var wire 1 $! \inst9|salida[2]~1_combout\ $end
$var wire 1 %! \inst9|salida[2]~2_combout\ $end
$var wire 1 &! \inst1|valor_interno[2]~feeder_combout\ $end
$var wire 1 '! \inst40|salida[3]~0_combout\ $end
$var wire 1 (! \inst40|salida[2]~1_combout\ $end
$var wire 1 )! \inst4|comb~8_combout\ $end
$var wire 1 *! \inst4|comb~9_combout\ $end
$var wire 1 +! \inst4|comb~11_combout\ $end
$var wire 1 ,! \inst4|comb~10_combout\ $end
$var wire 1 -! \inst40|salida[1]~2_combout\ $end
$var wire 1 .! \inst4|comb~12_combout\ $end
$var wire 1 /! \inst40|salida[0]~3_combout\ $end
$var wire 1 0! \inst1|valor_interno\ [2] $end
$var wire 1 1! \inst1|valor_interno\ [1] $end
$var wire 1 2! \inst1|valor_interno\ [0] $end
$var wire 1 3! \inst4|datos\ [13] $end
$var wire 1 4! \inst4|datos\ [12] $end
$var wire 1 5! \inst4|datos\ [11] $end
$var wire 1 6! \inst4|datos\ [10] $end
$var wire 1 7! \inst4|datos\ [9] $end
$var wire 1 8! \inst4|datos\ [8] $end
$var wire 1 9! \inst4|datos\ [7] $end
$var wire 1 :! \inst4|datos\ [6] $end
$var wire 1 ;! \inst4|datos\ [5] $end
$var wire 1 <! \inst4|datos\ [4] $end
$var wire 1 =! \inst4|datos\ [3] $end
$var wire 1 >! \inst4|datos\ [2] $end
$var wire 1 ?! \inst4|datos\ [1] $end
$var wire 1 @! \inst4|datos\ [0] $end
$upscope $end
$upscope $end
$enddefinitions $end
#0
$dumpvars
0!
0"
0#
0*
1+
00
11
x2
13
14
15
16
17
18
0<
1=
0>
0?
0@
0Z
z[
z\
z]
0^
0_
0`
0a
0b
1c
1d
1e
1f
0g
0h
0i
1j
1k
0l
1m
0n
1o
0p
0q
0r
0s
0t
1u
1v
1w
1x
0y
1z
0{
0|
1}
1~
1!!
1"!
1#!
0$!
0%!
0&!
1'!
1(!
1)!
1*!
0+!
1,!
1-!
1.!
0/!
09
0:
0;
0A
0B
1C
1D
1E
1F
0G
00!
01!
02!
03!
14!
15!
16!
07!
08!
19!
1:!
0;!
1<!
1=!
1>!
1?!
0@!
1V
1W
1X
0Y
1R
1S
1T
1U
0H
0I
0J
0K
0L
0M
0N
0O
0P
0Q
0$
0%
0&
0'
0(
1)
1,
1-
1.
0/
$end
#5000
1*
1<
1h
1Y
1i
12!
1`
0j
0k
0m
1n
1p
0v
1y
0z
1{
0}
0~
0"!
0#!
0)!
0*!
1;
1b
0c
0?!
06!
0:!
05!
0>!
1|
17!
0=!
09!
04!
18!
1@!
1&
1B
0C
1/!
0'!
0u
0(!
0-!
0)
1(
0f
0e
0d
1g
1v
0F
0E
0D
1G
1c
1/
0.
0-
0,
1C
1)
#10000
0*
0<
0h
0Y
0i
#15000
1*
1<
1h
1Y
1i
11!
1_
1j
1k
1m
0n
0o
0y
1z
1$!
1)!
1*!
1+!
0,!
0.!
1:
1;!
1?!
07!
1=!
19!
13!
0<!
14!
08!
0@!
1%
0v
0/!
1'!
0{
1-!
1f
0b
1d
0g
0c
0|
1F
0B
1D
0G
0C
0/
1.
1,
0)
0(
#20000
0*
0<
0h
0Y
0i
#25000
1*
1<
1h
1Y
1i
02!
01!
0_
0`
1o
0p
1}
1~
1"!
1#!
0$!
0+!
1,!
1.!
0:
0;
0;!
16!
1:!
15!
1>!
03!
1<!
0&
0%
1/!
1u
1(!
0-!
0f
1e
1g
1v
1-!
0/!
0F
1E
1G
0g
1f
1c
1/
0.
1-
0G
1F
1C
0/
1.
1)
#30000
0*
0<
0h
0Y
0i
#35000
1*
1<
1h
1Y
1i
12!
1`
0j
0k
0m
1n
1p
0v
1y
0z
1{
0}
0~
0"!
0#!
0)!
0*!
1;
1b
0c
0?!
06!
0:!
05!
0>!
1|
17!
0=!
09!
04!
18!
1@!
1&
1B
0C
1/!
0'!
0u
0(!
0-!
0)
1(
0f
0e
0d
1g
1v
0F
0E
0D
1G
1c
1/
0.
0-
0,
1C
1)
#40000
0*
0<
0h
0Y
0i
#45000
1*
1<
1h
1Y
1i
11!
1_
1j
1k
1m
0n
0o
0y
1z
1$!
1)!
1*!
1+!
0,!
0.!
1:
1;!
1?!
07!
1=!
19!
13!
0<!
14!
08!
0@!
1%
0v
0/!
1'!
0{
1-!
1f
0b
1d
0g
0c
0|
1F
0B
1D
0G
0C
0/
1.
1,
0)
0(
#50000
0*
0<
0h
0Y
0i
#55000
1*
1<
1h
1Y
1i
02!
01!
0_
0`
1o
0p
1}
1~
1"!
1#!
0$!
0+!
1,!
1.!
0:
0;
0;!
16!
1:!
15!
1>!
03!
1<!
0&
0%
1/!
1u
1(!
0-!
0f
1e
1g
1v
1-!
0/!
0F
1E
1G
0g
1f
1c
1/
0.
1-
0G
1F
1C
0/
1.
1)
#60000
0*
0<
0h
0Y
0i
#65000
1*
1<
1h
1Y
1i
12!
1`
0j
0k
0m
1n
1p
0v
1y
0z
1{
0}
0~
0"!
0#!
0)!
0*!
1;
1b
0c
0?!
06!
0:!
05!
0>!
1|
17!
0=!
09!
04!
18!
1@!
1&
1B
0C
1/!
0'!
0u
0(!
0-!
0)
1(
0f
0e
0d
1g
1v
0F
0E
0D
1G
1c
1/
0.
0-
0,
1C
1)
#70000
0*
0<
0h
0Y
0i
#75000
1*
1<
1h
1Y
1i
11!
1_
1j
1k
1m
0n
0o
0y
1z
1$!
1)!
1*!
1+!
0,!
0.!
1:
1;!
1?!
07!
1=!
19!
13!
0<!
14!
08!
0@!
1%
0v
0/!
1'!
0{
1-!
1f
0b
1d
0g
0c
0|
1F
0B
1D
0G
0C
0/
1.
1,
0)
0(
#80000
0*
0<
0h
0Y
0i
#85000
1*
1<
1h
1Y
1i
02!
01!
0_
0`
1o
0p
1}
1~
1"!
1#!
0$!
0+!
1,!
1.!
0:
0;
0;!
16!
1:!
15!
1>!
03!
1<!
0&
0%
1/!
1u
1(!
0-!
0f
1e
1g
1v
1-!
0/!
0F
1E
1G
0g
1f
1c
1/
0.
1-
0G
1F
1C
0/
1.
1)
#90000
0*
0<
0h
0Y
0i
#95000
1*
1<
1h
1Y
1i
12!
1`
0j
0k
0m
1n
1p
0v
1y
0z
1{
0}
0~
0"!
0#!
0)!
0*!
1;
1b
0c
0?!
06!
0:!
05!
0>!
1|
17!
0=!
09!
04!
18!
1@!
1&
1B
0C
1/!
0'!
0u
0(!
0-!
0)
1(
0f
0e
0d
1g
1v
0F
0E
0D
1G
1c
1/
0.
0-
0,
1C
1)
#100000
0*
0<
0h
0Y
0i
#105000
1*
1<
1h
1Y
1i
11!
1_
1j
1k
1m
0n
0o
0y
1z
1$!
1)!
1*!
1+!
0,!
0.!
1:
1;!
1?!
07!
1=!
19!
13!
0<!
14!
08!
0@!
1%
0v
0/!
1'!
0{
1-!
1f
0b
1d
0g
0c
0|
1F
0B
1D
0G
0C
0/
1.
1,
0)
0(
#110000
0*
0<
0h
0Y
0i
#115000
1*
1<
1h
1Y
1i
02!
01!
0_
0`
1o
0p
1}
1~
1"!
1#!
0$!
0+!
1,!
1.!
0:
0;
0;!
16!
1:!
15!
1>!
03!
1<!
0&
0%
1/!
1u
1(!
0-!
0f
1e
1g
1v
1-!
0/!
0F
1E
1G
0g
1f
1c
1/
0.
1-
0G
1F
1C
0/
1.
1)
#120000
0*
0<
0h
0Y
0i
#125000
1*
1<
1h
1Y
1i
12!
1`
0j
0k
0m
1n
1p
0v
1y
0z
1{
0}
0~
0"!
0#!
0)!
0*!
1;
1b
0c
0?!
06!
0:!
05!
0>!
1|
17!
0=!
09!
04!
18!
1@!
1&
1B
0C
1/!
0'!
0u
0(!
0-!
0)
1(
0f
0e
0d
1g
1v
0F
0E
0D
1G
1c
1/
0.
0-
0,
1C
1)
#130000
0*
0<
0h
0Y
0i
#135000
1*
1<
1h
1Y
1i
11!
1_
1j
1k
1m
0n
0o
0y
1z
1$!
1)!
1*!
1+!
0,!
0.!
1:
1;!
1?!
07!
1=!
19!
13!
0<!
14!
08!
0@!
1%
0v
0/!
1'!
0{
1-!
1f
0b
1d
0g
0c
0|
1F
0B
1D
0G
0C
0/
1.
1,
0)
0(
#140000
0*
0<
0h
0Y
0i
#145000
1*
1<
1h
1Y
1i
02!
01!
0_
0`
1o
0p
1}
1~
1"!
1#!
0$!
0+!
1,!
1.!
0:
0;
0;!
16!
1:!
15!
1>!
03!
1<!
0&
0%
1/!
1u
1(!
0-!
0f
1e
1g
1v
1-!
0/!
0F
1E
1G
0g
1f
1c
1/
0.
1-
0G
1F
1C
0/
1.
1)
#150000
0*
0<
0h
0Y
0i
#155000
1*
1<
1h
1Y
1i
12!
1`
0j
0k
0m
1n
1p
0v
1y
0z
1{
0}
0~
0"!
0#!
0)!
0*!
1;
1b
0c
0?!
06!
0:!
05!
0>!
1|
17!
0=!
09!
04!
18!
1@!
1&
1B
0C
1/!
0'!
0u
0(!
0-!
0)
1(
0f
0e
0d
1g
1v
0F
0E
0D
1G
1c
1/
0.
0-
0,
1C
1)
#160000
0*
0<
0h
0Y
0i
#165000
1*
1<
1h
1Y
1i
11!
1_
1j
1k
1m
0n
0o
0y
1z
1$!
1)!
1*!
1+!
0,!
0.!
1:
1;!
1?!
07!
1=!
19!
13!
0<!
14!
08!
0@!
1%
0v
0/!
1'!
0{
1-!
1f
0b
1d
0g
0c
0|
1F
0B
1D
0G
0C
0/
1.
1,
0)
0(
#170000
0*
0<
0h
0Y
0i
#175000
1*
1<
1h
1Y
1i
02!
01!
0_
0`
1o
0p
1}
1~
1"!
1#!
0$!
0+!
1,!
1.!
0:
0;
0;!
16!
1:!
15!
1>!
03!
1<!
0&
0%
1/!
1u
1(!
0-!
0f
1e
1g
1v
1-!
0/!
0F
1E
1G
0g
1f
1c
1/
0.
1-
0G
1F
1C
0/
1.
1)
#180000
0*
0<
0h
0Y
0i
#185000
1*
1<
1h
1Y
1i
12!
1`
0j
0k
0m
1n
1p
0v
1y
0z
1{
0}
0~
0"!
0#!
0)!
0*!
1;
1b
0c
0?!
06!
0:!
05!
0>!
1|
17!
0=!
09!
04!
18!
1@!
1&
1B
0C
1/!
0'!
0u
0(!
0-!
0)
1(
0f
0e
0d
1g
1v
0F
0E
0D
1G
1c
1/
0.
0-
0,
1C
1)
#190000
0*
0<
0h
0Y
0i
#195000
1*
1<
1h
1Y
1i
11!
1_
1j
1k
1m
0n
0o
0y
1z
1$!
1)!
1*!
1+!
0,!
0.!
1:
1;!
1?!
07!
1=!
19!
13!
0<!
14!
08!
0@!
1%
0v
0/!
1'!
0{
1-!
1f
0b
1d
0g
0c
0|
1F
0B
1D
0G
0C
0/
1.
1,
0)
0(
#200000
0*
0<
0h
0Y
0i
#205000
1*
1<
1h
1Y
1i
02!
01!
0_
0`
1o
0p
1}
1~
1"!
1#!
0$!
0+!
1,!
1.!
0:
0;
0;!
16!
1:!
15!
1>!
03!
1<!
0&
0%
1/!
1u
1(!
0-!
0f
1e
1g
1v
1-!
0/!
0F
1E
1G
0g
1f
1c
1/
0.
1-
0G
1F
1C
0/
1.
1)
#210000
0*
0<
0h
0Y
0i
#215000
1*
1<
1h
1Y
1i
12!
1`
0j
0k
0m
1n
1p
0v
1y
0z
1{
0}
0~
0"!
0#!
0)!
0*!
1;
1b
0c
0?!
06!
0:!
05!
0>!
1|
17!
0=!
09!
04!
18!
1@!
1&
1B
0C
1/!
0'!
0u
0(!
0-!
0)
1(
0f
0e
0d
1g
1v
0F
0E
0D
1G
1c
1/
0.
0-
0,
1C
1)
#220000
0*
0<
0h
0Y
0i
#225000
1*
1<
1h
1Y
1i
11!
1_
1j
1k
1m
0n
0o
0y
1z
1$!
1)!
1*!
1+!
0,!
0.!
1:
1;!
1?!
07!
1=!
19!
13!
0<!
14!
08!
0@!
1%
0v
0/!
1'!
0{
1-!
1f
0b
1d
0g
0c
0|
1F
0B
1D
0G
0C
0/
1.
1,
0)
0(
#230000
0*
0<
0h
0Y
0i
#235000
1*
1<
1h
1Y
1i
02!
01!
0_
0`
1o
0p
1}
1~
1"!
1#!
0$!
0+!
1,!
1.!
0:
0;
0;!
16!
1:!
15!
1>!
03!
1<!
0&
0%
1/!
1u
1(!
0-!
0f
1e
1g
1v
1-!
0/!
0F
1E
1G
0g
1f
1c
1/
0.
1-
0G
1F
1C
0/
1.
1)
#240000
0*
0<
0h
0Y
0i
#245000
1*
1<
1h
1Y
1i
12!
1`
0j
0k
0m
1n
1p
0v
1y
0z
1{
0}
0~
0"!
0#!
0)!
0*!
1;
1b
0c
0?!
06!
0:!
05!
0>!
1|
17!
0=!
09!
04!
18!
1@!
1&
1B
0C
1/!
0'!
0u
0(!
0-!
0)
1(
0f
0e
0d
1g
1v
0F
0E
0D
1G
1c
1/
0.
0-
0,
1C
1)
#250000
0*
0<
0h
0Y
0i
#255000
1*
1<
1h
1Y
1i
11!
1_
1j
1k
1m
0n
0o
0y
1z
1$!
1)!
1*!
1+!
0,!
0.!
1:
1;!
1?!
07!
1=!
19!
13!
0<!
14!
08!
0@!
1%
0v
0/!
1'!
0{
1-!
1f
0b
1d
0g
0c
0|
1F
0B
1D
0G
0C
0/
1.
1,
0)
0(
#260000
0*
0<
0h
0Y
0i
#265000
1*
1<
1h
1Y
1i
02!
01!
0_
0`
1o
0p
1}
1~
1"!
1#!
0$!
0+!
1,!
1.!
0:
0;
0;!
16!
1:!
15!
1>!
03!
1<!
0&
0%
1/!
1u
1(!
0-!
0f
1e
1g
1v
1-!
0/!
0F
1E
1G
0g
1f
1c
1/
0.
1-
0G
1F
1C
0/
1.
1)
#270000
0*
0<
0h
0Y
0i
#275000
1*
1<
1h
1Y
1i
12!
1`
0j
0k
0m
1n
1p
0v
1y
0z
1{
0}
0~
0"!
0#!
0)!
0*!
1;
1b
0c
0?!
06!
0:!
05!
0>!
1|
17!
0=!
09!
04!
18!
1@!
1&
1B
0C
1/!
0'!
0u
0(!
0-!
0)
1(
0f
0e
0d
1g
1v
0F
0E
0D
1G
1c
1/
0.
0-
0,
1C
1)
#280000
0*
0<
0h
0Y
0i
#285000
1*
1<
1h
1Y
1i
11!
1_
1j
1k
1m
0n
0o
0y
1z
1$!
1)!
1*!
1+!
0,!
0.!
1:
1;!
1?!
07!
1=!
19!
13!
0<!
14!
08!
0@!
1%
0v
0/!
1'!
0{
1-!
1f
0b
1d
0g
0c
0|
1F
0B
1D
0G
0C
0/
1.
1,
0)
0(
#290000
0*
0<
0h
0Y
0i
#295000
1*
1<
1h
1Y
1i
02!
01!
0_
0`
1o
0p
1}
1~
1"!
1#!
0$!
0+!
1,!
1.!
0:
0;
0;!
16!
1:!
15!
1>!
03!
1<!
0&
0%
1/!
1u
1(!
0-!
0f
1e
1g
1v
1-!
0/!
0F
1E
1G
0g
1f
1c
1/
0.
1-
0G
1F
1C
0/
1.
1)
#300000
0*
0<
0h
0Y
0i
#305000
1*
1<
1h
1Y
1i
12!
1`
0j
0k
0m
1n
1p
0v
1y
0z
1{
0}
0~
0"!
0#!
0)!
0*!
1;
1b
0c
0?!
06!
0:!
05!
0>!
1|
17!
0=!
09!
04!
18!
1@!
1&
1B
0C
1/!
0'!
0u
0(!
0-!
0)
1(
0f
0e
0d
1g
1v
0F
0E
0D
1G
1c
1/
0.
0-
0,
1C
1)
#310000
0*
0<
0h
0Y
0i
#315000
1*
1<
1h
1Y
1i
11!
1_
1j
1k
1m
0n
0o
0y
1z
1$!
1)!
1*!
1+!
0,!
0.!
1:
1;!
1?!
07!
1=!
19!
13!
0<!
14!
08!
0@!
1%
0v
0/!
1'!
0{
1-!
1f
0b
1d
0g
0c
0|
1F
0B
1D
0G
0C
0/
1.
1,
0)
0(
#320000
0*
0<
0h
0Y
0i
#325000
1*
1<
1h
1Y
1i
02!
01!
0_
0`
1o
0p
1}
1~
1"!
1#!
0$!
0+!
1,!
1.!
0:
0;
0;!
16!
1:!
15!
1>!
03!
1<!
0&
0%
1/!
1u
1(!
0-!
0f
1e
1g
1v
1-!
0/!
0F
1E
1G
0g
1f
1c
1/
0.
1-
0G
1F
1C
0/
1.
1)
#330000
0*
0<
0h
0Y
0i
#335000
1*
1<
1h
1Y
1i
12!
1`
0j
0k
0m
1n
1p
0v
1y
0z
1{
0}
0~
0"!
0#!
0)!
0*!
1;
1b
0c
0?!
06!
0:!
05!
0>!
1|
17!
0=!
09!
04!
18!
1@!
1&
1B
0C
1/!
0'!
0u
0(!
0-!
0)
1(
0f
0e
0d
1g
1v
0F
0E
0D
1G
1c
1/
0.
0-
0,
1C
1)
#340000
0*
0<
0h
0Y
0i
#345000
1*
1<
1h
1Y
1i
11!
1_
1j
1k
1m
0n
0o
0y
1z
1$!
1)!
1*!
1+!
0,!
0.!
1:
1;!
1?!
07!
1=!
19!
13!
0<!
14!
08!
0@!
1%
0v
0/!
1'!
0{
1-!
1f
0b
1d
0g
0c
0|
1F
0B
1D
0G
0C
0/
1.
1,
0)
0(
#350000
0*
0<
0h
0Y
0i
#355000
1*
1<
1h
1Y
1i
02!
01!
0_
0`
1o
0p
1}
1~
1"!
1#!
0$!
0+!
1,!
1.!
0:
0;
0;!
16!
1:!
15!
1>!
03!
1<!
0&
0%
1/!
1u
1(!
0-!
0f
1e
1g
1v
1-!
0/!
0F
1E
1G
0g
1f
1c
1/
0.
1-
0G
1F
1C
0/
1.
1)
#360000
0*
0<
0h
0Y
0i
#365000
1*
1<
1h
1Y
1i
12!
1`
0j
0k
0m
1n
1p
0v
1y
0z
1{
0}
0~
0"!
0#!
0)!
0*!
1;
1b
0c
0?!
06!
0:!
05!
0>!
1|
17!
0=!
09!
04!
18!
1@!
1&
1B
0C
1/!
0'!
0u
0(!
0-!
0)
1(
0f
0e
0d
1g
1v
0F
0E
0D
1G
1c
1/
0.
0-
0,
1C
1)
#370000
0*
0<
0h
0Y
0i
#375000
1*
1<
1h
1Y
1i
11!
1_
1j
1k
1m
0n
0o
0y
1z
1$!
1)!
1*!
1+!
0,!
0.!
1:
1;!
1?!
07!
1=!
19!
13!
0<!
14!
08!
0@!
1%
0v
0/!
1'!
0{
1-!
1f
0b
1d
0g
0c
0|
1F
0B
1D
0G
0C
0/
1.
1,
0)
0(
#380000
0*
0<
0h
0Y
0i
#385000
1*
1<
1h
1Y
1i
02!
01!
0_
0`
1o
0p
1}
1~
1"!
1#!
0$!
0+!
1,!
1.!
0:
0;
0;!
16!
1:!
15!
1>!
03!
1<!
0&
0%
1/!
1u
1(!
0-!
0f
1e
1g
1v
1-!
0/!
0F
1E
1G
0g
1f
1c
1/
0.
1-
0G
1F
1C
0/
1.
1)
#390000
0*
0<
0h
0Y
0i
#395000
1*
1<
1h
1Y
1i
12!
1`
0j
0k
0m
1n
1p
0v
1y
0z
1{
0}
0~
0"!
0#!
0)!
0*!
1;
1b
0c
0?!
06!
0:!
05!
0>!
1|
17!
0=!
09!
04!
18!
1@!
1&
1B
0C
1/!
0'!
0u
0(!
0-!
0)
1(
0f
0e
0d
1g
1v
0F
0E
0D
1G
1c
1/
0.
0-
0,
1C
1)
#400000
0*
0<
0h
0Y
0i
#405000
1*
1<
1h
1Y
1i
11!
1_
1j
1k
1m
0n
0o
0y
1z
1$!
1)!
1*!
1+!
0,!
0.!
1:
1;!
1?!
07!
1=!
19!
13!
0<!
14!
08!
0@!
1%
0v
0/!
1'!
0{
1-!
1f
0b
1d
0g
0c
0|
1F
0B
1D
0G
0C
0/
1.
1,
0)
0(
#410000
0*
0<
0h
0Y
0i
#415000
1*
1<
1h
1Y
1i
02!
01!
0_
0`
1o
0p
1}
1~
1"!
1#!
0$!
0+!
1,!
1.!
0:
0;
0;!
16!
1:!
15!
1>!
03!
1<!
0&
0%
1/!
1u
1(!
0-!
0f
1e
1g
1v
1-!
0/!
0F
1E
1G
0g
1f
1c
1/
0.
1-
0G
1F
1C
0/
1.
1)
#420000
0*
0<
0h
0Y
0i
#425000
1*
1<
1h
1Y
1i
12!
1`
0j
0k
0m
1n
1p
0v
1y
0z
1{
0}
0~
0"!
0#!
0)!
0*!
1;
1b
0c
0?!
06!
0:!
05!
0>!
1|
17!
0=!
09!
04!
18!
1@!
1&
1B
0C
1/!
0'!
0u
0(!
0-!
0)
1(
0f
0e
0d
1g
1v
0F
0E
0D
1G
1c
1/
0.
0-
0,
1C
1)
#430000
0*
0<
0h
0Y
0i
#435000
1*
1<
1h
1Y
1i
11!
1_
1j
1k
1m
0n
0o
0y
1z
1$!
1)!
1*!
1+!
0,!
0.!
1:
1;!
1?!
07!
1=!
19!
13!
0<!
14!
08!
0@!
1%
0v
0/!
1'!
0{
1-!
1f
0b
1d
0g
0c
0|
1F
0B
1D
0G
0C
0/
1.
1,
0)
0(
#440000
0*
0<
0h
0Y
0i
#445000
1*
1<
1h
1Y
1i
02!
01!
0_
0`
1o
0p
1}
1~
1"!
1#!
0$!
0+!
1,!
1.!
0:
0;
0;!
16!
1:!
15!
1>!
03!
1<!
0&
0%
1/!
1u
1(!
0-!
0f
1e
1g
1v
1-!
0/!
0F
1E
1G
0g
1f
1c
1/
0.
1-
0G
1F
1C
0/
1.
1)
#450000
0*
0<
0h
0Y
0i
#455000
1*
1<
1h
1Y
1i
12!
1`
0j
0k
0m
1n
1p
0v
1y
0z
1{
0}
0~
0"!
0#!
0)!
0*!
1;
1b
0c
0?!
06!
0:!
05!
0>!
1|
17!
0=!
09!
04!
18!
1@!
1&
1B
0C
1/!
0'!
0u
0(!
0-!
0)
1(
0f
0e
0d
1g
1v
0F
0E
0D
1G
1c
1/
0.
0-
0,
1C
1)
#460000
0*
0<
0h
0Y
0i
#465000
1*
1<
1h
1Y
1i
11!
1_
1j
1k
1m
0n
0o
0y
1z
1$!
1)!
1*!
1+!
0,!
0.!
1:
1;!
1?!
07!
1=!
19!
13!
0<!
14!
08!
0@!
1%
0v
0/!
1'!
0{
1-!
1f
0b
1d
0g
0c
0|
1F
0B
1D
0G
0C
0/
1.
1,
0)
0(
#470000
0*
0<
0h
0Y
0i
#475000
1*
1<
1h
1Y
1i
02!
01!
0_
0`
1o
0p
1}
1~
1"!
1#!
0$!
0+!
1,!
1.!
0:
0;
0;!
16!
1:!
15!
1>!
03!
1<!
0&
0%
1/!
1u
1(!
0-!
0f
1e
1g
1v
1-!
0/!
0F
1E
1G
0g
1f
1c
1/
0.
1-
0G
1F
1C
0/
1.
1)
#480000
0*
0<
0h
0Y
0i
#485000
1*
1<
1h
1Y
1i
12!
1`
0j
0k
0m
1n
1p
0v
1y
0z
1{
0}
0~
0"!
0#!
0)!
0*!
1;
1b
0c
0?!
06!
0:!
05!
0>!
1|
17!
0=!
09!
04!
18!
1@!
1&
1B
0C
1/!
0'!
0u
0(!
0-!
0)
1(
0f
0e
0d
1g
1v
0F
0E
0D
1G
1c
1/
0.
0-
0,
1C
1)
#490000
0*
0<
0h
0Y
0i
#495000
1*
1<
1h
1Y
1i
11!
1_
1j
1k
1m
0n
0o
0y
1z
1$!
1)!
1*!
1+!
0,!
0.!
1:
1;!
1?!
07!
1=!
19!
13!
0<!
14!
08!
0@!
1%
0v
0/!
1'!
0{
1-!
1f
0b
1d
0g
0c
0|
1F
0B
1D
0G
0C
0/
1.
1,
0)
0(
#500000
0*
0<
0h
0Y
0i
#505000
1*
1<
1h
1Y
1i
02!
01!
0_
0`
1o
0p
1}
1~
1"!
1#!
0$!
0+!
1,!
1.!
0:
0;
0;!
16!
1:!
15!
1>!
03!
1<!
0&
0%
1/!
1u
1(!
0-!
0f
1e
1g
1v
1-!
0/!
0F
1E
1G
0g
1f
1c
1/
0.
1-
0G
1F
1C
0/
1.
1)
#510000
0*
0<
0h
0Y
0i
#515000
1*
1<
1h
1Y
1i
12!
1`
0j
0k
0m
1n
1p
0v
1y
0z
1{
0}
0~
0"!
0#!
0)!
0*!
1;
1b
0c
0?!
06!
0:!
05!
0>!
1|
17!
0=!
09!
04!
18!
1@!
1&
1B
0C
1/!
0'!
0u
0(!
0-!
0)
1(
0f
0e
0d
1g
1v
0F
0E
0D
1G
1c
1/
0.
0-
0,
1C
1)
#520000
0*
0<
0h
0Y
0i
#525000
1*
1<
1h
1Y
1i
11!
1_
1j
1k
1m
0n
0o
0y
1z
1$!
1)!
1*!
1+!
0,!
0.!
1:
1;!
1?!
07!
1=!
19!
13!
0<!
14!
08!
0@!
1%
0v
0/!
1'!
0{
1-!
1f
0b
1d
0g
0c
0|
1F
0B
1D
0G
0C
0/
1.
1,
0)
0(
#530000
0*
0<
0h
0Y
0i
