Practica6/simulation/qsim/Practica6.msim.vcd
$comment
	File created using the following command:
		vcd file Practica6.msim.vcd -direction
$end
$date
	Thu Oct 03 10:50:51 2019
$end
$version
	ModelSim Version 10.5b
$end
$timescale
	1ps
$end

$scope module practica6_vhd_vec_tst $end
$var wire 1 ! carga $end
$var wire 1 " currentState [3] $end
$var wire 1 # currentState [2] $end
$var wire 1 $ currentState [1] $end
$var wire 1 % currentState [0] $end
$var wire 1 & ENTRADA [3] $end
$var wire 1 ' ENTRADA [2] $end
$var wire 1 ( ENTRADA [1] $end
$var wire 1 ) ENTRADA [0] $end
$var wire 1 * int $end
$var wire 1 + mi [1] $end
$var wire 1 , mi [0] $end
$var wire 1 - RELOJ $end
$var wire 1 . RESET $end
$var wire 1 / salidas [3] $end
$var wire 1 0 salidas [2] $end
$var wire 1 1 salidas [1] $end
$var wire 1 2 salidas [0] $end
$var wire 1 3 selector $end
$var wire 1 4 state [3] $end
$var wire 1 5 state [2] $end
$var wire 1 6 state [1] $end
$var wire 1 7 state [0] $end
$var wire 1 8 x $end
$var wire 1 9 y $end

$scope module i1 $end
$var wire 1 : gnd $end
$var wire 1 ; vcc $end
$var wire 1 < unknown $end
$var wire 1 = devoe $end
$var wire 1 > devclrn $end
$var wire 1 ? devpor $end
$var wire 1 @ ww_devoe $end
$var wire 1 A ww_devclrn $end
$var wire 1 B ww_devpor $end
$var wire 1 C ww_selector $end
$var wire 1 D ww_x $end
$var wire 1 E ww_y $end
$var wire 1 F ww_int $end
$var wire 1 G ww_RELOJ $end
$var wire 1 H ww_RESET $end
$var wire 1 I ww_ENTRADA [3] $end
$var wire 1 J ww_ENTRADA [2] $end
$var wire 1 K ww_ENTRADA [1] $end
$var wire 1 L ww_ENTRADA [0] $end
$var wire 1 M ww_carga $end
$var wire 1 N ww_currentState [3] $end
$var wire 1 O ww_currentState [2] $end
$var wire 1 P ww_currentState [1] $end
$var wire 1 Q ww_currentState [0] $end
$var wire 1 R ww_mi [1] $end
$var wire 1 S ww_mi [0] $end
$var wire 1 T ww_salidas [3] $end
$var wire 1 U ww_salidas [2] $end
$var wire 1 V ww_salidas [1] $end
$var wire 1 W ww_salidas [0] $end
$var wire 1 X ww_state [3] $end
$var wire 1 Y ww_state [2] $end
$var wire 1 Z ww_state [1] $end
$var wire 1 [ ww_state [0] $end
$var wire 1 \ \~QUARTUS_CREATED_ADC1~_CHSEL_bus\ [4] $end
$var wire 1 ] \~QUARTUS_CREATED_ADC1~_CHSEL_bus\ [3] $end
$var wire 1 ^ \~QUARTUS_CREATED_ADC1~_CHSEL_bus\ [2] $end
$var wire 1 _ \~QUARTUS_CREATED_ADC1~_CHSEL_bus\ [1] $end
$var wire 1 ` \~QUARTUS_CREATED_ADC1~_CHSEL_bus\ [0] $end
$var wire 1 a \~QUARTUS_CREATED_ADC2~_CHSEL_bus\ [4] $end
$var wire 1 b \~QUARTUS_CREATED_ADC2~_CHSEL_bus\ [3] $end
$var wire 1 c \~QUARTUS_CREATED_ADC2~_CHSEL_bus\ [2] $end
$var wire 1 d \~QUARTUS_CREATED_ADC2~_CHSEL_bus\ [1] $end
$var wire 1 e \~QUARTUS_CREATED_ADC2~_CHSEL_bus\ [0] $end
$var wire 1 f \RESET~inputclkctrl_INCLK_bus\ [3] $end
$var wire 1 g \RESET~inputclkctrl_INCLK_bus\ [2] $end
$var wire 1 h \RESET~inputclkctrl_INCLK_bus\ [1] $end
$var wire 1 i \RESET~inputclkctrl_INCLK_bus\ [0] $end
$var wire 1 j \RELOJ~inputclkctrl_INCLK_bus\ [3] $end
$var wire 1 k \RELOJ~inputclkctrl_INCLK_bus\ [2] $end
$var wire 1 l \RELOJ~inputclkctrl_INCLK_bus\ [1] $end
$var wire 1 m \RELOJ~inputclkctrl_INCLK_bus\ [0] $end
$var wire 1 n \~QUARTUS_CREATED_GND~I_combout\ $end
$var wire 1 o \~QUARTUS_CREATED_UNVM~~busy\ $end
$var wire 1 p \~QUARTUS_CREATED_ADC1~~eoc\ $end
$var wire 1 q \~QUARTUS_CREATED_ADC2~~eoc\ $end
$var wire 1 r \state[3]~output_o\ $end
$var wire 1 s \state[2]~output_o\ $end
$var wire 1 t \state[1]~output_o\ $end
$var wire 1 u \state[0]~output_o\ $end
$var wire 1 v \selector~output_o\ $end
$var wire 1 w \carga~output_o\ $end
$var wire 1 x \currentState[3]~output_o\ $end
$var wire 1 y \currentState[2]~output_o\ $end
$var wire 1 z \currentState[1]~output_o\ $end
$var wire 1 { \currentState[0]~output_o\ $end
$var wire 1 | \mi[1]~output_o\ $end
$var wire 1 } \mi[0]~output_o\ $end
$var wire 1 ~ \salidas[3]~output_o\ $end
$var wire 1 !! \salidas[2]~output_o\ $end
$var wire 1 "! \salidas[1]~output_o\ $end
$var wire 1 #! \salidas[0]~output_o\ $end
$var wire 1 $! \RELOJ~input_o\ $end
$var wire 1 %! \RELOJ~inputclkctrl_outclk\ $end
$var wire 1 &! \inst12|SALIDA[3]~2_combout\ $end
$var wire 1 '! \ENTRADA[1]~input_o\ $end
$var wire 1 (! \ENTRADA[0]~input_o\ $end
$var wire 1 )! \inst11|valor_interno[0]~feeder_combout\ $end
$var wire 1 *! \inst18|Mux8~0_combout\ $end
$var wire 1 +! \inst12|SALIDA[0]~5_combout\ $end
$var wire 1 ,! \inst12|SALIDA[0]~6_combout\ $end
$var wire 1 -! \inst3|valor_interno[0]~0_combout\ $end
$var wire 1 .! \RESET~input_o\ $end
$var wire 1 /! \RESET~inputclkctrl_outclk\ $end
$var wire 1 0! \inst18|Mux2~0_combout\ $end
$var wire 1 1! \int~input_o\ $end
$var wire 1 2! \inst18|Mux4~0_combout\ $end
$var wire 1 3! \inst|vf~q\ $end
$var wire 1 4! \x~input_o\ $end
$var wire 1 5! \y~input_o\ $end
$var wire 1 6! \inst18|Mux3~0_combout\ $end
$var wire 1 7! \inst6~0_combout\ $end
$var wire 1 8! \inst6~1_combout\ $end
$var wire 1 9! \inst19|Mux0~0_combout\ $end
$var wire 1 :! \inst5|salida[0]~3_combout\ $end
$var wire 1 ;! \inst18|Mux7~0_combout\ $end
$var wire 1 <! \inst12|SALIDA[1]~3_combout\ $end
$var wire 1 =! \inst12|SALIDA[1]~4_combout\ $end
$var wire 1 >! \inst5|salida[1]~2_combout\ $end
$var wire 1 ?! \inst4|Add0~4_combout\ $end
$var wire 1 @! \inst4|Add0~3_combout\ $end
$var wire 1 A! \inst4|Add0~0_combout\ $end
$var wire 1 B! \inst4|Add0~1_combout\ $end
$var wire 1 C! \inst4|Add0~2_combout\ $end
$var wire 1 D! \inst5|salida[3]~0_combout\ $end
$var wire 1 E! \inst18|Mux0~0_combout\ $end
$var wire 1 F! \ENTRADA[2]~input_o\ $end
$var wire 1 G! \inst12|valor_interno[2]~feeder_combout\ $end
$var wire 1 H! \inst7[2]~0_combout\ $end
$var wire 1 I! \inst5|salida[2]~1_combout\ $end
$var wire 1 J! \inst18|Mux1~0_combout\ $end
$var wire 1 K! \ENTRADA[3]~input_o\ $end
$var wire 1 L! \inst18|Mux5~0_combout\ $end
$var wire 1 M! \inst12|SALIDA[3]~0_combout\ $end
$var wire 1 N! \inst12|SALIDA[3]~1_combout\ $end
$var wire 1 O! \inst18|Mux9~0_combout\ $end
$var wire 1 P! \inst18|Mux10~0_combout\ $end
$var wire 1 Q! \inst18|Mux11~0_combout\ $end
$var wire 1 R! \inst18|Mux12~0_combout\ $end
$var wire 1 S! \inst12|valor_interno\ [3] $end
$var wire 1 T! \inst12|valor_interno\ [2] $end
$var wire 1 U! \inst12|valor_interno\ [1] $end
$var wire 1 V! \inst12|valor_interno\ [0] $end
$var wire 1 W! \inst|mi\ [1] $end
$var wire 1 X! \inst|mi\ [0] $end
$var wire 1 Y! \inst3|valor_interno\ [3] $end
$var wire 1 Z! \inst3|valor_interno\ [2] $end
$var wire 1 [! \inst3|valor_interno\ [1] $end
$var wire 1 \! \inst3|valor_interno\ [0] $end
$var wire 1 ]! \inst|prueba\ [1] $end
$var wire 1 ^! \inst|prueba\ [0] $end
$var wire 1 _! \inst11|valor_interno\ [3] $end
$var wire 1 `! \inst11|valor_interno\ [2] $end
$var wire 1 a! \inst11|valor_interno\ [1] $end
$var wire 1 b! \inst11|valor_interno\ [0] $end
$var wire 1 c! \inst|liga\ [3] $end
$var wire 1 d! \inst|liga\ [2] $end
$var wire 1 e! \inst|liga\ [1] $end
$var wire 1 f! \inst|liga\ [0] $end
$var wire 1 g! \inst18|ALT_INV_Mux10~0_combout\ $end
$var wire 1 h! \inst18|ALT_INV_Mux9~0_combout\ $end
$var wire 1 i! \ALT_INV_inst6~1_combout\ $end
$upscope $end
$upscope $end
$enddefinitions $end
#0
$dumpvars
0!
1*
0-
1.
03
18
09
0:
1;
x<
1=
1>
1?
1@
1A
1B
0C
1D
0E
1F
0G
1H
0M
0n
zo
zp
zq
zr
zs
zt
zu
0v
0w
0x
0y
0z
0{
0|
0}
1~
1!!
0"!
0#!
0$!
0%!
0&!
1'!
1(!
1)!
0*!
1+!
1,!
1-!
1.!
1/!
10!
11!
02!
03!
14!
05!
16!
17!
18!
09!
0:!
0;!
1<!
1=!
0>!
0?!
0@!
0A!
0B!
0C!
0D!
0E!
0F!
0G!
1H!
0I!
0J!
0K!
0L!
1M!
1N!
0O!
0P!
0Q!
0R!
1g!
1h!
0i!
0&
0'
1(
1)
0I
0J
1K
1L
0N
0O
0P
0Q
0R
0S
1T
1U
0V
0W
zX
zY
zZ
z[
0S!
0T!
0U!
0V!
0W!
0X!
0Y!
0Z!
0[!
0\!
0]!
0^!
0_!
0`!
0a!
0b!
0c!
xd!
0e!
0f!
1j
1k
1l
0m
1f
1g
1h
1i
0\
0]
0^
0_
0`
0a
0b
0c
0d
0e
0"
0#
0$
0%
0+
0,
1/
10
01
02
z4
z5
z6
z7
$end
#5000
1-
1G
1$!
1m
1%!
1a!
1b!
1V!
1\!
1]!
1^!
1U!
08!
1:!
1i!
1{
0-!
00!
06!
1?!
1O!
1Q!
1w
0h!
1Q
1"!
1M
1%
0~
1V
1!
0T
11
0/
#10000
0-
0G
0$!
0m
0%!
#15000
1-
1G
1$!
1m
1%!
0\!
0]!
0^!
1[!
1>!
18!
0:!
0i!
0{
1z
1-!
1E!
1P!
0Q!
1R!
0w
0g!
0Q
1P
1#!
0"!
0M
0%
1$
0!!
1W
0V
0!
0U
12
01
00
#20000
0-
0G
0$!
0m
0%!
#25000
1-
1G
1$!
1m
1%!
1\!
1W!
1|
1&!
19!
0H!
0N!
1:!
1R
1{
0r
0s
1v
1t
1u
1*!
0-!
1;!
0?!
1@!
0E!
1J!
1Q!
0R!
1+
1Q
0X
0Y
1C
1Z
1[
0#!
1"!
1%
17
16
05
04
13
0W
1V
02
11
#30000
0-
0G
0$!
0m
0%!
#35000
1-
1G
1$!
1m
1%!
1f!
0\!
1e!
0[!
1Z!
0W!
1X!
1}
0|
09!
0M!
1N!
1S
0R
1r
0v
1B!
0N!
0:!
0>!
1I!
1,
0+
1X
0C
1y
0z
0{
0r
0*!
1-!
10!
12!
0;!
1E!
0O!
0Q!
0B!
14
03
1h!
1O
0P
0Q
0X
0"!
0%
0$
1#
04
1~
0V
1T
01
1/
#40000
0-
1&
1'
0)
0G
0L
1J
1I
1K!
1F!
0(!
0$!
0m
0)!
1G!
0%!
#45000
1-
1G
1$!
1m
1%!
0b!
0f!
0V!
1\!
1]!
13!
0e!
1W!
1`!
1T!
1S!
1_!
1|
19!
1H!
1M!
07!
1:!
0,!
1R
0u
1{
1s
1v
1*!
0-!
02!
16!
1?!
0E!
0P!
08!
1N!
0:!
1>!
1+
1i!
1g!
0[
1Q
1Y
1C
1z
0{
1r
0*!
1-!
00!
06!
0J!
1O!
1P!
1Q!
1R!
1B!
1D!
09!
07
15
1%
13
1!!
1w
0g!
0h!
1P
0Q
1X
0v
1x
1#!
1"!
1:!
0>!
0D!
10!
16!
1J!
0Q!
1U
1M
0%
1$
14
0~
0!!
0C
1N
1W
1V
10
1!
0"!
0x
0z
1{
1*!
0-!
0O!
0P!
0R!
0T
0U
03
1"
12
11
1g!
1h!
0V
0N
0P
1Q
00
0/
0#!
01
1%
0$
0"
1~
1!!
0W
1T
1U
02
10
1/
#50000
0-
0G
0$!
0m
0%!
#55000
1-
1G
1$!
1m
1%!
1f!
0\!
03!
1^!
1[!
0W!
0|
1,!
19!
0<!
0H!
0M!
1>!
17!
18!
0:!
0i!
0R
0{
1z
0s
1v
1u
1-!
09!
08!
0*!
00!
06!
0J!
1O!
1P!
1Q!
1R!
0N!
0=!
1C!
1D!
0I!
1:!
0+
0w
0g!
0h!
1i!
0Q
1P
0Y
1C
1[
1{
0y
1x
0t
0r
1#!
1"!
0v
0-!
0?!
1;!
1*!
12!
16!
1J!
1L!
0R!
0B!
19!
0:!
0C!
0D!
1I!
0M
0%
1$
17
05
13
1w
0~
0!!
1Q
0O
1N
0Z
0X
1W
1V
0C
0!
1y
0x
0{
1v
0#!
0*!
1-!
02!
06!
0;!
1?!
0J!
0L!
1R!
1:!
0>!
0I!
1M
0T
0U
1%
0#
1"
06
04
12
11
03
1O
0N
0Q
1C
0W
1!
00
0/
0y
0z
1{
1#!
0-!
0@!
0P!
0R!
0%
1#
0"
13
02
1g!
0O
0P
1Q
1W
0#!
1%
0$
0#
12
1!!
0W
1U
02
10
#60000
0-
0G
0$!
0m
0%!
#65000
1-
1G
1$!
1m
1%!
0f!
0]!
0^!
0Z!
0X!
0}
0&!
09!
1<!
1H!
1M!
18!
0i!
0S
zs
0v
zr
zt
zu
1N!
1=!
0:!
1>!
0,
0w
zY
0C
zX
zZ
z[
1z
0{
1-!
1E!
1P!
0Q!
1R!
0M
z7
z6
z5
z4
03
0g!
1P
0Q
0!
1#!
0"!
0%
1$
0!!
1W
0V
0U
12
01
00
#70000
0-
0&
0'
1)
0G
1L
0J
0I
0K!
0F!
1(!
0$!
0m
1)!
0G!
0%!
#75000
1-
1G
1$!
1m
1%!
1b!
1V!
1\!
1W!
0`!
0T!
0S!
0_!
1|
1&!
19!
0H!
0N!
1:!
1R
1{
0r
0s
1v
1t
1u
1*!
0-!
1;!
0?!
1@!
0E!
1J!
1Q!
0R!
1+
1Q
0X
0Y
1C
1Z
1[
0#!
1"!
1%
17
16
05
04
13
0W
1V
02
11
#80000
0-
0G
0$!
0m
0%!
#85000
1-
1G
1$!
1m
1%!
1f!
0\!
1e!
0[!
1Z!
0W!
1X!
1}
0|
09!
0M!
1N!
1S
0R
1r
0v
1B!
0N!
0:!
0>!
1I!
1,
0+
1X
0C
1y
0z
0{
0r
0*!
1-!
10!
12!
0;!
1E!
0O!
0Q!
0B!
14
03
1h!
1O
0P
0Q
0X
0"!
0%
0$
1#
04
1~
0V
1T
01
1/
#90000
0-
0G
0$!
0m
0%!
#95000
1-
1G
1$!
1m
1%!
0f!
1\!
1]!
13!
0e!
1W!
1|
19!
07!
1:!
1R
1{
1v
1*!
0-!
02!
16!
1?!
0E!
0P!
08!
1>!
0I!
1+
1i!
1g!
1Q
1C
0y
1z
00!
06!
1;!
0?!
1O!
1P!
1Q!
09!
1%
13
1!!
1w
0g!
0h!
0O
1P
0v
1"!
0>!
1I!
1U
1M
1$
0#
0~
0!!
0C
1V
10
1!
1y
0z
10!
16!
0;!
1?!
0O!
0P!
0Q!
0T
0U
03
11
1g!
1h!
1O
0P
00
0/
0"!
0$
1#
1~
1!!
0V
1T
1U
01
10
1/
#100000
0-
0G
0$!
0m
0%!
#105000
1-
1G
1$!
1m
1%!
1f!
0\!
03!
1^!
1[!
0W!
0|
19!
0<!
1>!
17!
18!
0:!
0i!
0R
0{
1z
1v
1-!
09!
08!
0*!
00!
06!
0J!
1O!
1P!
1Q!
1R!
0=!
1:!
0I!
0+
0w
0g!
0h!
1i!
0Q
1P
1C
0y
1{
0t
1#!
1"!
0v
1*!
0-!
1;!
0?!
1J!
0R!
19!
0:!
1I!
0M
0%
1$
13
1w
0~
0!!
0O
1Q
0Z
1W
1V
0C
0!
1y
0{
1v
0#!
0*!
1-!
0;!
1?!
0J!
1R!
1:!
0>!
0I!
1M
0T
0U
1%
0#
06
12
11
03
1O
0Q
1C
0W
1!
00
0/
0y
0z
1{
1#!
0-!
0@!
0P!
0R!
0%
1#
13
02
1g!
0O
0P
1Q
1W
0#!
1%
0$
0#
12
1!!
0W
1U
02
10
#110000
0-
0G
0$!
0m
0%!
#115000
1-
1G
1$!
1m
1%!
0f!
0]!
0^!
0Z!
0X!
0}
0&!
09!
1<!
1H!
1M!
18!
0i!
0S
zs
0v
zr
zt
zu
1N!
1=!
0:!
1>!
0,
0w
zY
0C
zX
zZ
z[
1z
0{
1-!
1E!
1P!
0Q!
1R!
0M
z7
z6
z5
z4
03
0g!
1P
0Q
0!
1#!
0"!
0%
1$
0!!
1W
0V
0U
12
01
00
#120000
0-
0G
0$!
0m
0%!
#125000
1-
1G
1$!
1m
1%!
1\!
1W!
1|
1&!
19!
0H!
0N!
1:!
1R
1{
0r
0s
1v
1t
1u
1*!
0-!
1;!
0?!
1@!
0E!
1J!
1Q!
0R!
1+
1Q
0X
0Y
1C
1Z
1[
0#!
1"!
1%
17
16
05
04
13
0W
1V
02
11
#130000
0-
0G
0$!
0m
0%!
#135000
1-
1G
1$!
1m
1%!
1f!
0\!
1e!
0[!
1Z!
0W!
1X!
1}
0|
09!
0M!
1N!
1S
0R
1r
0v
1B!
0N!
0:!
0>!
1I!
1,
0+
1X
0C
1y
0z
0{
0r
0*!
1-!
10!
12!
0;!
1E!
0O!
0Q!
0B!
14
03
1h!
1O
0P
0Q
0X
0"!
0%
0$
1#
04
1~
0V
1T
01
1/
#140000
0-
0G
0$!
0m
0%!
#145000
1-
1G
1$!
1m
1%!
0f!
1\!
1]!
13!
0e!
1W!
1|
19!
07!
1:!
1R
1{
1v
1*!
0-!
02!
16!
1?!
0E!
0P!
08!
1>!
0I!
1+
1i!
1g!
1Q
1C
0y
1z
00!
06!
1;!
0?!
1O!
1P!
1Q!
09!
1%
13
1!!
1w
0g!
0h!
0O
1P
0v
1"!
0>!
1I!
1U
1M
1$
0#
0~
0!!
0C
1V
10
1!
1y
0z
10!
16!
0;!
1?!
0O!
0P!
0Q!
0T
0U
03
11
1g!
1h!
1O
0P
00
0/
0"!
0$
1#
1~
1!!
0V
1T
1U
01
10
1/
#150000
0-
0G
0$!
0m
0%!
#155000
1-
1G
1$!
1m
1%!
1f!
0\!
03!
1^!
1[!
0W!
0|
19!
0<!
1>!
17!
18!
0:!
0i!
0R
0{
1z
1v
1-!
09!
08!
0*!
00!
06!
0J!
1O!
1P!
1Q!
1R!
0=!
1:!
0I!
0+
0w
0g!
0h!
1i!
0Q
1P
1C
0y
1{
0t
1#!
1"!
0v
1*!
0-!
1;!
0?!
1J!
0R!
19!
0:!
1I!
0M
0%
1$
13
1w
0~
0!!
0O
1Q
0Z
1W
1V
0C
0!
1y
0{
1v
0#!
0*!
1-!
0;!
1?!
0J!
1R!
1:!
0>!
0I!
1M
0T
0U
1%
0#
06
12
11
03
1O
0Q
1C
0W
1!
00
0/
0y
0z
1{
1#!
0-!
0@!
0P!
0R!
0%
1#
13
02
1g!
0O
0P
1Q
1W
0#!
1%
0$
0#
12
1!!
0W
1U
02
10
#160000
0-
0G
0$!
0m
0%!
#165000
1-
1G
1$!
1m
1%!
0f!
0]!
0^!
0Z!
0X!
0}
0&!
09!
1<!
1H!
1M!
18!
0i!
0S
zs
0v
zr
zt
zu
1N!
1=!
0:!
1>!
0,
0w
zY
0C
zX
zZ
z[
1z
0{
1-!
1E!
1P!
0Q!
1R!
0M
z7
z6
z5
z4
03
0g!
1P
0Q
0!
1#!
0"!
0%
1$
0!!
1W
0V
0U
12
01
00
#170000
0-
0G
0$!
0m
0%!
#175000
1-
1G
1$!
1m
1%!
1\!
1W!
1|
1&!
19!
0H!
0N!
1:!
1R
1{
0r
0s
1v
1t
1u
1*!
0-!
1;!
0?!
1@!
0E!
1J!
1Q!
0R!
1+
1Q
0X
0Y
1C
1Z
1[
0#!
1"!
1%
17
16
05
04
13
0W
1V
02
11
#180000
0-
0G
0$!
0m
0%!
#185000
1-
1G
1$!
1m
1%!
1f!
0\!
1e!
0[!
1Z!
0W!
1X!
1}
0|
09!
0M!
1N!
1S
0R
1r
0v
1B!
0N!
0:!
0>!
1I!
1,
0+
1X
0C
1y
0z
0{
0r
0*!
1-!
10!
12!
0;!
1E!
0O!
0Q!
0B!
14
03
1h!
1O
0P
0Q
0X
0"!
0%
0$
1#
04
1~
0V
1T
01
1/
#190000
0-
0G
0$!
0m
0%!
#195000
1-
1G
1$!
1m
1%!
0f!
1\!
1]!
13!
0e!
1W!
1|
19!
07!
1:!
1R
1{
1v
1*!
0-!
02!
16!
1?!
0E!
0P!
08!
1>!
0I!
1+
1i!
1g!
1Q
1C
0y
1z
00!
06!
1;!
0?!
1O!
1P!
1Q!
09!
1%
13
1!!
1w
0g!
0h!
0O
1P
0v
1"!
0>!
1I!
1U
1M
1$
0#
0~
0!!
0C
1V
10
1!
1y
0z
10!
16!
0;!
1?!
0O!
0P!
0Q!
0T
0U
03
11
1g!
1h!
1O
0P
00
0/
0"!
0$
1#
1~
1!!
0V
1T
1U
01
10
1/
#200000
0-
0G
0$!
0m
0%!
#205000
1-
1G
1$!
1m
1%!
1f!
0\!
03!
1^!
1[!
0W!
0|
19!
0<!
1>!
17!
18!
0:!
0i!
0R
0{
1z
1v
1-!
09!
08!
0*!
00!
06!
0J!
1O!
1P!
1Q!
1R!
0=!
1:!
0I!
0+
0w
0g!
0h!
1i!
0Q
1P
1C
0y
1{
0t
1#!
1"!
0v
1*!
0-!
1;!
0?!
1J!
0R!
19!
0:!
1I!
0M
0%
1$
13
1w
0~
0!!
0O
1Q
0Z
1W
1V
0C
0!
1y
0{
1v
0#!
0*!
1-!
0;!
1?!
0J!
1R!
1:!
0>!
0I!
1M
0T
0U
1%
0#
06
12
11
03
1O
0Q
1C
0W
1!
00
0/
0y
0z
1{
1#!
0-!
0@!
0P!
0R!
0%
1#
13
02
1g!
0O
0P
1Q
1W
0#!
1%
0$
0#
12
1!!
0W
1U
02
10
#210000
0-
0G
0$!
0m
0%!
#215000
1-
1G
1$!
1m
1%!
0f!
0]!
0^!
0Z!
0X!
0}
0&!
09!
1<!
1H!
1M!
18!
0i!
0S
zs
0v
zr
zt
zu
1N!
1=!
0:!
1>!
0,
0w
zY
0C
zX
zZ
z[
1z
0{
1-!
1E!
1P!
0Q!
1R!
0M
z7
z6
z5
z4
03
0g!
1P
0Q
0!
1#!
0"!
0%
1$
0!!
1W
0V
0U
12
01
00
#220000
0-
0G
0$!
0m
0%!
#225000
1-
1G
1$!
1m
1%!
1\!
1W!
1|
1&!
19!
0H!
0N!
1:!
1R
1{
0r
0s
1v
1t
1u
1*!
0-!
1;!
0?!
1@!
0E!
1J!
1Q!
0R!
1+
1Q
0X
0Y
1C
1Z
1[
0#!
1"!
1%
17
16
05
04
13
0W
1V
02
11
#230000
0-
0G
0$!
0m
0%!
#235000
1-
1G
1$!
1m
1%!
1f!
0\!
1e!
0[!
1Z!
0W!
1X!
1}
0|
09!
0M!
1N!
1S
0R
1r
0v
1B!
0N!
0:!
0>!
1I!
1,
0+
1X
0C
1y
0z
0{
0r
0*!
1-!
10!
12!
0;!
1E!
0O!
0Q!
0B!
14
03
1h!
1O
0P
0Q
0X
0"!
0%
0$
1#
04
1~
0V
1T
01
1/
#240000
0-
0G
0$!
0m
0%!
#245000
1-
1G
1$!
1m
1%!
0f!
1\!
1]!
13!
0e!
1W!
1|
19!
07!
1:!
1R
1{
1v
1*!
0-!
02!
16!
1?!
0E!
0P!
08!
1>!
0I!
1+
1i!
1g!
1Q
1C
0y
1z
00!
06!
1;!
0?!
1O!
1P!
1Q!
09!
1%
13
1!!
1w
0g!
0h!
0O
1P
0v
1"!
0>!
1I!
1U
1M
1$
0#
0~
0!!
0C
1V
10
1!
1y
0z
10!
16!
0;!
1?!
0O!
0P!
0Q!
0T
0U
03
11
1g!
1h!
1O
0P
00
0/
0"!
0$
1#
1~
1!!
0V
1T
1U
01
10
1/
#250000
0-
0G
0$!
0m
0%!
#255000
1-
1G
1$!
1m
1%!
1f!
0\!
03!
1^!
1[!
0W!
0|
19!
0<!
1>!
17!
18!
0:!
0i!
0R
0{
1z
1v
1-!
09!
08!
0*!
00!
06!
0J!
1O!
1P!
1Q!
1R!
0=!
1:!
0I!
0+
0w
0g!
0h!
1i!
0Q
1P
1C
0y
1{
0t
1#!
1"!
0v
1*!
0-!
1;!
0?!
1J!
0R!
19!
0:!
1I!
0M
0%
1$
13
1w
0~
0!!
0O
1Q
0Z
1W
1V
0C
0!
1y
0{
1v
0#!
0*!
1-!
0;!
1?!
0J!
1R!
1:!
0>!
0I!
1M
0T
0U
1%
0#
06
12
11
03
1O
0Q
1C
0W
1!
00
0/
0y
0z
1{
1#!
0-!
0@!
0P!
0R!
0%
1#
13
02
1g!
0O
0P
1Q
1W
0#!
1%
0$
0#
12
1!!
0W
1U
02
10
#260000
0-
0G
0$!
0m
0%!
#265000
1-
1G
1$!
1m
1%!
0f!
0]!
0^!
0Z!
0X!
0}
0&!
09!
1<!
1H!
1M!
18!
0i!
0S
zs
0v
zr
zt
zu
1N!
1=!
0:!
1>!
0,
0w
zY
0C
zX
zZ
z[
1z
0{
1-!
1E!
1P!
0Q!
1R!
0M
z7
z6
z5
z4
03
0g!
1P
0Q
0!
1#!
0"!
0%
1$
0!!
1W
0V
0U
12
01
00
#270000
0-
0G
0$!
0m
0%!
#275000
1-
1G
1$!
1m
1%!
1\!
1W!
1|
1&!
19!
0H!
0N!
1:!
1R
1{
0r
0s
1v
1t
1u
1*!
0-!
1;!
0?!
1@!
0E!
1J!
1Q!
0R!
1+
1Q
0X
0Y
1C
1Z
1[
0#!
1"!
1%
17
16
05
04
13
0W
1V
02
11
#280000
0-
0G
0$!
0m
0%!
#285000
1-
1G
1$!
1m
1%!
1f!
0\!
1e!
0[!
1Z!
0W!
1X!
1}
0|
09!
0M!
1N!
1S
0R
1r
0v
1B!
0N!
0:!
0>!
1I!
1,
0+
1X
0C
1y
0z
0{
0r
0*!
1-!
10!
12!
0;!
1E!
0O!
0Q!
0B!
14
03
1h!
1O
0P
0Q
0X
0"!
0%
0$
1#
04
1~
0V
1T
01
1/
#290000
0-
0G
0$!
0m
0%!
#295000
1-
1G
1$!
1m
1%!
0f!
1\!
1]!
13!
0e!
1W!
1|
19!
07!
1:!
1R
1{
1v
1*!
0-!
02!
16!
1?!
0E!
0P!
08!
1>!
0I!
1+
1i!
1g!
1Q
1C
0y
1z
00!
06!
1;!
0?!
1O!
1P!
1Q!
09!
1%
13
1!!
1w
0g!
0h!
0O
1P
0v
1"!
0>!
1I!
1U
1M
1$
0#
0~
0!!
0C
1V
10
1!
1y
0z
10!
16!
0;!
1?!
0O!
0P!
0Q!
0T
0U
03
11
1g!
1h!
1O
0P
00
0/
0"!
0$
1#
1~
1!!
0V
1T
1U
01
10
1/
#300000
0-
0G
0$!
0m
0%!
#305000
1-
1G
1$!
1m
1%!
1f!
0\!
03!
1^!
1[!
0W!
0|
19!
0<!
1>!
17!
18!
0:!
0i!
0R
0{
1z
1v
1-!
09!
08!
0*!
00!
06!
0J!
1O!
1P!
1Q!
1R!
0=!
1:!
0I!
0+
0w
0g!
0h!
1i!
0Q
1P
1C
0y
1{
0t
1#!
1"!
0v
1*!
0-!
1;!
0?!
1J!
0R!
19!
0:!
1I!
0M
0%
1$
13
1w
0~
0!!
0O
1Q
0Z
1W
1V
0C
0!
1y
0{
1v
0#!
0*!
1-!
0;!
1?!
0J!
1R!
1:!
0>!
0I!
1M
0T
0U
1%
0#
06
12
11
03
1O
0Q
1C
0W
1!
00
0/
0y
0z
1{
1#!
0-!
0@!
0P!
0R!
0%
1#
13
02
1g!
0O
0P
1Q
1W
0#!
1%
0$
0#
12
1!!
0W
1U
02
10
#310000
0-
0G
0$!
0m
0%!
#315000
1-
1G
1$!
1m
1%!
0f!
0]!
0^!
0Z!
0X!
0}
0&!
09!
1<!
1H!
1M!
18!
0i!
0S
zs
0v
zr
zt
zu
1N!
1=!
0:!
1>!
0,
0w
zY
0C
zX
zZ
z[
1z
0{
1-!
1E!
1P!
0Q!
1R!
0M
z7
z6
z5
z4
03
0g!
1P
0Q
0!
1#!
0"!
0%
1$
0!!
1W
0V
0U
12
01
00
#320000
0-
0G
0$!
0m
0%!
#325000
1-
1G
1$!
1m
1%!
1\!
1W!
1|
1&!
19!
0H!
0N!
1:!
1R
1{
0r
0s
1v
1t
1u
1*!
0-!
1;!
0?!
1@!
0E!
1J!
1Q!
0R!
1+
1Q
0X
0Y
1C
1Z
1[
0#!
1"!
1%
17
16
05
04
13
0W
1V
02
11
#330000
0-
0G
0$!
0m
0%!
#335000
1-
1G
1$!
1m
1%!
1f!
0\!
1e!
0[!
1Z!
0W!
1X!
1}
0|
09!
0M!
1N!
1S
0R
1r
0v
1B!
0N!
0:!
0>!
1I!
1,
0+
1X
0C
1y
0z
0{
0r
0*!
1-!
10!
12!
0;!
1E!
0O!
0Q!
0B!
14
03
1h!
1O
0P
0Q
0X
0"!
0%
0$
1#
04
1~
0V
1T
01
1/
#340000
0-
0G
0$!
0m
0%!
