Practica6/simulation/qsim/Practica6.msim.vcd
$comment
	File created using the following command:
		vcd file Practica6.msim.vcd -direction
$end
$date
	Tue Oct 01 01:09:25 2019
$end
$version
	ModelSim Version 10.5b
$end
$timescale
	1ps
$end

$scope module practica6_vhd_vec_tst $end
$var wire 1 ! carga $end
$var wire 1 " ENTRADA [3] $end
$var wire 1 # ENTRADA [2] $end
$var wire 1 $ ENTRADA [1] $end
$var wire 1 % ENTRADA [0] $end
$var wire 1 & int $end
$var wire 1 ' mi [1] $end
$var wire 1 ( mi [0] $end
$var wire 1 ) nextState [3] $end
$var wire 1 * nextState [2] $end
$var wire 1 + nextState [1] $end
$var wire 1 , nextState [0] $end
$var wire 1 - RELOJ $end
$var wire 1 . RESET $end
$var wire 1 / salidas [3] $end
$var wire 1 0 salidas [2] $end
$var wire 1 1 salidas [1] $end
$var wire 1 2 salidas [0] $end
$var wire 1 3 selector $end
$var wire 1 4 state [3] $end
$var wire 1 5 state [2] $end
$var wire 1 6 state [1] $end
$var wire 1 7 state [0] $end
$var wire 1 8 x $end
$var wire 1 9 y $end

$scope module i1 $end
$var wire 1 : gnd $end
$var wire 1 ; vcc $end
$var wire 1 < unknown $end
$var wire 1 = devoe $end
$var wire 1 > devclrn $end
$var wire 1 ? devpor $end
$var wire 1 @ ww_devoe $end
$var wire 1 A ww_devclrn $end
$var wire 1 B ww_devpor $end
$var wire 1 C ww_selector $end
$var wire 1 D ww_x $end
$var wire 1 E ww_y $end
$var wire 1 F ww_int $end
$var wire 1 G ww_RELOJ $end
$var wire 1 H ww_RESET $end
$var wire 1 I ww_ENTRADA [3] $end
$var wire 1 J ww_ENTRADA [2] $end
$var wire 1 K ww_ENTRADA [1] $end
$var wire 1 L ww_ENTRADA [0] $end
$var wire 1 M ww_carga $end
$var wire 1 N ww_mi [1] $end
$var wire 1 O ww_mi [0] $end
$var wire 1 P ww_nextState [3] $end
$var wire 1 Q ww_nextState [2] $end
$var wire 1 R ww_nextState [1] $end
$var wire 1 S ww_nextState [0] $end
$var wire 1 T ww_salidas [3] $end
$var wire 1 U ww_salidas [2] $end
$var wire 1 V ww_salidas [1] $end
$var wire 1 W ww_salidas [0] $end
$var wire 1 X ww_state [3] $end
$var wire 1 Y ww_state [2] $end
$var wire 1 Z ww_state [1] $end
$var wire 1 [ ww_state [0] $end
$var wire 1 \ \~QUARTUS_CREATED_ADC1~_CHSEL_bus\ [4] $end
$var wire 1 ] \~QUARTUS_CREATED_ADC1~_CHSEL_bus\ [3] $end
$var wire 1 ^ \~QUARTUS_CREATED_ADC1~_CHSEL_bus\ [2] $end
$var wire 1 _ \~QUARTUS_CREATED_ADC1~_CHSEL_bus\ [1] $end
$var wire 1 ` \~QUARTUS_CREATED_ADC1~_CHSEL_bus\ [0] $end
$var wire 1 a \~QUARTUS_CREATED_ADC2~_CHSEL_bus\ [4] $end
$var wire 1 b \~QUARTUS_CREATED_ADC2~_CHSEL_bus\ [3] $end
$var wire 1 c \~QUARTUS_CREATED_ADC2~_CHSEL_bus\ [2] $end
$var wire 1 d \~QUARTUS_CREATED_ADC2~_CHSEL_bus\ [1] $end
$var wire 1 e \~QUARTUS_CREATED_ADC2~_CHSEL_bus\ [0] $end
$var wire 1 f \RESET~inputclkctrl_INCLK_bus\ [3] $end
$var wire 1 g \RESET~inputclkctrl_INCLK_bus\ [2] $end
$var wire 1 h \RESET~inputclkctrl_INCLK_bus\ [1] $end
$var wire 1 i \RESET~inputclkctrl_INCLK_bus\ [0] $end
$var wire 1 j \RELOJ~inputclkctrl_INCLK_bus\ [3] $end
$var wire 1 k \RELOJ~inputclkctrl_INCLK_bus\ [2] $end
$var wire 1 l \RELOJ~inputclkctrl_INCLK_bus\ [1] $end
$var wire 1 m \RELOJ~inputclkctrl_INCLK_bus\ [0] $end
$var wire 1 n \~QUARTUS_CREATED_GND~I_combout\ $end
$var wire 1 o \~QUARTUS_CREATED_UNVM~~busy\ $end
$var wire 1 p \~QUARTUS_CREATED_ADC1~~eoc\ $end
$var wire 1 q \~QUARTUS_CREATED_ADC2~~eoc\ $end
$var wire 1 r \state[3]~output_o\ $end
$var wire 1 s \state[2]~output_o\ $end
$var wire 1 t \state[1]~output_o\ $end
$var wire 1 u \state[0]~output_o\ $end
$var wire 1 v \selector~output_o\ $end
$var wire 1 w \carga~output_o\ $end
$var wire 1 x \mi[1]~output_o\ $end
$var wire 1 y \mi[0]~output_o\ $end
$var wire 1 z \nextState[3]~output_o\ $end
$var wire 1 { \nextState[2]~output_o\ $end
$var wire 1 | \nextState[1]~output_o\ $end
$var wire 1 } \nextState[0]~output_o\ $end
$var wire 1 ~ \salidas[3]~output_o\ $end
$var wire 1 !! \salidas[2]~output_o\ $end
$var wire 1 "! \salidas[1]~output_o\ $end
$var wire 1 #! \salidas[0]~output_o\ $end
$var wire 1 $! \RELOJ~input_o\ $end
$var wire 1 %! \RELOJ~inputclkctrl_outclk\ $end
$var wire 1 &! \ENTRADA[2]~input_o\ $end
$var wire 1 '! \inst3|valor_interno[0]~0_combout\ $end
$var wire 1 (! \RESET~input_o\ $end
$var wire 1 )! \RESET~inputclkctrl_outclk\ $end
$var wire 1 *! \inst12|SALIDA[3]~2_combout\ $end
$var wire 1 +! \ENTRADA[0]~input_o\ $end
$var wire 1 ,! \inst18|Mux8~0_combout\ $end
$var wire 1 -! \inst12|SALIDA[0]~5_combout\ $end
$var wire 1 .! \inst12|SALIDA[0]~6_combout\ $end
$var wire 1 /! \int~input_o\ $end
$var wire 1 0! \inst18|Mux4~0_combout\ $end
$var wire 1 1! \inst|vf~q\ $end
$var wire 1 2! \inst18|Mux2~0_combout\ $end
$var wire 1 3! \x~input_o\ $end
$var wire 1 4! \y~input_o\ $end
$var wire 1 5! \inst18|Mux3~0_combout\ $end
$var wire 1 6! \inst6~0_combout\ $end
$var wire 1 7! \inst6~1_combout\ $end
$var wire 1 8! \inst19|Mux0~0_combout\ $end
$var wire 1 9! \inst5|salida[0]~3_combout\ $end
$var wire 1 :! \inst4|Add0~2_combout\ $end
$var wire 1 ;! \ENTRADA[1]~input_o\ $end
$var wire 1 <! \inst18|Mux7~0_combout\ $end
$var wire 1 =! \inst12|SALIDA[1]~3_combout\ $end
$var wire 1 >! \inst12|SALIDA[1]~4_combout\ $end
$var wire 1 ?! \inst5|salida[1]~2_combout\ $end
$var wire 1 @! \inst18|Mux1~0_combout\ $end
$var wire 1 A! \inst7[2]~0_combout\ $end
$var wire 1 B! \inst4|Add0~1_combout\ $end
$var wire 1 C! \inst5|salida[2]~1_combout\ $end
$var wire 1 D! \inst4|Add0~0_combout\ $end
$var wire 1 E! \inst5|salida[3]~0_combout\ $end
$var wire 1 F! \inst18|Mux0~0_combout\ $end
$var wire 1 G! \ENTRADA[3]~input_o\ $end
$var wire 1 H! \inst18|Mux5~0_combout\ $end
$var wire 1 I! \inst12|SALIDA[3]~0_combout\ $end
$var wire 1 J! \inst12|SALIDA[3]~1_combout\ $end
$var wire 1 K! \inst18|Mux9~0_combout\ $end
$var wire 1 L! \inst18|Mux9~1_combout\ $end
$var wire 1 M! \inst18|Mux9~2_combout\ $end
$var wire 1 N! \inst18|Mux10~0_combout\ $end
$var wire 1 O! \inst18|Mux11~0_combout\ $end
$var wire 1 P! \inst18|Mux12~0_combout\ $end
$var wire 1 Q! \inst12|valor_interno\ [3] $end
$var wire 1 R! \inst12|valor_interno\ [2] $end
$var wire 1 S! \inst12|valor_interno\ [1] $end
$var wire 1 T! \inst12|valor_interno\ [0] $end
$var wire 1 U! \inst|mi\ [1] $end
$var wire 1 V! \inst|mi\ [0] $end
$var wire 1 W! \inst3|valor_interno\ [3] $end
$var wire 1 X! \inst3|valor_interno\ [2] $end
$var wire 1 Y! \inst3|valor_interno\ [1] $end
$var wire 1 Z! \inst3|valor_interno\ [0] $end
$var wire 1 [! \inst|prueba\ [1] $end
$var wire 1 \! \inst|prueba\ [0] $end
$var wire 1 ]! \inst|salidas\ [3] $end
$var wire 1 ^! \inst|salidas\ [2] $end
$var wire 1 _! \inst|salidas\ [1] $end
$var wire 1 `! \inst|salidas\ [0] $end
$var wire 1 a! \inst11|valor_interno\ [3] $end
$var wire 1 b! \inst11|valor_interno\ [2] $end
$var wire 1 c! \inst11|valor_interno\ [1] $end
$var wire 1 d! \inst11|valor_interno\ [0] $end
$var wire 1 e! \inst|liga\ [3] $end
$var wire 1 f! \inst|liga\ [2] $end
$var wire 1 g! \inst|liga\ [1] $end
$var wire 1 h! \inst|liga\ [0] $end
$var wire 1 i! \ALT_INV_inst6~1_combout\ $end
$upscope $end
$upscope $end
$enddefinitions $end
#0
$dumpvars
0!
0&
0-
1.
03
18
09
0:
1;
x<
1=
1>
1?
1@
1A
1B
0C
1D
0E
0F
0G
1H
0M
0n
zo
zp
zq
zr
zs
zt
zu
0v
0w
0x
0y
0z
0{
0|
0}
0~
0!!
0"!
0#!
0$!
0%!
0&!
1'!
1(!
1)!
0*!
1+!
0,!
1-!
1.!
0/!
00!
01!
12!
13!
04!
15!
16!
17!
08!
09!
0:!
1;!
0<!
1=!
1>!
0?!
0@!
1A!
0B!
0C!
0D!
0E!
0F!
0G!
0H!
1I!
1J!
0K!
1L!
1M!
1N!
0O!
0P!
0i!
0"
0#
1$
1%
0I
0J
1K
1L
0N
0O
0P
0Q
0R
0S
0T
0U
0V
0W
zX
zY
zZ
z[
0Q!
0R!
0S!
0T!
0U!
0V!
0W!
0X!
0Y!
0Z!
0[!
0\!
0]!
0^!
0_!
0`!
0a!
0b!
0c!
0d!
0e!
xf!
0g!
0h!
1j
1k
1l
0m
1f
1g
1h
1i
0\
0]
0^
0_
0`
0a
0b
0c
0d
0e
0'
0(
0)
0*
0+
0,
0/
00
01
02
z4
z5
z6
z7
$end
#5000
1-
1G
1$!
1m
1%!
1Z!
1d!
1T!
1[!
1\!
1c!
1S!
1]!
1^!
1!!
1~
07!
19!
1K!
1i!
1U
1T
1}
0M!
0'!
02!
05!
1:!
1O!
10
1/
1w
1S
1M
1,
1!
#10000
0-
0G
0$!
0m
0%!
#15000
1-
1G
1$!
1m
1%!
0Z!
0[!
0\!
1Y!
0]!
1_!
1"!
0~
1?!
17!
09!
0i!
1V
0T
0}
1|
1'!
1F!
0N!
0O!
1P!
11
0/
0w
0S
1R
0M
0,
1+
0!
#20000
0-
0G
0$!
0m
0%!
#25000
1-
1G
1$!
1m
1%!
1Z!
1U!
0^!
0_!
1`!
1#!
0"!
0!!
1x
1*!
18!
0A!
0J!
19!
1W
0V
0U
1N
1}
0r
0s
1v
1t
1u
0'!
1,!
0:!
1<!
1@!
1B!
0F!
1O!
0P!
12
01
00
1'
1S
0X
0Y
1C
1Z
1[
1,
17
16
05
04
13
#30000
0-
0G
0$!
0m
0%!
#35000
1-
1G
1$!
1m
1%!
0Z!
1h!
0Y!
1g!
1V!
1X!
0U!
1_!
0`!
0#!
1"!
0x
1y
08!
0I!
1J!
0K!
0W
1V
0N
1O
1r
0v
0J!
09!
0?!
1C!
1M!
02
11
1(
0'
1X
0C
1{
0|
0}
0r
1'!
0,!
10!
12!
0<!
1F!
0O!
14
03
1Q
0R
0S
0X
0,
0+
1*
04
#40000
0-
0G
0$!
0m
0%!
#45000
1-
1G
1$!
1m
1%!
1Z!
0h!
11!
1[!
0g!
1U!
1]!
0_!
0"!
1~
1x
18!
06!
19!
0V
1T
1N
1}
1v
0'!
1,!
00!
15!
1:!
0F!
1N!
1?!
0C!
0M!
01
1/
1'
1S
1C
0{
1|
02!
05!
0:!
1<!
0N!
1O!
1,
13
0Q
1R
1+
0*
#50000
0-
0G
0$!
0m
0%!
#55000
1-
1G
1$!
1m
1%!
0Z!
1h!
01!
0[!
1g!
0U!
0]!
1_!
1"!
0~
0x
08!
16!
07!
1i!
1V
0T
0N
0v
18!
17!
09!
0?!
1C!
1M!
11
0/
0'
1w
0i!
0C
1{
0|
0}
1v
1'!
0,!
10!
12!
0<!
1F!
0O!
08!
19!
1?!
0C!
0M!
1M
03
0w
1Q
0R
0S
1C
1!
0{
1|
1}
0v
0'!
1,!
00!
02!
1<!
0F!
1O!
09!
0?!
1C!
1M!
0M
0,
0+
1*
13
0Q
1R
1S
0C
0!
1{
0|
0}
1'!
0,!
10!
12!
0<!
1F!
0O!
1,
1+
0*
03
1Q
0R
0S
0,
0+
1*
#60000
0-
0G
0$!
0m
0%!
#65000
1-
1G
1$!
1m
1%!
1Z!
0h!
11!
1[!
0g!
1U!
1]!
0_!
0"!
1~
1x
18!
06!
19!
0V
1T
1N
1}
1v
0'!
1,!
00!
15!
1:!
0F!
1N!
1?!
0C!
0M!
01
1/
1'
1S
1C
0{
1|
02!
05!
0:!
1<!
0N!
1O!
1,
13
0Q
1R
1+
0*
#70000
0-
0G
0$!
0m
0%!
#75000
1-
1G
1$!
1m
1%!
0Z!
1h!
01!
0[!
1g!
0U!
0]!
1_!
1"!
0~
0x
08!
16!
07!
1i!
1V
0T
0N
0v
18!
17!
09!
0?!
1C!
1M!
11
0/
0'
1w
0i!
0C
1{
0|
0}
1v
1'!
0,!
10!
12!
0<!
1F!
0O!
08!
19!
1?!
0C!
0M!
1M
03
0w
1Q
0R
0S
1C
1!
0{
1|
1}
0v
0'!
1,!
00!
02!
1<!
0F!
1O!
09!
0?!
1C!
1M!
0M
0,
0+
1*
13
0Q
1R
1S
0C
0!
1{
0|
0}
1'!
0,!
10!
12!
0<!
1F!
0O!
1,
1+
0*
03
1Q
0R
0S
0,
0+
1*
#80000
0-
0G
0$!
0m
0%!
#85000
1-
1G
1$!
1m
1%!
1Z!
0h!
11!
1[!
0g!
1U!
1]!
0_!
0"!
1~
1x
18!
06!
19!
0V
1T
1N
1}
1v
0'!
1,!
00!
15!
1:!
0F!
1N!
1?!
0C!
0M!
01
1/
1'
1S
1C
0{
1|
02!
05!
0:!
1<!
0N!
1O!
1,
13
0Q
1R
1+
0*
#90000
0-
0G
0$!
0m
0%!
#95000
1-
1G
1$!
1m
1%!
0Z!
1h!
01!
0[!
1g!
0U!
0]!
1_!
1"!
0~
0x
08!
16!
07!
1i!
1V
0T
0N
0v
18!
17!
09!
0?!
1C!
1M!
11
0/
0'
1w
0i!
0C
1{
0|
0}
1v
1'!
0,!
10!
12!
0<!
1F!
0O!
08!
19!
1?!
0C!
0M!
1M
03
0w
1Q
0R
0S
1C
1!
0{
1|
1}
0v
0'!
1,!
00!
02!
1<!
0F!
1O!
09!
0?!
1C!
1M!
0M
0,
0+
1*
13
0Q
1R
1S
0C
0!
1{
0|
0}
1'!
0,!
10!
12!
0<!
1F!
0O!
1,
1+
0*
03
1Q
0R
0S
0,
0+
1*
#100000
0-
0G
0$!
0m
0%!
#105000
1-
1G
1$!
1m
1%!
1Z!
0h!
11!
1[!
0g!
1U!
1]!
0_!
0"!
1~
1x
18!
06!
19!
0V
1T
1N
1}
1v
0'!
1,!
00!
15!
1:!
0F!
1N!
1?!
0C!
0M!
01
1/
1'
1S
1C
0{
1|
02!
05!
0:!
1<!
0N!
1O!
1,
13
0Q
1R
1+
0*
#110000
0-
0G
0$!
0m
0%!
#115000
1-
1G
1$!
1m
1%!
0Z!
1h!
01!
0[!
1g!
0U!
0]!
1_!
1"!
0~
0x
08!
16!
07!
1i!
1V
0T
0N
0v
18!
17!
09!
0?!
1C!
1M!
11
0/
0'
1w
0i!
0C
1{
0|
0}
1v
1'!
0,!
10!
12!
0<!
1F!
0O!
08!
19!
1?!
0C!
0M!
1M
03
0w
1Q
0R
0S
1C
1!
0{
1|
1}
0v
0'!
1,!
00!
02!
1<!
0F!
1O!
09!
0?!
1C!
1M!
0M
0,
0+
1*
13
0Q
1R
1S
0C
0!
1{
0|
0}
1'!
0,!
10!
12!
0<!
1F!
0O!
1,
1+
0*
03
1Q
0R
0S
0,
0+
1*
#120000
0-
0G
0$!
0m
0%!
#125000
1-
1G
1$!
1m
1%!
1Z!
0h!
11!
1[!
0g!
1U!
1]!
0_!
0"!
1~
1x
18!
06!
19!
0V
1T
1N
1}
1v
0'!
1,!
00!
15!
1:!
0F!
1N!
1?!
0C!
0M!
01
1/
1'
1S
1C
0{
1|
02!
05!
0:!
1<!
0N!
1O!
1,
13
0Q
1R
1+
0*
#130000
0-
0G
0$!
0m
0%!
#135000
1-
1G
1$!
1m
1%!
0Z!
1h!
01!
0[!
1g!
0U!
0]!
1_!
1"!
0~
0x
08!
16!
07!
1i!
1V
0T
0N
0v
18!
17!
09!
0?!
1C!
1M!
11
0/
0'
1w
0i!
0C
1{
0|
0}
1v
1'!
0,!
10!
12!
0<!
1F!
0O!
08!
19!
1?!
0C!
0M!
1M
03
0w
1Q
0R
0S
1C
1!
0{
1|
1}
0v
0'!
1,!
00!
02!
1<!
0F!
1O!
09!
0?!
1C!
1M!
0M
0,
0+
1*
13
0Q
1R
1S
0C
0!
1{
0|
0}
1'!
0,!
10!
12!
0<!
1F!
0O!
1,
1+
0*
03
1Q
0R
0S
0,
0+
1*
#140000
0-
0G
0$!
0m
0%!
#145000
1-
1G
1$!
1m
1%!
1Z!
0h!
11!
1[!
0g!
1U!
1]!
0_!
0"!
1~
1x
18!
06!
19!
0V
1T
1N
1}
1v
0'!
1,!
00!
15!
1:!
0F!
1N!
1?!
0C!
0M!
01
1/
1'
1S
1C
0{
1|
02!
05!
0:!
1<!
0N!
1O!
1,
13
0Q
1R
1+
0*
#150000
0-
0G
0$!
0m
0%!
#155000
1-
1G
1$!
1m
1%!
0Z!
1h!
01!
0[!
1g!
0U!
0]!
1_!
1"!
0~
0x
08!
16!
07!
1i!
1V
0T
0N
0v
18!
17!
09!
0?!
1C!
1M!
11
0/
0'
1w
0i!
0C
1{
0|
0}
1v
1'!
0,!
10!
12!
0<!
1F!
0O!
08!
19!
1?!
0C!
0M!
1M
03
0w
1Q
0R
0S
1C
1!
0{
1|
1}
0v
0'!
1,!
00!
02!
1<!
0F!
1O!
09!
0?!
1C!
1M!
0M
0,
0+
1*
13
0Q
1R
1S
0C
0!
1{
0|
0}
1'!
0,!
10!
12!
0<!
1F!
0O!
1,
1+
0*
03
1Q
0R
0S
0,
0+
1*
#160000
0-
0G
0$!
0m
0%!
#165000
1-
1G
1$!
1m
1%!
1Z!
0h!
11!
1[!
0g!
1U!
1]!
0_!
0"!
1~
1x
18!
06!
19!
0V
1T
1N
1}
1v
0'!
1,!
00!
15!
1:!
0F!
1N!
1?!
0C!
0M!
01
1/
1'
1S
1C
0{
1|
02!
05!
0:!
1<!
0N!
1O!
1,
13
0Q
1R
1+
0*
#170000
0-
0G
0$!
0m
0%!
#175000
1-
1G
1$!
1m
1%!
0Z!
1h!
01!
0[!
1g!
0U!
0]!
1_!
1"!
0~
0x
08!
16!
07!
1i!
1V
0T
0N
0v
18!
17!
09!
0?!
1C!
1M!
11
0/
0'
1w
0i!
0C
1{
0|
0}
1v
1'!
0,!
10!
12!
0<!
1F!
0O!
08!
19!
1?!
0C!
0M!
1M
03
0w
1Q
0R
0S
1C
1!
0{
1|
1}
0v
0'!
1,!
00!
02!
1<!
0F!
1O!
09!
0?!
1C!
1M!
0M
0,
0+
1*
13
0Q
1R
1S
0C
0!
1{
0|
0}
1'!
0,!
10!
12!
0<!
1F!
0O!
1,
1+
0*
03
1Q
0R
0S
0,
0+
1*
#180000
0-
0G
0$!
0m
0%!
#185000
1-
1G
1$!
1m
1%!
1Z!
0h!
11!
1[!
0g!
1U!
1]!
0_!
0"!
1~
1x
18!
06!
19!
0V
1T
1N
1}
1v
0'!
1,!
00!
15!
1:!
0F!
1N!
1?!
0C!
0M!
01
1/
1'
1S
1C
0{
1|
02!
05!
0:!
1<!
0N!
1O!
1,
13
0Q
1R
1+
0*
#190000
0-
0G
0$!
0m
0%!
#195000
1-
1G
1$!
1m
1%!
0Z!
1h!
01!
0[!
1g!
0U!
0]!
1_!
1"!
0~
0x
08!
16!
07!
1i!
1V
0T
0N
0v
18!
17!
09!
0?!
1C!
1M!
11
0/
0'
1w
0i!
0C
1{
0|
0}
1v
1'!
0,!
10!
12!
0<!
1F!
0O!
08!
19!
1?!
0C!
0M!
1M
03
0w
1Q
0R
0S
1C
1!
0{
1|
1}
0v
0'!
1,!
00!
02!
1<!
0F!
1O!
09!
0?!
1C!
1M!
0M
0,
0+
1*
13
0Q
1R
1S
0C
0!
1{
0|
0}
1'!
0,!
10!
12!
0<!
1F!
0O!
1,
1+
0*
03
1Q
0R
0S
0,
0+
1*
#200000
0-
0G
0$!
0m
0%!
#205000
1-
1G
1$!
1m
1%!
1Z!
0h!
11!
1[!
0g!
1U!
1]!
0_!
0"!
1~
1x
18!
06!
19!
0V
1T
1N
1}
1v
0'!
1,!
00!
15!
1:!
0F!
1N!
1?!
0C!
0M!
01
1/
1'
1S
1C
0{
1|
02!
05!
0:!
1<!
0N!
1O!
1,
13
0Q
1R
1+
0*
#210000
0-
0G
0$!
0m
0%!
#215000
1-
1G
1$!
1m
1%!
0Z!
1h!
01!
0[!
1g!
0U!
0]!
1_!
1"!
0~
0x
08!
16!
07!
1i!
1V
0T
0N
0v
18!
17!
09!
0?!
1C!
1M!
11
0/
0'
1w
0i!
0C
1{
0|
0}
1v
1'!
0,!
10!
12!
0<!
1F!
0O!
08!
19!
1?!
0C!
0M!
1M
03
0w
1Q
0R
0S
1C
1!
0{
1|
1}
0v
0'!
1,!
00!
02!
1<!
0F!
1O!
09!
0?!
1C!
1M!
0M
0,
0+
1*
13
0Q
1R
1S
0C
0!
1{
0|
0}
1'!
0,!
10!
12!
0<!
1F!
0O!
1,
1+
0*
03
1Q
0R
0S
0,
0+
1*
#220000
0-
0G
0$!
0m
0%!
#225000
1-
1G
1$!
1m
1%!
1Z!
0h!
11!
1[!
0g!
1U!
1]!
0_!
0"!
1~
1x
18!
06!
19!
0V
1T
1N
1}
1v
0'!
1,!
00!
15!
1:!
0F!
1N!
1?!
0C!
0M!
01
1/
1'
1S
1C
0{
1|
02!
05!
0:!
1<!
0N!
1O!
1,
13
0Q
1R
1+
0*
#230000
0-
0G
0$!
0m
0%!
#235000
1-
1G
1$!
1m
1%!
0Z!
1h!
01!
0[!
1g!
0U!
0]!
1_!
1"!
0~
0x
08!
16!
07!
1i!
1V
0T
0N
0v
18!
17!
09!
0?!
1C!
1M!
11
0/
0'
1w
0i!
0C
1{
0|
0}
1v
1'!
0,!
10!
12!
0<!
1F!
0O!
08!
19!
1?!
0C!
0M!
1M
03
0w
1Q
0R
0S
1C
1!
0{
1|
1}
0v
0'!
1,!
00!
02!
1<!
0F!
1O!
09!
0?!
1C!
1M!
0M
0,
0+
1*
13
0Q
1R
1S
0C
0!
1{
0|
0}
1'!
0,!
10!
12!
0<!
1F!
0O!
1,
1+
0*
03
1Q
0R
0S
0,
0+
1*
#240000
0-
0G
0$!
0m
0%!
#245000
1-
1G
1$!
1m
1%!
1Z!
0h!
11!
1[!
0g!
1U!
1]!
0_!
0"!
1~
1x
18!
06!
19!
0V
1T
1N
1}
1v
0'!
1,!
00!
15!
1:!
0F!
1N!
1?!
0C!
0M!
01
1/
1'
1S
1C
0{
1|
02!
05!
0:!
1<!
0N!
1O!
1,
13
0Q
1R
1+
0*
#250000
0-
0G
0$!
0m
0%!
#255000
1-
1G
1$!
1m
1%!
0Z!
1h!
01!
0[!
1g!
0U!
0]!
1_!
1"!
0~
0x
08!
16!
07!
1i!
1V
0T
0N
0v
18!
17!
09!
0?!
1C!
1M!
11
0/
0'
1w
0i!
0C
1{
0|
0}
1v
1'!
0,!
10!
12!
0<!
1F!
0O!
08!
19!
1?!
0C!
0M!
1M
03
0w
1Q
0R
0S
1C
1!
0{
1|
1}
0v
0'!
1,!
00!
02!
1<!
0F!
1O!
09!
0?!
1C!
1M!
0M
0,
0+
1*
13
0Q
1R
1S
0C
0!
1{
0|
0}
1'!
0,!
10!
12!
0<!
1F!
0O!
1,
1+
0*
03
1Q
0R
0S
0,
0+
1*
#260000
0-
0G
0$!
0m
0%!
#265000
1-
1G
1$!
1m
1%!
1Z!
0h!
11!
1[!
0g!
1U!
1]!
0_!
0"!
1~
1x
18!
06!
19!
0V
1T
1N
1}
1v
0'!
1,!
00!
15!
1:!
0F!
1N!
1?!
0C!
0M!
01
1/
1'
1S
1C
0{
1|
02!
05!
0:!
1<!
0N!
1O!
1,
13
0Q
1R
1+
0*
#270000
0-
0G
0$!
0m
0%!
#275000
1-
1G
1$!
1m
1%!
0Z!
1h!
01!
0[!
1g!
0U!
0]!
1_!
1"!
0~
0x
08!
16!
07!
1i!
1V
0T
0N
0v
18!
17!
09!
0?!
1C!
1M!
11
0/
0'
1w
0i!
0C
1{
0|
0}
1v
1'!
0,!
10!
12!
0<!
1F!
0O!
08!
19!
1?!
0C!
0M!
1M
03
0w
1Q
0R
0S
1C
1!
0{
1|
1}
0v
0'!
1,!
00!
02!
1<!
0F!
1O!
09!
0?!
1C!
1M!
0M
0,
0+
1*
13
0Q
1R
1S
0C
0!
1{
0|
0}
1'!
0,!
10!
12!
0<!
1F!
0O!
1,
1+
0*
03
1Q
0R
0S
0,
0+
1*
#280000
0-
0G
0$!
0m
0%!
#285000
1-
1G
1$!
1m
1%!
1Z!
0h!
11!
1[!
0g!
1U!
1]!
0_!
0"!
1~
1x
18!
06!
19!
0V
1T
1N
1}
1v
0'!
1,!
00!
15!
1:!
0F!
1N!
1?!
0C!
0M!
01
1/
1'
1S
1C
0{
1|
02!
05!
0:!
1<!
0N!
1O!
1,
13
0Q
1R
1+
0*
#290000
0-
0G
0$!
0m
0%!
#295000
1-
1G
1$!
1m
1%!
0Z!
1h!
01!
0[!
1g!
0U!
0]!
1_!
1"!
0~
0x
08!
16!
07!
1i!
1V
0T
0N
0v
18!
17!
09!
0?!
1C!
1M!
11
0/
0'
1w
0i!
0C
1{
0|
0}
1v
1'!
0,!
10!
12!
0<!
1F!
0O!
08!
19!
1?!
0C!
0M!
1M
03
0w
1Q
0R
0S
1C
1!
0{
1|
1}
0v
0'!
1,!
00!
02!
1<!
0F!
1O!
09!
0?!
1C!
1M!
0M
0,
0+
1*
13
0Q
1R
1S
0C
0!
1{
0|
0}
1'!
0,!
10!
12!
0<!
1F!
0O!
1,
1+
0*
03
1Q
0R
0S
0,
0+
1*
#300000
0-
0G
0$!
0m
0%!
#305000
1-
1G
1$!
1m
1%!
1Z!
0h!
11!
1[!
0g!
1U!
1]!
0_!
0"!
1~
1x
18!
06!
19!
0V
1T
1N
1}
1v
0'!
1,!
00!
15!
1:!
0F!
1N!
1?!
0C!
0M!
01
1/
1'
1S
1C
0{
1|
02!
05!
0:!
1<!
0N!
1O!
1,
13
0Q
1R
1+
0*
#310000
0-
0G
0$!
0m
0%!
#315000
1-
1G
1$!
1m
1%!
0Z!
1h!
01!
0[!
1g!
0U!
0]!
1_!
1"!
0~
0x
08!
16!
07!
1i!
1V
0T
0N
0v
18!
17!
09!
0?!
1C!
1M!
11
0/
0'
1w
0i!
0C
1{
0|
0}
1v
1'!
0,!
10!
12!
0<!
1F!
0O!
08!
19!
1?!
0C!
0M!
1M
03
0w
1Q
0R
0S
1C
1!
0{
1|
1}
0v
0'!
1,!
00!
02!
1<!
0F!
1O!
09!
0?!
1C!
1M!
0M
0,
0+
1*
13
0Q
1R
1S
0C
0!
1{
0|
0}
1'!
0,!
10!
12!
0<!
1F!
0O!
1,
1+
0*
03
1Q
0R
0S
0,
0+
1*
#320000
0-
0G
0$!
0m
0%!
#325000
1-
1G
1$!
1m
1%!
1Z!
0h!
11!
1[!
0g!
1U!
1]!
0_!
0"!
1~
1x
18!
06!
19!
0V
1T
1N
1}
1v
0'!
1,!
00!
15!
1:!
0F!
1N!
1?!
0C!
0M!
01
1/
1'
1S
1C
0{
1|
02!
05!
0:!
1<!
0N!
1O!
1,
13
0Q
1R
1+
0*
#330000
0-
0G
0$!
0m
0%!
#335000
1-
1G
1$!
1m
1%!
0Z!
1h!
01!
0[!
1g!
0U!
0]!
1_!
1"!
0~
0x
08!
16!
07!
1i!
1V
0T
0N
0v
18!
17!
09!
0?!
1C!
1M!
11
0/
0'
1w
0i!
0C
1{
0|
0}
1v
1'!
0,!
10!
12!
0<!
1F!
0O!
08!
19!
1?!
0C!
0M!
1M
03
0w
1Q
0R
0S
1C
1!
0{
1|
1}
0v
0'!
1,!
00!
02!
1<!
0F!
1O!
09!
0?!
1C!
1M!
0M
0,
0+
1*
13
0Q
1R
1S
0C
0!
1{
0|
0}
1'!
0,!
10!
12!
0<!
1F!
0O!
1,
1+
0*
03
1Q
0R
0S
0,
0+
1*
#340000
0-
0G
0$!
0m
0%!
#345000
1-
1G
1$!
1m
1%!
1Z!
0h!
11!
1[!
0g!
1U!
1]!
0_!
0"!
1~
1x
18!
06!
19!
0V
1T
1N
1}
1v
0'!
1,!
00!
15!
1:!
0F!
1N!
1?!
0C!
0M!
01
1/
1'
1S
1C
0{
1|
02!
05!
0:!
1<!
0N!
1O!
1,
13
0Q
1R
1+
0*
#350000
0-
0G
0$!
0m
0%!
#355000
1-
1G
1$!
1m
1%!
0Z!
1h!
01!
0[!
1g!
0U!
0]!
1_!
1"!
0~
0x
08!
16!
07!
1i!
1V
0T
0N
0v
18!
17!
09!
0?!
1C!
1M!
11
0/
0'
1w
0i!
0C
1{
0|
0}
1v
1'!
0,!
10!
12!
0<!
1F!
0O!
08!
19!
1?!
0C!
0M!
1M
03
0w
1Q
0R
0S
1C
1!
0{
1|
1}
0v
0'!
1,!
00!
02!
1<!
0F!
1O!
09!
0?!
1C!
1M!
0M
0,
0+
1*
13
0Q
1R
1S
0C
0!
1{
0|
0}
1'!
0,!
10!
12!
0<!
1F!
0O!
1,
1+
0*
03
1Q
0R
0S
0,
0+
1*
#360000
0-
0G
0$!
0m
0%!
