Practica6/simulation/qsim/Practica6.msim.vcd
$comment
	File created using the following command:
		vcd file Practica6.msim.vcd -direction
$end
$date
	Sat Oct 05 16:02:09 2019
$end
$version
	ModelSim Version 10.5b
$end
$timescale
	1ps
$end

$scope module practica6_vhd_vec_tst $end
$var wire 1 ! carga $end
$var wire 1 " currentState [3] $end
$var wire 1 # currentState [2] $end
$var wire 1 $ currentState [1] $end
$var wire 1 % currentState [0] $end
$var wire 1 & ENTRADA [3] $end
$var wire 1 ' ENTRADA [2] $end
$var wire 1 ( ENTRADA [1] $end
$var wire 1 ) ENTRADA [0] $end
$var wire 1 * int $end
$var wire 1 + mi [1] $end
$var wire 1 , mi [0] $end
$var wire 1 - RELOJ $end
$var wire 1 . RESET $end
$var wire 1 / salidas [3] $end
$var wire 1 0 salidas [2] $end
$var wire 1 1 salidas [1] $end
$var wire 1 2 salidas [0] $end
$var wire 1 3 selector $end
$var wire 1 4 state [3] $end
$var wire 1 5 state [2] $end
$var wire 1 6 state [1] $end
$var wire 1 7 state [0] $end
$var wire 1 8 x $end
$var wire 1 9 y $end

$scope module i1 $end
$var wire 1 : gnd $end
$var wire 1 ; vcc $end
$var wire 1 < unknown $end
$var wire 1 = devoe $end
$var wire 1 > devclrn $end
$var wire 1 ? devpor $end
$var wire 1 @ ww_devoe $end
$var wire 1 A ww_devclrn $end
$var wire 1 B ww_devpor $end
$var wire 1 C ww_selector $end
$var wire 1 D ww_x $end
$var wire 1 E ww_y $end
$var wire 1 F ww_int $end
$var wire 1 G ww_RELOJ $end
$var wire 1 H ww_RESET $end
$var wire 1 I ww_ENTRADA [3] $end
$var wire 1 J ww_ENTRADA [2] $end
$var wire 1 K ww_ENTRADA [1] $end
$var wire 1 L ww_ENTRADA [0] $end
$var wire 1 M ww_carga $end
$var wire 1 N ww_currentState [3] $end
$var wire 1 O ww_currentState [2] $end
$var wire 1 P ww_currentState [1] $end
$var wire 1 Q ww_currentState [0] $end
$var wire 1 R ww_mi [1] $end
$var wire 1 S ww_mi [0] $end
$var wire 1 T ww_salidas [3] $end
$var wire 1 U ww_salidas [2] $end
$var wire 1 V ww_salidas [1] $end
$var wire 1 W ww_salidas [0] $end
$var wire 1 X ww_state [3] $end
$var wire 1 Y ww_state [2] $end
$var wire 1 Z ww_state [1] $end
$var wire 1 [ ww_state [0] $end
$var wire 1 \ \state[3]~output_o\ $end
$var wire 1 ] \state[2]~output_o\ $end
$var wire 1 ^ \state[1]~output_o\ $end
$var wire 1 _ \state[0]~output_o\ $end
$var wire 1 ` \selector~output_o\ $end
$var wire 1 a \carga~output_o\ $end
$var wire 1 b \currentState[3]~output_o\ $end
$var wire 1 c \currentState[2]~output_o\ $end
$var wire 1 d \currentState[1]~output_o\ $end
$var wire 1 e \currentState[0]~output_o\ $end
$var wire 1 f \mi[1]~output_o\ $end
$var wire 1 g \mi[0]~output_o\ $end
$var wire 1 h \salidas[3]~output_o\ $end
$var wire 1 i \salidas[2]~output_o\ $end
$var wire 1 j \salidas[1]~output_o\ $end
$var wire 1 k \salidas[0]~output_o\ $end
$var wire 1 l \RELOJ~input_o\ $end
$var wire 1 m \ENTRADA[3]~input_o\ $end
$var wire 1 n \int~input_o\ $end
$var wire 1 o \x~input_o\ $end
$var wire 1 p \ENTRADA[1]~input_o\ $end
$var wire 1 q \ENTRADA[2]~input_o\ $end
$var wire 1 r \inst7[2]~0_combout\ $end
$var wire 1 s \inst4|Add0~0_combout\ $end
$var wire 1 t \RESET~input_o\ $end
$var wire 1 u \inst1|Mux0~0_combout\ $end
$var wire 1 v \inst5|salida[3]~0_combout\ $end
$var wire 1 w \inst18|Mux4~0_combout\ $end
$var wire 1 x \inst|vf~q\ $end
$var wire 1 y \inst18|Mux3~0_combout\ $end
$var wire 1 z \y~input_o\ $end
$var wire 1 { \inst2|salida~1_combout\ $end
$var wire 1 | \inst1|Mux2~0_combout\ $end
$var wire 1 } \inst7[2]~1_combout\ $end
$var wire 1 ~ \inst4|Add0~1_combout\ $end
$var wire 1 !! \inst5|salida[2]~1_combout\ $end
$var wire 1 "! \inst18|Mux0~0_combout\ $end
$var wire 1 #! \inst12|SALIDA[1]~2_combout\ $end
$var wire 1 $! \inst18|Mux7~0_combout\ $end
$var wire 1 %! \inst12|SALIDA[1]~3_combout\ $end
$var wire 1 &! \inst4|Add0~2_combout\ $end
$var wire 1 '! \inst5|salida[1]~2_combout\ $end
$var wire 1 (! \inst18|Mux2~0_combout\ $end
$var wire 1 )! \inst2|salida~0_combout\ $end
$var wire 1 *! \inst6~combout\ $end
$var wire 1 +! \ENTRADA[0]~input_o\ $end
$var wire 1 ,! \inst12|SALIDA[0]~4_combout\ $end
$var wire 1 -! \inst18|Mux8~0_combout\ $end
$var wire 1 .! \inst12|SALIDA[0]~5_combout\ $end
$var wire 1 /! \inst3|valor_interno[0]~0_combout\ $end
$var wire 1 0! \inst5|salida[0]~3_combout\ $end
$var wire 1 1! \inst18|Mux1~0_combout\ $end
$var wire 1 2! \inst18|Mux5~0_combout\ $end
$var wire 1 3! \inst12|SALIDA[3]~0_combout\ $end
$var wire 1 4! \inst12|SALIDA[3]~1_combout\ $end
$var wire 1 5! \inst12|SALIDA[3]~9_combout\ $end
$var wire 1 6! \inst12|SALIDA[1]~10_combout\ $end
$var wire 1 7! \inst12|SALIDA[0]~11_combout\ $end
$var wire 1 8! \inst18|Mux9~0_combout\ $end
$var wire 1 9! \inst18|Mux10~0_combout\ $end
$var wire 1 :! \inst18|Mux11~0_combout\ $end
$var wire 1 ;! \inst18|Mux12~0_combout\ $end
$var wire 1 <! \inst12|valor_interno\ [3] $end
$var wire 1 =! \inst12|valor_interno\ [2] $end
$var wire 1 >! \inst12|valor_interno\ [1] $end
$var wire 1 ?! \inst12|valor_interno\ [0] $end
$var wire 1 @! \inst|mi\ [1] $end
$var wire 1 A! \inst|mi\ [0] $end
$var wire 1 B! \inst3|valor_interno\ [3] $end
$var wire 1 C! \inst3|valor_interno\ [2] $end
$var wire 1 D! \inst3|valor_interno\ [1] $end
$var wire 1 E! \inst3|valor_interno\ [0] $end
$var wire 1 F! \inst|prueba\ [1] $end
$var wire 1 G! \inst|prueba\ [0] $end
$var wire 1 H! \inst|liga\ [3] $end
$var wire 1 I! \inst|liga\ [2] $end
$var wire 1 J! \inst|liga\ [1] $end
$var wire 1 K! \inst|liga\ [0] $end
$var wire 1 L! \inst11|valor_interno\ [3] $end
$var wire 1 M! \inst11|valor_interno\ [2] $end
$var wire 1 N! \inst11|valor_interno\ [1] $end
$var wire 1 O! \inst11|valor_interno\ [0] $end
$var wire 1 P! \inst18|ALT_INV_Mux9~0_combout\ $end
$var wire 1 Q! \inst18|ALT_INV_Mux10~0_combout\ $end
$var wire 1 R! \ALT_INV_inst6~combout\ $end
$upscope $end
$upscope $end
$enddefinitions $end
#0
$dumpvars
0!
0*
0-
1.
03
18
19
0:
1;
x<
1=
1>
1?
1@
1A
1B
0C
1D
1E
0F
0G
1H
0M
z\
z]
z^
z_
0`
0a
0b
0c
0d
0e
0f
0g
1h
1i
0j
0k
0l
1m
0n
1o
1p
0q
1r
0s
1t
0u
0v
0w
0x
1y
1z
0{
0|
1}
0~
0!!
0"!
1#!
0$!
1%!
0&!
0'!
1(!
1)!
1*!
1+!
1,!
0-!
1.!
1/!
00!
01!
02!
13!
14!
05!
16!
17!
08!
09!
0:!
0;!
1P!
1Q!
0R!
1&
0'
1(
1)
1I
0J
1K
1L
0N
0O
0P
0Q
0R
0S
1T
1U
0V
0W
zX
zY
zZ
z[
0<!
0=!
0>!
0?!
0@!
0A!
0B!
0C!
0D!
0E!
0F!
0G!
0H!
xI!
0J!
0K!
0L!
0M!
0N!
0O!
0"
0#
0$
0%
0+
0,
1/
10
01
02
z4
z5
z6
z7
$end
#5000
1-
1G
1l
1<!
1N!
1G!
1>!
1F!
1O!
1?!
1E!
1L!
10!
0)!
1e
0*!
0y
1&!
0(!
0/!
18!
1:!
0P!
1R!
1Q
1j
1%
1a
0h
1V
1M
0T
11
1!
0/
#10000
0-
0G
0l
#15000
1-
1G
1l
0G!
1D!
0F!
0E!
00!
1'!
1)!
1d
0e
1*!
1"!
1/!
19!
0:!
1;!
0Q!
0R!
1P
0Q
1k
0j
0%
1$
0a
0i
1W
0V
0M
0U
12
01
0!
00
#20000
0-
0G
0l
#25000
1-
1G
1l
1@!
1E!
1f
10!
0r
1u
15!
1R
1\
1]
1^
1_
1`
1e
1v
1!!
0}
1~
0"!
1$!
0&!
1-!
0/!
11!
1:!
0;!
1+
1X
1Y
1Z
1[
1C
1Q
0k
1j
0]
1c
1b
0!!
0~
0$!
0-!
01!
0:!
17
16
15
14
13
1%
0W
1V
0Y
1O
1N
0j
0c
1s
1w
1y
1~
1$!
1-!
11!
12!
1:!
02
11
05
1#
1"
0V
0O
1j
01
0#
1V
11
#30000
0-
0G
0l
#35000
1-
1G
1l
1B!
1x
1G!
1C!
0@!
1J!
0D!
1K!
0E!
1A!
1H!
1g
0f
0u
1{
0)!
1|
0*!
1R!
1S
0R
0`
1u
1!!
0'!
00!
1,
0+
1a
0C
0e
0d
1c
1`
1/!
0w
0$!
1(!
0:!
0!!
1'!
10!
1M
03
0Q
0P
1O
1C
1!
1e
1d
0c
0j
0/!
1w
1$!
0(!
1:!
0%
0$
1#
13
1Q
1P
0O
0V
1j
1%
1$
0#
01
1V
11
#40000
0-
0G
0l
#45000
1-
1G
1l
#50000
0-
0G
0l
#55000
1-
1G
1l
#60000
0-
0G
0l
#65000
1-
1G
1l
#70000
0-
0G
0l
#75000
1-
1G
1l
#80000
0-
0G
0l
#85000
1-
1G
1l
#90000
0-
0G
0l
#95000
1-
1G
1l
#100000
0-
0G
0l
#105000
1-
1G
1l
#110000
0-
0G
0l
#115000
1-
1G
1l
#120000
0-
0G
0l
#125000
1-
1G
1l
#130000
0-
0G
0l
#135000
1-
1G
1l
#140000
0-
0G
0l
#145000
1-
1G
1l
#150000
0-
0G
0l
#155000
1-
1G
1l
#160000
0-
0G
0l
#165000
1-
1G
1l
#170000
0-
0G
0l
#175000
1-
1G
1l
#180000
0-
0G
0l
#185000
1-
1G
1l
#190000
0-
0G
0l
#195000
1-
1G
1l
#200000
0-
0G
0l
#205000
1-
1G
1l
#210000
0-
0G
0l
#215000
1-
1G
1l
#220000
0-
0G
0l
#225000
1-
1G
1l
#230000
0-
0G
0l
#235000
1-
1G
1l
#240000
0-
0G
0l
#245000
1-
1G
1l
#250000
0-
0G
0l
#255000
1-
1G
1l
#260000
0-
0G
0l
#265000
1-
1G
1l
#270000
0-
0G
0l
#275000
1-
1G
1l
#280000
0-
0G
0l
#285000
1-
1G
1l
#290000
0-
0G
0l
#295000
1-
1G
1l
#300000
0-
0G
0l
#305000
1-
1G
1l
#310000
0-
0G
0l
#315000
1-
1G
1l
#320000
0-
0G
0l
#325000
1-
1G
1l
#330000
0-
0G
0l
#335000
1-
1G
1l
#340000
0-
0G
0l
#345000
1-
1G
1l
#350000
0-
0G
0l
#355000
1-
1G
1l
#360000
0-
0G
0l
#365000
1-
1G
1l
#370000
0-
0G
0l
#375000
1-
1G
1l
#380000
0-
0G
0l
#385000
1-
1G
1l
#390000
0-
0G
0l
#395000
1-
1G
1l
#400000
0-
0G
0l
#405000
1-
1G
1l
#410000
0-
0G
0l
#415000
1-
1G
1l
#420000
0-
0G
0l
#425000
1-
1G
1l
#430000
0-
0G
0l
#435000
1-
1G
1l
#440000
0-
0G
0l
#445000
1-
1G
1l
#450000
0-
0G
0l
#455000
1-
1G
1l
#460000
0-
0G
0l
#465000
1-
1G
1l
#470000
0-
0G
0l
#475000
1-
1G
1l
#480000
0-
0G
0l
#485000
1-
1G
1l
#490000
0-
0G
0l
#495000
1-
1G
1l
#500000
0-
0G
0l
#505000
1-
1G
1l
#510000
0-
0G
0l
#515000
1-
1G
1l
#520000
0-
0G
0l
#525000
1-
1G
1l
#530000
0-
0G
0l
#535000
1-
1G
1l
#540000
0-
0G
0l
#545000
1-
1G
1l
#550000
0-
0G
0l
#555000
1-
1G
1l
#560000
0-
0G
0l
#565000
1-
1G
1l
#570000
0-
0G
0l
#575000
1-
1G
1l
#580000
0-
0G
0l
#585000
1-
1G
1l
#590000
0-
0G
0l
#595000
1-
1G
1l
#600000
0-
0G
0l
#605000
1-
1G
1l
#610000
0-
0G
0l
#615000
1-
1G
1l
#620000
0-
0G
0l
#625000
1-
1G
1l
#630000
0-
0G
0l
#635000
1-
1G
1l
#640000
0-
0G
0l
#645000
1-
1G
1l
#650000
0-
0G
0l
#655000
1-
1G
1l
#660000
0-
0G
0l
#665000
1-
1G
1l
#670000
0-
0G
0l
#675000
1-
1G
1l
#680000
0-
0G
0l
#685000
1-
1G
1l
#690000
0-
0G
0l
#695000
1-
1G
1l
#700000
0-
0G
0l
#705000
1-
1G
1l
#710000
0-
0G
0l
#715000
1-
1G
1l
#720000
0-
0G
0l
#725000
1-
1G
1l
#730000
0-
0G
0l
#735000
1-
1G
1l
#740000
0-
0G
0l
#745000
1-
1G
1l
#750000
0-
0G
0l
#755000
1-
1G
1l
#760000
0-
0G
0l
#765000
1-
1G
1l
#770000
0-
0G
0l
#775000
1-
1G
1l
#780000
0-
0G
0l
#785000
1-
1G
1l
#790000
0-
0G
0l
#795000
1-
1G
1l
#800000
0-
0G
0l
#805000
1-
1G
1l
#810000
0-
0G
0l
#815000
1-
1G
1l
#820000
0-
0G
0l
#825000
1-
1G
1l
#830000
0-
0G
0l
#835000
1-
1G
1l
#840000
0-
0G
0l
#845000
1-
1G
1l
#850000
0-
0G
0l
#855000
1-
1G
1l
#860000
0-
0G
0l
#865000
1-
1G
1l
#870000
0-
0G
0l
#875000
1-
1G
1l
#880000
0-
0G
0l
#885000
1-
1G
1l
#890000
0-
0G
0l
#895000
1-
1G
1l
#900000
0-
0G
0l
#905000
1-
1G
1l
#910000
0-
0G
0l
#915000
1-
1G
1l
#920000
0-
0G
0l
#925000
1-
1G
1l
#930000
0-
0G
0l
#935000
1-
1G
1l
#940000
0-
0G
0l
#945000
1-
1G
1l
#950000
0-
0G
0l
#955000
1-
1G
1l
#960000
0-
0G
0l
#965000
1-
1G
1l
#970000
0-
0G
0l
#975000
1-
1G
1l
#980000
0-
0G
0l
#985000
1-
1G
1l
#990000
0-
0G
0l
#995000
1-
1G
1l
